FID-State-County,y1955,y1956,y1960,y1962,y1963,y1966,y1972,y1976,y1987,y1988,y1998
109-North Dakota-Oliver,0.0595698,0.00583329,0.06056379,0.06564868,0.04317652,0.02107495,0.07785251,0.04770485,0.08545776,0.07229878,0.05439459
140-Washington-Benton,0.05878842,0.05103537,0.07415356,0.07796128,0.06616026,0.04414819,0.10638103,0.07739254,0.11189605,0.06031391,0.07206885
398-Idaho-Canyon,0.04593468,0.02370964,0.06850415,0.08076717,0.03834129,0.05064575,0.07507181,0.0293726,0.09104448,0.05687724,0.03385169
464-Iowa-Sioux,0.0481688,0.0,0.0,0.02088146,0.03338237,0.0,0.05385819,0.04400789,0.05012667,0.01898777,0.01345982
476-Idaho-Lincoln,0.07303721,0.04216983,0.08227381,0.09456354,0.06020276,0.05468778,0.09269077,0.0655445,0.10476021,0.06497584,0.06346237
478-Idaho-Minidoka,0.03853165,0.01684423,0.05636671,0.06584833,0.00979612,0.03399787,0.05778353,0.02239309,0.07497907,0.05014293,0.02683556
504-Iowa-Buena Vista,0.07603111,0.02522111,0.02698989,0.03843557,0.04095372,0.03323553,0.0549203,0.05693647,0.04716651,0.02363178,0.0
515-Idaho-Jerome,0.04940329,0.02235891,0.06271493,0.06928529,0.01775457,0.0417683,0.06222048,0.02664386,0.08348671,0.04850764,0.02845041
576-Nebraska-Cuming,0.17291286,0.13676219,0.12670246,0.14688951,0.12464175,0.10660835,0.15739756,0.15330553,0.15816573,0.13587946,0.08977073
621-Iowa-Johnson,0.08448059,0.03604818,0.04701199,0.07532857,0.06415714,0.03134665,0.06280622,0.05463818,0.0825145,0.07782248,0.02521609
634-Nebraska-Valley,0.53050325,0.50602381,0.50608869,0.503003,0.51093993,0.48756467,0.52480895,0.50595785,0.50782387,0.50225188,0.49807326
638-Indiana-Lake,0.16324603,0.1347574,0.16561977,0.18931833,0.1602691,0.12632689,0.1674023,0.14656163,0.17098249,0.1551434,0.15263649
641-Ohio-Geauga,0.31051761,0.27579024,0.31134099,0.32726099,0.31085913,0.28894002,0.32312924,0.29488467,0.32292924,0.29967271,0.31182726
644-Nebraska-Banner,0.04229051,0.0179842,0.06171715,0.06046239,0.04727433,0.02284193,0.05885018,0.04150231,0.06421643,0.03301531,0.04342697
646-Rhode Island-Newport,0.21934504,0.19055896,0.21976214,0.2372106,0.21592941,0.20063291,0.23312611,0.20735196,0.23693235,0.2111977,0.21745365
673-Nebraska-Nance,0.08289926,0.04438622,0.05900382,0.07877197,0.05986084,0.03805199,0.07126665,0.05606017,0.08061497,0.058219,0.05006364
690-Massachusetts-Dukes,1.0,1.0,1.0,0.99881764,1.0,1.0,0.99509495,0.99984878,0.99673437,0.99973767,0.99813729
704-Nebraska-Polk,0.1562414,0.12765062,0.11888199,0.13127531,0.1194732,0.12229741,0.12318827,0.12341066,0.14015062,0.12639958,0.10252444
707-Nebraska-Howard,0.09634081,0.06255356,0.07487188,0.08587727,0.07767222,0.06001648,0.08844878,0.06432665,0.09204475,0.06951527,0.06575053
710-Massachusetts-Nantucket,1.0,1.0,1.0,0.99881764,1.0,1.0,0.99509495,0.99984878,0.99673437,0.99973767,0.99813729
720-Illinois-Mercer,0.07797587,0.0470027,0.06168393,0.087232,0.07252989,0.03803555,0.07074329,0.06098951,0.09040668,0.08295815,0.03308703
815-New York-Bronx,0.11136299,0.07554328,0.10991689,0.13070468,0.10620852,0.08584425,0.12877226,0.09577733,0.13149268,0.09862515,0.11318291
833-New York-New York,0.44604682,0.42282098,0.4427113,0.45763561,0.44180673,0.42871142,0.45372359,0.43546853,0.45598155,0.43545646,0.44455658
840-Ohio-Hardin,0.22340569,0.18697898,0.23493817,0.24903824,0.2316185,0.18294067,0.22054666,0.21321964,0.23640939,0.22605807,0.20745483
841-New York-Queens,0.32702855,0.29968732,0.32459198,0.3419609,0.32332256,0.30814488,0.33932639,0.31585773,0.34259562,0.31696581,0.32845704
844-New Jersey-Hunterdon,0.10000461,0.06247893,0.10203232,0.12288452,0.09980473,0.07976321,0.11586652,0.09054365,0.11907285,0.08683005,0.10032237
854-New York-Kings,0.12918315,0.0930062,0.12576597,0.14664247,0.12304784,0.10305309,0.14426124,0.11397225,0.14856552,0.11565311,0.12996475
886-West Virginia-Hancock,0.11658241,0.07291444,0.11796581,0.13717026,0.11286952,0.0911084,0.13474725,0.10226789,0.13617071,0.10471641,0.11641567
890-Missouri-Schuyler,0.0804605,0.04013454,0.06583363,0.09269608,0.07050859,0.04666107,0.07732222,0.05694513,0.09322064,0.07419625,0.0490327
891-New Jersey-Middlesex,0.34028132,0.31238897,0.33833437,0.35471616,0.33724709,0.31955352,0.35005289,0.33034371,0.35187654,0.3291154,0.34013302
904-Ohio-Knox,0.06940155,0.01980264,0.07201461,0.09221095,0.07271384,0.03730499,0.08007078,0.05086673,0.08658015,0.05551853,0.05754764
914-Ohio-Shelby,0.06405597,0.03359113,0.07788235,0.10187724,0.07620952,0.03397756,0.07061048,0.06175869,0.08676624,0.06829078,0.04715984
956-Illinois-Piatt,0.08668505,0.05676957,0.08760614,0.11714191,0.09798993,0.0562598,0.09725085,0.09092555,0.11114791,0.11133798,0.06003415
969-Indiana-Hamilton,0.38847398,0.35857624,0.39326002,0.40716545,0.389608,0.37075034,0.39656222,0.37939813,0.40620045,0.39076539,0.36308458
981-Ohio-Belmont,0.09840883,0.05111814,0.10117365,0.11812195,0.0930188,0.07335027,0.11426404,0.08099946,0.11767951,0.08358573,0.09344691
1063-Missouri-Caldwell,0.42789197,0.41867042,0.41175645,0.43413596,0.42818909,0.41726342,0.41354233,0.42273024,0.43237969,0.43269554,0.38179595
1096-West Virginia-Mineral,0.14416529,0.10378921,0.14465997,0.1627192,0.13882475,0.12324671,0.16164338,0.12946437,0.16600983,0.13117602,0.14666088
1152-California-Colusa,0.06223365,0.01832538,0.06837492,0.0849397,0.03622021,0.04169909,0.07078193,0.03832161,0.09536509,0.04422388,0.02920031
1174-Indiana-Monroe,0.0966011,0.06018253,0.1004107,0.11823722,0.09538552,0.06965574,0.11369135,0.08553175,0.11957093,0.08818526,0.09014643
1183-California-Sutter,0.18049126,0.13968909,0.19361419,0.20769032,0.14277763,0.1729107,0.18676776,0.16173908,0.21096488,0.16204104,0.136411
1188-Virginia-Clarke,0.2104979,0.17419485,0.20942121,0.22723522,0.20379924,0.19404929,0.22283441,0.19319999,0.22994668,0.20011237,0.21415696
1190-Nevada-Carson City,0.44787546,0.43477799,0.46174253,0.46319197,0.44833993,0.43705386,0.46279663,0.44833657,0.47302573,0.45094754,0.44728589
1253-Colorado-Cheyenne,0.08461539,0.05024392,0.0631178,0.0783154,0.06628107,0.04185865,0.0751897,0.05016685,0.07359783,0.04913669,0.04893498
1256-Illinois-Bond,0.13624224,0.097147,0.13329002,0.15832181,0.13685875,0.10293836,0.12326012,0.13095003,0.14600245,0.13232442,0.09043651
1263-District of Columbia-Washington,0.63077299,0.61538226,0.62937182,0.64021037,0.62592296,0.6190225,0.63645734,0.62277146,0.63880472,0.62480612,0.63228347
1363-Illinois-Wabash,0.03547915,0.0081356,0.04924743,0.07620704,0.05340914,0.025267,0.05717204,0.03909083,0.07103953,0.03956606,0.0148769
1384-Kentucky-Boyd,0.2634821,0.22826216,0.2644927,0.27682853,0.25893673,0.23934748,0.27703624,0.24941971,0.2819542,0.24992469,0.2635095
1420-California-San Joaquin,0.13906367,0.10429677,0.1626398,0.17638861,0.11275417,0.13482198,0.15944223,0.13116944,0.17885839,0.13630069,0.10689934
1466-Colorado-San Miguel,0.15695262,0.12002274,0.15388749,0.17092586,0.14661511,0.12687063,0.16939645,0.13945566,0.17148678,0.13769823,0.15332789
1477-Virginia-Richmond,0.4224153,0.39669892,0.41842228,0.43566569,0.42395974,0.40883961,0.43995223,0.41535123,0.44093975,0.42276681,0.43052013
1483-California-Stanislaus,0.05652284,0.0170927,0.06717344,0.08457573,0.03302998,0.03841359,0.07018745,0.03710771,0.08559441,0.0422426,0.03117362
1504-Kansas-Gray,0.0,0.02152644,0.01441357,0.0,0.0,0.00395124,0.019307,0.00050489,0.0,0.0,0.01447059
1546-Virginia-Amherst,0.13867322,0.09974385,0.13652009,0.15421454,0.13189315,0.11105091,0.15323905,0.1193482,0.15498554,0.12680984,0.13953799
1547-California-San Francisco,0.17613174,0.15139317,0.18400763,0.19650642,0.17441314,0.15238121,0.19453097,0.17009431,0.20134394,0.17079866,0.17816553
1548-Virginia-Covington,0.10498655,0.06384649,0.10256578,0.12137518,0.09632316,0.0767137,0.12223776,0.08487382,0.12252385,0.08946875,0.10415018
1565-Kansas-Haskell,0.00277407,0.02294753,0.02120929,0.01683026,0.01494405,0.00253139,0.0,0.0,0.02865856,0.01165163,0.02023864
1592-California-Merced,0.09836746,0.05835061,0.1082586,0.12714867,0.06950299,0.08104742,0.1032374,0.07216027,0.11929589,0.07786441,0.06374317
1659-Kentucky-Caldwell,0.06852132,0.03133357,0.07061263,0.08600559,0.07264882,0.03863705,0.0820946,0.0525943,0.08745272,0.04304309,0.0572532
1675-Virginia-Hopewell,0.99932576,0.99631849,0.99759044,1.0,0.99928867,0.99970769,1.0,1.0,1.0,1.0,1.0
1691-Virginia-Charlotte,0.20650631,0.1758748,0.20729807,0.22293086,0.20834114,0.18398159,0.22815724,0.19526577,0.22908226,0.19845988,0.20913698
1697-Kentucky-Ballard,0.21730072,0.19144697,0.2186586,0.23718306,0.22667709,0.18943817,0.22610449,0.20853026,0.24199465,0.19402201,0.197435
1707-Virginia-Radford,0.59933893,0.57603906,0.59675301,0.6042741,0.59490627,0.58258556,0.60416438,0.5866781,0.60305598,0.59093286,0.59616257
1835-North Carolina-Warren,0.08722924,0.04672831,0.08823024,0.10488445,0.08323377,0.06315058,0.10815472,0.07049357,0.10896297,0.0759618,0.08921229
1868-California-Kings,0.25238785,0.21660515,0.28641034,0.2893919,0.21354533,0.25413836,0.26749836,0.2293062,0.27909176,0.2379089,0.19983586
1900-Oklahoma-Payne,0.06471576,0.03262444,0.05325922,0.07469636,0.0530416,0.03489398,0.07481963,0.04657699,0.07623433,0.04004004,0.04812907
1939-Texas-Hemphill,0.09176858,0.05916565,0.07864766,0.10600132,0.08265799,0.0668999,0.10117974,0.07181762,0.10537227,0.0729467,0.08744584
2039-North Carolina-Moore,0.13414355,0.09412642,0.13431867,0.15005858,0.12514458,0.10805982,0.15188347,0.11496638,0.15580586,0.11989068,0.13290458
2050-Oklahoma-Haskell,0.0764468,0.03925112,0.06479336,0.09173275,0.07513695,0.0470636,0.08408097,0.04944923,0.0855255,0.05535689,0.06850123
2065-Tennessee-Moore,0.10727988,0.06806663,0.11124586,0.130328,0.10351079,0.08615132,0.12252603,0.09474019,0.14021392,0.09516439,0.10140765
2119-South Carolina-Lancaster,0.24013718,0.20933292,0.23766041,0.25337497,0.23074959,0.21634155,0.25151373,0.22088444,0.2577417,0.22735374,0.23762954
2151-South Carolina-Union,0.07411046,0.03371502,0.06959961,0.08883987,0.06174256,0.04148676,0.08702971,0.04848666,0.09485426,0.05881743,0.07104459
2239-South Carolina-Lee,0.16518628,0.12828434,0.15751569,0.17087608,0.14622757,0.13120864,0.17667912,0.13485297,0.17794874,0.15126231,0.15703528
2372-Georgia-Fayette,0.16053482,0.12153416,0.15782834,0.17375534,0.146891,0.12962789,0.1737015,0.13774963,0.18014151,0.14623198,0.15871203
2380-Georgia-Coweta,0.36223219,0.32863819,0.35691368,0.36919466,0.34822708,0.33548987,0.3677796,0.34126494,0.37407091,0.34836719,0.35769923
2396-California-Imperial,0.14993185,0.13466413,0.17178331,0.18820337,0.14299873,0.1310135,0.16929301,0.12212155,0.18632721,0.14424204,0.14914599
2556-Louisiana-Franklin,0.06765037,0.04188364,0.0824402,0.10612157,0.08133211,0.0458594,0.08973918,0.05945682,0.09748452,0.05203462,0.06539028
2829-Texas-Austin,0.14515274,0.11652143,0.11971579,0.15683113,0.14039651,0.11388974,0.15661129,0.10944238,0.15205256,0.12972778,0.13028708
2876-Texas-Maverick,0.0925789,0.06140365,0.08584888,0.11437864,0.08514608,0.0615677,0.10526749,0.05657609,0.10697037,0.07980924,0.09337709
2889-Texas-Refugio,0.13356409,0.09956452,0.1024301,0.14682287,0.12643599,0.09568839,0.12844276,0.09021126,0.14646839,0.12054228,0.11953121
2895-Florida-Pinellas,0.24540601,0.21596018,0.23897156,0.25533314,0.23582455,0.22132991,0.26190508,0.22871109,0.25928904,0.22861491,0.24714348
2907-Texas-Kleberg,0.05648819,0.01833056,0.03646672,0.07660025,0.05002444,0.0170235,0.05409103,0.00985338,0.07265825,0.04277529,0.05217965
2925-Texas-Cameron,0.11719144,0.09361146,0.10559138,0.14656654,0.10101474,0.07951001,0.10002556,0.05431138,0.11751565,0.10836352,0.11384209
2972-Michigan-Benzie,0.12343551,0.08029574,0.11548388,0.13843974,0.11184583,0.0900154,0.13348026,0.10166526,0.13612473,0.10224054,0.11647685
3008-Michigan-Tuscola,0.07488126,0.02088959,0.07211855,0.08933797,0.06932139,0.04125447,0.0670146,0.04626171,0.08321964,0.05121328,0.06563347
3033-Wisconsin-Waukesha,0.08254216,0.03942252,0.07115372,0.10460906,0.07857083,0.05278933,0.09856922,0.06509278,0.09164801,0.06956634,0.07184476
3035-New York-Madison,0.0609144,0.01810041,0.06200648,0.0822654,0.05391264,0.03122242,0.07661651,0.02964103,0.08446395,0.04966956,0.05975494
3070-Illinois-Boone,0.18035953,0.13773589,0.15632268,0.1982318,0.1668182,0.14595124,0.17387704,0.16903606,0.16357596,0.17703119,0.13777077
3071-Illinois-Lake,0.1360583,0.09697491,0.13206376,0.1555308,0.12845234,0.10279523,0.14757501,0.11770382,0.14514071,0.12278788,0.12928275
3081-Pennsylvania-Erie,0.09957263,0.05053833,0.10215831,0.11891385,0.09470581,0.06742414,0.10959038,0.07850003,0.11246862,0.0827318,0.10181854
3084-Illinois-Carroll,0.05783437,0.0121889,0.04365847,0.07889804,0.05895057,0.03212156,0.06078709,0.05556669,0.06818343,0.07328784,0.02079113
3087-Illinois-De Kalb,0.17949347,0.14719346,0.16064742,0.21160397,0.16985928,0.1466316,0.18523765,0.17628809,0.159195,0.18324026,0.14300894

