[
    {
       "id": "641-Ohio-Geauga",
       "lat": 41.499322,
       "lon": -81.173505,
       "agprod": 1,
       "color": "red"
    },
    {
       "id": "815-New York-Bronx",
       "lat": 40.848711,
       "lon": -73.852939,
       "agprod": 1,
       "color": "red"
    },
    {
       "id": "833-New York-New York",
       "lat": 40.776557,
       "lon": -73.970174,
       "agprod": 1,
       "color": "red"
    },
    {
       "id": "841-New York-Queens",
       "lat": 40.658557,
       "lon": -73.837929,
       "agprod": 1,
       "color": "red"
    },
    {
       "id": "854-New York-Kings",
       "lat": 40.635133,
       "lon": -73.950777,
       "agprod": 1,
       "color": "red"
    },
    {
       "id": "891-New Jersey-Middlesex",
       "lat": 40.439593,
       "lon": -74.407585,
       "agprod": 1,
       "color": "red"
    },
    {
       "id": "969-Indiana-Hamilton",
       "lat": 40.04987,
       "lon": -86.020586,
       "agprod": 1,
       "color": "red"
    },
    {
       "id": "981-Ohio-Belmont",
       "lat": 40.017682,
       "lon": -80.967727,
       "agprod": 1,
       "color": "red"
    },
    {
       "id": "1096-West Virginia-Mineral",
       "lat": 39.405626,
       "lon": -78.956581,
       "agprod": 1,
       "color": "red"
    },
    {
       "id": "1263-District of Columbia-Washington",
       "lat": 38.904149,
       "lon": -77.017094,
       "agprod": 1,
       "color": "red"
    },
    {
       "id": "1384-Kentucky-Boyd",
       "lat": 38.360004,
       "lon": -82.681406,
       "agprod": 1,
       "color": "red"
    },
    {
       "id": "1546-Virginia-Amherst",
       "lat": 37.630362,
       "lon": -79.147848,
       "agprod": 1,
       "color": "red"
    },
    {
       "id": "1547-California-San Francisco",
       "lat": 37.727239,
       "lon": -123.032229,
       "agprod": 1,
       "color": "red"
    },
    {
       "id": "1548-Virginia-Covington",
       "lat": 37.778143,
       "lon": -79.986039,
       "agprod": 1,
       "color": "red"
    },
    {
       "id": "1707-Virginia-Radford",
       "lat": 37.120036,
       "lon": -80.557048,
       "agprod": 1,
       "color": "red"
    },
    {
       "id": "1835-North Carolina-Warren",
       "lat": 36.397979,
       "lon": -78.099924,
       "agprod": 1,
       "color": "red"
    },
    {
       "id": "2039-North Carolina-Moore",
       "lat": 35.310163,
       "lon": -79.480664,
       "agprod": 1,
       "color": "red"
    },
    {
       "id": "2119-South Carolina-Lancaster",
       "lat": 34.686818,
       "lon": -80.703689,
       "agprod": 1,
       "color": "red"
    },
    {
       "id": "2151-South Carolina-Union",
       "lat": 34.690514,
       "lon": -81.615831,
       "agprod": 1,
       "color": "red"
    },
    {
       "id": "2239-South Carolina-Lee",
       "lat": 34.15864,
       "lon": -80.251209,
       "agprod": 1,
       "color": "red"
    },
    {
       "id": "2372-Georgia-Fayette",
       "lat": 33.412717,
       "lon": -84.493941,
       "agprod": 1,
       "color": "red"
    },
    {
       "id": "2380-Georgia-Coweta",
       "lat": 33.352897,
       "lon": -84.762138,
       "agprod": 1,
       "color": "red"
    },
    {
       "id": "2895-Florida-Pinellas",
       "lat": 27.903122,
       "lon": -82.739518,
       "agprod": 1,
       "color": "red"
    },
    {
       "id": "2972-Michigan-Benzie",
       "lat": 44.648621,
       "lon": -86.494317,
       "agprod": 1,
       "color": "red"
    },
    {
       "id": "3035-New York-Madison",
       "lat": 42.910026,
       "lon": -75.663575,
       "agprod": 1,
       "color": "red"
    }
]