State-County-FID,y1952,y1953,y1955,y1956,y1960,y1962,y1963,y1966,y1972,y1976,y1987,y1988,y1998,colors
Ohio-Geauga-641,0.0068952,0.0075739,0.00750643,0.00640653,0.00753052,0.00806989,0.00745847,0.00678345,0.00798635,0.00700448,0.00800452,0.0071572,0.00755921,1.0
Rhode Island-Newport-646,0.00469513,0.00523581,0.00530243,0.00442663,0.00531547,0.00584935,0.00518081,0.00471026,0.00576186,0.00492529,0.0058729,0.00504412,0.00527144,2.0
New York-Bronx-815,0.00200645,0.00271396,0.00269208,0.00175485,0.0026586,0.00322303,0.00254827,0.00201537,0.00318269,0.00227503,0.00325934,0.0023555,0.00274374,3.0
New York-New York-833,0.01007324,0.01076409,0.0107827,0.00982201,0.01070802,0.01128478,0.01060031,0.01006486,0.01121407,0.01034381,0.01130252,0.01040018,0.01077679,3.0
New York-Queens-841,0.00721504,0.00791124,0.00790556,0.00696165,0.00785102,0.00843237,0.00775751,0.00723432,0.00838667,0.00750266,0.008492,0.00757022,0.00796235,3.0
New Jersey-Hunterdon-844,0.00151425,0.002469,0.0024175,0.00145137,0.00246789,0.0030302,0.00239462,0.0018726,0.00286372,0.00215071,0.00295149,0.0020738,0.00243198,4.0
New York-Kings-854,0.00240843,0.00311659,0.00312286,0.00216051,0.00304195,0.00361604,0.0029523,0.00241938,0.00356551,0.00270722,0.00368253,0.00276219,0.00315056,3.0
West Virginia-Hancock-886,0.00212964,0.00293485,0.00281825,0.00169378,0.00285328,0.00338247,0.00270809,0.00213895,0.00333037,0.0024292,0.0033753,0.00250098,0.00282211,5.0
New Jersey-Middlesex-891,0.00745522,0.0082464,0.00822593,0.00725671,0.00818342,0.0087469,0.0080916,0.00750216,0.00865178,0.00784675,0.00872205,0.00786039,0.00824539,4.0
Ohio-Knox-904,0.0010837,0.00188963,0.00167771,0.00046001,0.00174184,0.00227382,0.00174463,0.00087581,0.001979,0.00120825,0.00214608,0.00132597,0.00139505,1.0
Indiana-Hamilton-969,0.00862389,0.00936048,0.00939094,0.00832963,0.00951192,0.01004025,0.0093479,0.00870411,0.00980129,0.00901195,0.01006859,0.0093328,0.00880177,6.0
Ohio-Belmont-981,0.00172457,0.0025086,0.00237893,0.00118746,0.00244712,0.00291276,0.00223181,0.00172204,0.00282411,0.001924,0.00291695,0.00199631,0.00226531,1.0
Indiana-Monroe-1174,0.00171414,0.00246918,0.00233523,0.00139802,0.00242867,0.0029156,0.00228859,0.00163531,0.00280996,0.00203166,0.00296383,0.00210616,0.0021853,6.0
District of Columbia-Washington-1263,0.0144892,0.01523275,0.01524825,0.01429516,0.01522284,0.01578687,0.01501782,0.0145328,0.01573045,0.01479287,0.0158342,0.01492249,0.0153276,7.0
Kentucky-Boyd-1384,0.0057272,0.00646852,0.00636939,0.00530247,0.00639738,0.00682628,0.00621269,0.00561916,0.00684713,0.00592454,0.00698886,0.00596905,0.00638791,8.0
Colorado-San Miguel-1466,0.00310048,0.00375157,0.00379416,0.00278809,0.00372213,0.00421484,0.00351775,0.00297854,0.00418674,0.00331253,0.00425068,0.0032887,0.00371692,9.0
Virginia-Richmond-1477,0.00963494,0.01048288,0.01021143,0.00921521,0.01012053,0.01074303,0.0101721,0.00959833,0.0108737,0.00986596,0.01092968,0.01009711,0.01043652,10.0
Virginia-Amherst-1546,0.00254238,0.003352,0.00335227,0.00231702,0.00330206,0.00380276,0.00316452,0.00260714,0.0037874,0.00283491,0.00384166,0.00302865,0.00338263,10.0
California-San Francisco-1547,0.00367038,0.00446166,0.00425779,0.00351682,0.00445066,0.00484563,0.00418471,0.00357745,0.00480796,0.0040403,0.00499076,0.00407925,0.00431903,11.0
Virginia-Covington-1548,0.00180448,0.00252831,0.00253794,0.00148314,0.0024808,0.00299298,0.00231109,0.00180101,0.00302118,0.00201603,0.00303703,0.00213682,0.00252477,10.0
Virginia-Charlotte-1691,0.00431903,0.00510674,0.00499207,0.00408552,0.00501399,0.00549723,0.00499875,0.00431934,0.00563905,0.0046382,0.00567832,0.0047399,0.00506983,10.0
Virginia-Radford-1707,0.0137497,0.01444236,0.01448837,0.01338123,0.01443388,0.01490073,0.01427364,0.01367737,0.01493231,0.01393553,0.01494809,0.01411348,0.01445197,10.0
North Carolina-Warren-1835,0.0014143,0.00220313,0.00210867,0.00108549,0.00213406,0.00258633,0.00199704,0.00148259,0.00267311,0.00167445,0.00270089,0.00181423,0.00216265,12.0
Tennessee-Moore-2065,0.00207592,0.00269655,0.00259337,0.00158117,0.00269074,0.00321374,0.00248354,0.00202258,0.00302831,0.00225039,0.00347552,0.00227285,0.00245829,13.0
South Carolina-Lancaster-2119,0.00500539,0.00580241,0.00580506,0.00486275,0.00574838,0.00624794,0.0055364,0.00507905,0.00621632,0.00524673,0.0063887,0.00542998,0.00576054,14.0
South Carolina-Lee-2239,0.00297377,0.00397577,0.0039932,0.00298001,0.00380989,0.00421361,0.00350845,0.00308039,0.00436674,0.0032032,0.00441086,0.00361266,0.0038068,14.0
Georgia-Fayette-2372,0.00313656,0.00378453,0.00388075,0.0028232,0.00381745,0.00428461,0.00352437,0.00304328,0.00429314,0.00327201,0.00446521,0.00349252,0.00384744,15.0
Georgia-Coweta-2380,0.0079635,0.00861861,0.00875657,0.00763417,0.0086328,0.00910393,0.00835504,0.0078763,0.00908991,0.00810616,0.00927218,0.00832019,0.00867123,15.0
Florida-Pinellas-2895,0.00522829,0.00580394,0.00593242,0.00501669,0.00578009,0.00629623,0.00565816,0.00519616,0.00647315,0.00543264,0.00642706,0.0054601,0.00599117,16.0
Michigan-Benzie-2972,0.00214421,0.00289349,0.00298392,0.00186525,0.00279325,0.00341377,0.00268353,0.00211329,0.00329905,0.00241488,0.00337416,0.00244185,0.00282359,17.0
Illinois-Lake-3071,0.00251813,0.00328051,0.00328906,0.0022527,0.00319427,0.00383522,0.00308197,0.00241332,0.00364741,0.00279585,0.00359764,0.00293259,0.00313403,18.0
Pennsylvania-Erie-3081,0.00171426,0.00241489,0.00240706,0.00117399,0.00247094,0.00293228,0.00227228,0.00158292,0.0027086,0.00186463,0.00278779,0.00197592,0.00246825,19.0
BASE,0,0,0,0,0,0,0,0,0,0,0,0,0,0
MAX,0.016,0.016,0.016,0.016,0.016,0.016,0.016,0.016,0.016,0.016,0.016,0.016,0.016,0