[
    {
       "id": "398-Idaho-Canyon",
       "lat": 43.623051,
       "lon": -116.708527,
       "agprod": 1,
       "color": "red"
    },
    {
       "id": "515-Idaho-Jerome",
       "lat": 42.691172,
       "lon": -114.263009,
       "agprod": 1,
       "color": "red"
    },
    {
       "id": "1152-California-Colusa",
       "lat": 39.177739,
       "lon": -122.237563,
       "agprod": 1,
       "color": "red"
    },
    {
       "id": "1183-California-Sutter",
       "lat": 39.035257,
       "lon": -121.702758,
       "agprod": 1,
       "color": "red"
    },
    {
       "id": "1420-California-San Joaquin",
       "lat": 37.935034,
       "lon": -121.272237,
       "agprod": 1,
       "color": "red"
    },
    {
       "id": "1483-California-Stanislaus",
       "lat": 37.562384,
       "lon": -121.002656,
       "agprod": 1,
       "color": "red"
    },
    {
       "id": "1592-California-Merced",
       "lat": 37.194806,
       "lon": -120.722802,
       "agprod": 1,
       "color": "red"
    },
    {
       "id": "1868-California-Kings",
       "lat": 36.072478,
       "lon": -119.81553,
       "agprod": 1,
       "color": "red"
    }
]