State-County-FID,y1952,y1953,y1955,y1956,y1960,y1962,y1963,y1966,y1972,y1976,y1987,y1988,y1998 
California-Kings-1868,2.3751233,2.2664027,2.317938,2.3037173,2.569117,2.4871989,2.1088735,2.5076018,2.3335679,2.277274,2.3989275,2.3150668,1.9556465
California-Sutter-1183,1.7945024,1.6742064,1.8211957,1.7935676,1.9276313,1.9111097,1.6236656,1.9629592,1.7629659,1.8187596,1.915989,1.7973576,1.5161874
California-San Joaquin-1420,1.6060229,1.5199671,1.5349674,1.5588262,1.71351,1.690397,1.4178143,1.7075691,1.5698297,1.6113122,1.6883922,1.6217099,1.3117066
California-Merced-1592,1.2593395,1.2081412,1.2537923,1.2540859,1.337581,1.3431994,1.1212692,1.3470033,1.1725753,1.2108725,1.266165,1.2229508,1.0126855
Idaho-Lincoln-476,1.1316078,1.1306512,1.0787825,1.1467661,1.1579521,1.1134371,1.0575036,1.1702583,1.098032,1.1659775,1.1631243,1.1350014,1.0107399
California-Stanislaus-1483,0.9759712,0.9137882,0.9646827,0.9804407,1.0535655,1.0430117,0.8711976,1.0611376,0.938979,0.9730038,1.0272616,0.9798737,0.7870171
California-Colusa-1152,0.9919247,0.9318248,1.0041394,0.9886165,1.0618712,1.0455781,0.8930709,1.0831673,0.9431808,0.9812414,1.0965241,0.9933936,0.7733444
Idaho-Jerome-515,0.9869479,0.8927047,0.9154929,1.0153691,1.0227445,0.9351967,0.7664641,1.0836314,0.8826687,0.9019955,1.0123205,1.0226253,0.7681485
Idaho-Minidoka-478,0.9659535,0.8547521,0.8403794,0.9787927,0.9788602,0.9109622,0.7118982,1.0315296,0.8513084,0.8731495,0.9520115,1.0337842,0.7569595
Idaho-Canyon-398,1.0173888,0.860997,0.8915278,1.0243279,1.0627645,1.016157,0.9076138,1.1431559,0.9735016,0.9205129,1.0658961,1.079738,0.805573
