FID-State-County,Latitude,Longitude,y1952,y1953,y1955,y1956,y1960,y1962,y1963,y1966,y1972,y1976,y1987,y1988,y1998,colors
844-New Jersey-Hunterdon,40.565283,-74.91197,0.0012136627,0.0017200721,0.0015611719,0.0013160407,0.0018162643,0.0020843927,0.0021600923,0.0013785071,0.0015083724,0.0016196615,0.0017844456,0.0015102418,0.0024319814,1
1174-Indiana-Monroe,39.160751,-86.523325,0.0014136143,0.0017202574,0.001478825,0.0012626887,0.001777016,0.0019696866,0.0020540367,0.0011410964,0.0014545388,0.0015005492,0.0017968061,0.001542627,0.0021852996,2
1466-Colorado-San Miguel,38.009374,-108.427326,0.0028003757,0.0030036122,0.0029390097,0.0026529486,0.0030713233,0.0032701622,0.0032834819,0.0024849958,0.0028331975,0.002782101,0.0030851626,0.0027258328,0.0037169234,3
2065-Tennessee-Moore,35.288889,-86.358684,0.0017755008,0.0019478013,0.0017371945,0.001445859,0.0020392611,0.0022681147,0.0022490329,0.0015285548,0.0016731903,0.0017193962,0.0023090875,0.0017094065,0.0024582903,4
3081-Pennsylvania-Erie,42.117952,-80.096386,0.00141374,0.0016659215,0.0015507203,0.0010386264,0.0018193135,0.0019863873,0.0020377246,0.0010886791,0.0013530427,0.0013334337,0.0016205535,0.0014123062,0.0024682511,5
MIN,0,0,0,0,0,0,0,0,0,0,0,0,0,0,0,0
MAX,0,0,0.003977108038,0.003977108038,0.003977108038,0.003977108038,0.003977108038,0.003977108038,0.003977108038,0.003977108038,0.003977108038,0.003977108038,0.003977108038,0.003977108038,0.003977108038,0