County,NDI Median,NDI,1949,1950,1951,1952,1953,1954,1955,1956,1957,1958,1959,1960,1961,1962,1963,1964,1965,1966,1967,1968,1969,1970,1971,1972,1973,1974,1975,1976,1977,1978,1979,1980,1981,1982,1983,1984,1985,1986,1987,1988,1989,1990,1991,1992,1993,1994,1995,1996,1997,1998,1999,2000,2001,2002,2003,2004,2005,2006,2007,2008,2009
Lauderdale,0.887813849,0.975458842,0.825186652,0.858071231,0.880245664,0.92476671,0.913440811,0.960976065,0.893724714,0.897931718,0.903097368,0.911626171,0.891799724,0.928454866,0.856134071,0.957716339,0.915986186,0.877167353,0.930099991,0.946265424,0.869269221,0.921551519,0.879799821,0.931985441,0.945520781,0.873429645,0.880740591,0.884716725,0.835447995,0.926141855,0.897163629,0.903539065,0.851971267,0.900663511,0.903977617,0.887813849,0.848681192,0.89506414,0.943671042,0.878329666,0.97516152,0.887315534,0.823768365,0.858477114,0.814655022,0.885682136,0.887396717,0.837944038,0.885958974,0.843939931,0.844840253,0.841165408,0.938892184,0.914046636,0.853318677,0.863040052,0.873295631,0.82093419,0.916968036,0.941966886,0.975458842,0.915103871,0.850793838
Limestone,0.055533905,0.10081197,0.028227441,0.037014621,0.073962688,0.084735738,0.083341687,0.10081197,0.057896787,0.058506829,0.076282323,0.041157533,0.032364136,0.061871679,0.040093897,0.075891858,0.052085882,0.069185272,0.04367862,0.060928058,0.021991403,0.068074531,0.072694513,0.045617911,0.060456202,0.021789068,0.060190605,0.04919147,0.029945408,0.036744305,0.081505997,0.047785137,0.046852191,0.06902903,0.045172896,0.0357693,0.067197749,0.058187727,0.039131879,0.041074618,0.079007948,0.08161043,0.024933586,0.068347264,0.067969364,0.014643284,0.055340908,0.024075289,0.055533905,0.037177342,0.04079645,0.056503126,0.057073706,0.08106502,0.01992261,0.060689888,0.031463995,0.016743934,0.050149498,0.086290913,0.100464278,0.067239772,0.041874856
Madison,0.560520602,0.66953689,0.526654121,0.560383652,0.544140545,0.593360833,0.598138657,0.63679049,0.582523884,0.571124143,0.587844482,0.595031818,0.579265845,0.58971343,0.521512019,0.617012874,0.566776268,0.526901428,0.580933283,0.590062423,0.500330017,0.587310832,0.529479634,0.586338561,0.59022188,0.506460361,0.542301327,0.543787874,0.512310359,0.565411488,0.544014288,0.566474,0.558000981,0.571845511,0.560520602,0.57603673,0.528911061,0.553005776,0.592867731,0.552783495,0.621260051,0.577352782,0.477326658,0.534382133,0.531390636,0.555067126,0.547802392,0.537796652,0.559594176,0.533610168,0.52950319,0.583326336,0.604021364,0.581837835,0.521961858,0.549293735,0.544794936,0.529847733,0.599155337,0.623693433,0.66953689,0.578675932,0.503430296
Jackson,0.014090889,0.029833043,0.005724214,0.010158797,0.012263598,0.024319038,0.01554479,0.02854651,0.012673211,0.02366401,0.018875015,0.015931747,0.008743671,0.024362672,0.008914902,0.013817111,0.012331432,0.016299184,0.010942402,0.017065752,0.008888066,0.019174671,0.016227873,0.012662894,0.015558124,0.009073523,0.016556979,0.014184863,0.005391493,0.008237408,0.017843956,0.014273654,0.01039393,0.029833043,0.017917851,0.007840153,0.019716969,0.010849727,0.012162791,0.017097049,0.014090889,0.022033912,0.009018295,0.013532102,0.008083116,0.005644,0.018876587,0.004993863,0.009497284,0.010513697,0.01458302,0.014889155,0.015219861,0.016152137,0.005451935,0.01904235,0.004567103,0.009357883,0.005490462,0.020207701,0.023374875,0.022145761,0.013964944
Colbert,0.42355627,0.492777738,0.397801837,0.400464641,0.414941158,0.452797549,0.447965961,0.473214659,0.431055103,0.42406085,0.436873517,0.43313498,0.441287706,0.454759358,0.396135992,0.474582219,0.440918933,0.412522844,0.452266047,0.459121952,0.409038589,0.432236977,0.415048975,0.452966795,0.458248448,0.410155841,0.402811843,0.412344485,0.374477724,0.449264499,0.433563284,0.433893155,0.399390042,0.428403362,0.435140652,0.418656895,0.384458237,0.426849435,0.462206467,0.411414656,0.492777738,0.42263221,0.376979759,0.405844109,0.351401818,0.413868103,0.40864688,0.38178211,0.42355627,0.397145414,0.383085894,0.399948342,0.459491158,0.445301821,0.391111529,0.397467569,0.413038359,0.377625877,0.43672132,0.465157894,0.491690696,0.436980791,0.396038768
De Kalb,0.018707074,0.042582274,0.010664752,0.010195693,0.017713687,0.02944703,0.024093333,0.042582274,0.022695991,0.026302332,0.029545677,0.01457967,0.016530534,0.032699229,0.009505344,0.016630808,0.015726794,0.019939232,0.01701891,0.021222645,0.010436601,0.016113885,0.018707074,0.019159229,0.019941161,0.010805408,0.015148852,0.018910741,0.009017605,0.010685193,0.02313262,0.020755569,0.012187126,0.038384131,0.017145836,0.01929795,0.028193445,0.015794798,0.014035955,0.029662317,0.021644148,0.031183857,0.008969583,0.027160995,0.010491463,0.00817528,0.027712754,0.006046779,0.017521814,0.014068963,0.014768956,0.021041135,0.020503003,0.020906782,0.007395467,0.024624982,0.005930123,0.008775284,0.008462132,0.031921504,0.024757321,0.02734504,0.019613711
Lawrence,0.024299127,0.055650722,0.009851999,0.017881309,0.030947965,0.041412934,0.042225404,0.055650722,0.024299127,0.023571825,0.027831234,0.020969289,0.023459647,0.035263199,0.023447107,0.030259356,0.019577111,0.026866306,0.013291142,0.027956064,0.015949118,0.033063955,0.028936842,0.012006399,0.025655565,0.015181624,0.028707297,0.029033066,0.009481133,0.017554403,0.040422226,0.036182953,0.015104665,0.035851959,0.024494191,0.011663217,0.032382957,0.036030263,0.023450187,0.023183631,0.033679968,0.045813357,0.01258267,0.041276095,0.024248784,0.008369025,0.031372456,0.010491162,0.024697389,0.020222952,0.019694825,0.018878024,0.032671483,0.03971332,0.014475896,0.022239502,0.006000806,0.010651635,0.012219878,0.039995669,0.042265647,0.040251731,0.015155486
Morgan,0.02748318,0.055948155,0.01428713,0.015328679,0.032492493,0.046237741,0.051331381,0.055948155,0.036989997,0.035037567,0.036452276,0.022983522,0.024559699,0.025200784,0.022793485,0.046264194,0.02754044,0.038065562,0.01536951,0.02748318,0.015803593,0.038082256,0.038974489,0.016521229,0.026263989,0.015701051,0.034917404,0.023818951,0.011336956,0.016392702,0.04659489,0.024437068,0.019323831,0.0468468,0.034425432,0.016884921,0.039919275,0.03286433,0.024116788,0.02299735,0.031932879,0.047333527,0.012246044,0.048526815,0.038294482,0.013859989,0.032734029,0.011745885,0.027999924,0.025039548,0.023343935,0.041958594,0.03616278,0.053339951,0.013735153,0.023305794,0.011445721,0.011542485,0.022209334,0.055410722,0.055647253,0.035656308,0.018529953
Marshall,0.013289404,0.031819135,0.003576393,0.008095076,0.011146861,0.020149689,0.020378396,0.031368327,0.011281088,0.017438954,0.015973956,0.01271311,0.015079745,0.019277647,0.00575738,0.014933729,0.013813251,0.016987045,0.012734518,0.012040921,0.00780079,0.013340984,0.016650945,0.014144942,0.011457567,0.007833394,0.011898502,0.010868829,0.004755586,0.007263272,0.019852994,0.013498787,0.014198183,0.031819135,0.013609776,0.015881266,0.014736471,0.013593878,0.00948,0.017557743,0.014331712,0.024194899,0.004563615,0.023888057,0.013289404,0.006414407,0.019472052,0.004846742,0.008795869,0.010348883,0.007283776,0.011618093,0.01410787,0.011836239,0.004064372,0.008934529,0.006170429,0.005394214,0.007876481,0.025254964,0.013656894,0.02190246,0.008886272
Franklin,0.002864125,0.007806729,0.001164506,0.002456506,0.002636707,0.00615463,0.004734651,0.005082902,0.002350393,0.004416549,0.003395173,0.003321655,0.003347107,0.00296829,0.002210226,0.004306697,0.002972882,0.00316982,0.00208651,0.002550167,0.003331244,0.002359427,0.003206093,0.002086046,0.00293819,0.003305749,0.002201067,0.002864125,0.002025364,0.002308387,0.002408921,0.003109231,0.002202705,0.004810249,0.001843641,0.001701779,0.002703398,0.004151304,0.001477242,0.003910439,0.002212419,0.006063854,0.001895326,0.004445851,0.002825711,0.001631735,0.002286898,0.002375896,0.002508606,0.004361565,0.003155119,0.004235522,0.007806729,0.003775576,0.001555059,0.002286383,0.001537423,0.002287022,0.001731838,0.004371863,0.004560457,0.003063585,0.003549365
Cherokee,0.008308705,0.023279603,0.004508948,0.005765676,0.007540874,0.015710733,0.009641306,0.023279603,0.008308705,0.010288533,0.019162899,0.008964861,0.010794555,0.016982298,0.005971811,0.008406058,0.008173759,0.005974995,0.005575678,0.010354243,0.005252916,0.009655442,0.005092678,0.007135906,0.009507584,0.005526142,0.008978071,0.010728809,0.003523373,0.006901846,0.00881461,0.012926224,0.007769928,0.019927819,0.006609713,0.004485905,0.017807922,0.007822927,0.00514156,0.018167145,0.013603728,0.01405945,0.00578917,0.011920756,0.004788501,0.003387161,0.01677017,0.002431113,0.008850693,0.007080014,0.006915686,0.00624546,0.010729832,0.010604987,0.003635312,0.006145951,0.003180184,0.004223185,0.00489642,0.015913655,0.011221203,0.008983196,0.010155386
Marion,0.002237833,0.005994552,0.001096964,0.001864096,0.00158101,0.003592563,0.003180369,0.003929753,0.001581795,0.002557784,0.00304511,0.002769819,0.002466891,0.001938672,0.001355706,0.002988473,0.002357693,0.001871229,0.001633012,0.00145226,0.002417635,0.002376027,0.001723218,0.001509691,0.001535338,0.002362326,0.002071863,0.002022197,0.00127854,0.002107279,0.002401276,0.002414594,0.003029368,0.003413887,0.002237833,0.000960958,0.00248104,0.003322576,0.001252209,0.001849278,0.002542543,0.005469888,0.001115113,0.003318078,0.00191373,0.001447436,0.002029291,0.001474053,0.002026281,0.003238844,0.00170292,0.003007724,0.005994552,0.004107811,0.002326582,0.001692144,0.001042069,0.001346199,0.001458037,0.003165616,0.003067469,0.003465845,0.003010912
Cullman,0.012285954,0.03490742,0.008531712,0.00868882,0.011760947,0.023750646,0.028234906,0.030186297,0.011546745,0.014635929,0.013820044,0.010913688,0.014580444,0.016111483,0.005388109,0.011752732,0.01449017,0.014978595,0.007753691,0.01569057,0.0100835,0.017013752,0.013332751,0.007033258,0.014191881,0.010455355,0.015933831,0.012285954,0.006719265,0.009340752,0.026564588,0.01652423,0.010309495,0.032795219,0.019124834,0.0078479,0.023191708,0.015939413,0.010262511,0.016346055,0.011661478,0.023682193,0.006221796,0.028098187,0.015865373,0.007582926,0.020929262,0.006924424,0.01030794,0.011215222,0.009584039,0.011384259,0.021450919,0.027193372,0.011486812,0.005935828,0.007447925,0.007651557,0.006200488,0.03490742,0.031721531,0.014489933,0.010496162
Winston,0.001832182,0.005010515,0.001130899,0.001628354,0.001900318,0.002802321,0.003981445,0.003266767,0.002301086,0.001274672,0.003701339,0.001457027,0.001870082,0.001876437,0.001331122,0.002456002,0.002249247,0.002274211,0.001349179,0.001458451,0.00235542,0.001978653,0.001931204,0.001241799,0.001659326,0.002186014,0.001632465,0.001964441,0.001506597,0.00172508,0.001765838,0.001832182,0.002035579,0.003287133,0.001764643,0.001302022,0.003144329,0.002307465,0.001488465,0.001747288,0.001587908,0.004501943,0.001099188,0.002119173,0.001073606,0.0009167,0.002169982,0.001324391,0.001303009,0.001719364,0.000956633,0.00294631,0.005010515,0.003122069,0.001886548,0.001478965,0.000906221,0.001553321,0.001264193,0.002915872,0.003196828,0.001402575,0.002469951
Blount,0.133921413,0.199250566,0.138779926,0.147493384,0.125123173,0.15397465,0.154180714,0.171201744,0.165498176,0.156482263,0.132969434,0.15137137,0.131063843,0.169407623,0.114037562,0.158483736,0.154018971,0.120382243,0.161755725,0.145305175,0.123723423,0.137289446,0.120659637,0.16205049,0.145746006,0.125433808,0.129178109,0.125562183,0.11781276,0.144651996,0.132591121,0.152813253,0.112859474,0.141026028,0.133921413,0.112506659,0.119794235,0.133077298,0.146271137,0.151037494,0.160252964,0.130468948,0.096078533,0.169707083,0.136717268,0.119085918,0.159042213,0.116851868,0.114884727,0.126182844,0.088474461,0.142290167,0.164616803,0.163218704,0.117114332,0.104448105,0.119676917,0.110898108,0.125871349,0.15492659,0.199250566,0.119346546,0.081564307
Etowah,0.005501242,0.012591525,0.004367254,0.003591585,0.005630258,0.007051229,0.006713749,0.012064789,0.004980887,0.0055416,0.010414193,0.006162897,0.00571134,0.012591525,0.003148403,0.005191339,0.00636683,0.005871879,0.004543886,0.005501242,0.004281658,0.005992559,0.005230863,0.004222021,0.005952135,0.004282365,0.005412217,0.006820919,0.00268978,0.004205715,0.005127871,0.007061419,0.006342573,0.011832856,0.004860763,0.002925476,0.008248974,0.005773885,0.004702892,0.010275881,0.008798455,0.009350032,0.003140585,0.005553981,0.005094989,0.002497258,0.009128085,0.003085027,0.005340102,0.004835179,0.003626297,0.005643742,0.007269554,0.007451216,0.002267972,0.004067999,0.002501627,0.002813521,0.002751885,0.011225963,0.007684609,0.008593081,0.003446864
Lamar,0.001108035,0.003018059,0.000774963,0.000965734,0.000955897,0.001695355,0.001821094,0.001964257,0.001176336,0.000721272,0.001145057,0.001041864,0.001119089,0.000824898,0.000776145,0.001943522,0.001677522,0.001108035,0.000702131,0.000940697,0.001558417,0.001302987,0.001039808,0.000601401,0.000950281,0.001505907,0.001166663,0.00098334,0.000725115,0.000943727,0.001134774,0.001042135,0.001769771,0.001964509,0.001050733,0.000694459,0.001000803,0.002092484,0.000848316,0.001043893,0.001502982,0.003018059,0.000770706,0.001298094,0.001284242,0.000951786,0.002021747,0.000695487,0.000898071,0.001858063,0.000740248,0.001744583,0.001865262,0.002261454,0.00123274,0.000956834,0.00074909,0.000675014,0.000935494,0.001713816,0.002231967,0.001874891,0.001660695
Walker,0.004389159,0.009692244,0.003005973,0.002973274,0.006286222,0.00499603,0.008446884,0.006337395,0.007492985,0.002720842,0.004513536,0.00491624,0.004579234,0.003580268,0.0028259,0.005962818,0.007726524,0.005050589,0.004231985,0.003811589,0.004031978,0.004687742,0.004636902,0.003893574,0.003747884,0.003961565,0.004384053,0.003802859,0.003245542,0.003103347,0.005323199,0.00431733,0.004389159,0.009692244,0.004409756,0.004317889,0.006725884,0.006187311,0.003491958,0.005807208,0.005843653,0.007403907,0.003862464,0.005134469,0.003329387,0.002821539,0.005266295,0.003271388,0.007160286,0.003704218,0.004851319,0.005210872,0.009590953,0.008984819,0.003157661,0.003257123,0.003885902,0.002038421,0.00319849,0.009147669,0.008874128,0.003958276,0.004283136
St. Clair,0.001731724,0.003322714,0.001708102,0.001503315,0.002508843,0.00287127,0.002668041,0.002386382,0.001617477,0.001718122,0.001804446,0.001774832,0.001244493,0.001736263,0.001560433,0.002251974,0.001782186,0.002013937,0.001466071,0.001597216,0.001231136,0.001860739,0.001913759,0.001422877,0.001485815,0.001427476,0.001731724,0.001950748,0.001177914,0.001819001,0.002602288,0.002438617,0.00232232,0.002498479,0.001577983,0.00099335,0.002718438,0.002511787,0.001777833,0.001748365,0.002894915,0.003322714,0.001014433,0.00281059,0.000923511,0.001316413,0.002868828,0.001511478,0.001479699,0.001535346,0.001721833,0.001999655,0.001499176,0.002715813,0.00107961,0.001357974,0.001462547,0.000781303,0.001497486,0.00272064,0.002552129,0.001391723,0.001724052
