FID-State-County,Latitude,Longitude,y1952,y1953,y1955,y1956,y1960,y1962,y1963,y1966,y1972,y1976,y1987,y1988,y1998
109-North Dakota-Oliver,47.118079,-101.33142,0.0009734768,0.0003010445,0.000582865,0.0,0.0008125946,0.0006716815,0.0008010871,0.0,0.0005675547,0.0006015576,0.0009502451,0.0011629896,0.0013186154
140-Washington-Benton,46.228072,-119.516864,0.0009816369,0.0009283387,0.00056396,0.0010501739,0.0011415099,0.0009755847,0.0013526677,0.000541959,0.0012736138,0.0013071131,0.0016063442,0.0008765885,0.001747069
398-Idaho-Canyon,43.623051,-116.708527,0.0005467707,0.0002265989,0.0002529679,0.0004153189,0.0010047764,0.0010448404,0.0006850478,0.0006945777,0.0004987345,0.0001658747,0.0010888866,0.000794463,0.0008206214
476-Idaho-Lincoln,42.986181,-114.153899,0.0009467676,0.0011707553,0.0009087046,0.0008442022,0.0013380458,0.0013853662,0.0012096952,0.0007895196,0.0009347904,0.0010255334,0.0014292595,0.0009879941,0.0015384336
478-Idaho-Minidoka,42.856937,-113.64001,0.0003666434,0.0002047333,7.38542e-05,0.0002558156,0.0007110119,0.0006766095,0.0,0.0003035419,7.08626e-05,0.0,0.0006902035,0.0006335338,0.0006505386
504-Iowa-Buena Vista,42.741522,-95.141433,0.0,0.0,0.0009811409,0.0004504346,0.0,0.0,0.0007477427,0.0002856355,0.0,0.0008209555,0.0,0.0,0.0
515-Idaho-Jerome,42.691172,-114.263009,0.0004401661,0.000337619,0.0003368899,0.0003839375,0.000864659,0.0007614415,0.0001909927,0.0004860586,0.0001806739,0.0001010236,0.0009013311,0.0005944556,0.0006896853
576-Nebraska-Cuming,41.915865,-96.788517,0.0021197362,0.0029435061,0.0033251625,0.0030418541,0.0024133596,0.0026768905,0.0027561491,0.0020090625,0.002536234,0.0031112559,0.0027545841,0.0026823698,0.0021761919
621-Iowa-Johnson,41.668737,-91.588812,0.0004236054,0.001233868,0.0011855733,0.0007019785,0.0004845983,0.0009106035,0.0013045953,0.0002412683,0.0001951705,0.0007663347,0.0008772045,0.0012949889,0.00061128
634-Nebraska-Valley,41.564094,-98.983484,0.0117471824,0.0117191158,0.011976942,0.0116208611,0.0115957063,0.0114665825,0.0120268144,0.0109572048,0.011629386,0.0114923665,0.0114317868,0.011437529,0.0120741253
638-Indiana-Lake,41.472239,-87.374337,0.0029989037,0.0032238611,0.0030912768,0.002995277,0.0033552816,0.0037241305,0.0036111603,0.0024722239,0.0027838438,0.0029509809,0.0030726481,0.0031427179,0.0037001626
641-Ohio-Geauga,41.499322,-81.173505,0.0065962353,0.0068288049,0.0066544632,0.0062718747,0.0068821959,0.0071288695,0.0072251296,0.0062917838,0.0066379668,0.006476016,0.006843396,0.0065965181,0.007559212
644-Nebraska-Banner,41.53975,-103.726263,0.0002779191,0.0004410674,0.0001647985,0.0002823004,0.0008405096,0.0005436722,0.0008994293,4.15041e-05,9.72615e-05,0.0004541484,0.0004231152,0.0002242372,0.001052742
646-Rhode Island-Newport,41.502732,-71.284063,0.0043955013,0.0044889602,0.0044485735,0.0042917073,0.0046656982,0.0049062207,0.004946937,0.0042175707,0.0044104579,0.0043957198,0.004709276,0.0044822411,0.0052714386
673-Nebraska-Nance,41.402386,-97.991408,0.0006027245,0.0010409221,0.0011473135,0.0008956952,0.0007748385,0.0009955944,0.0012014897,0.0003987675,0.0004045597,0.0008001295,0.0008300653,0.0008265267,0.0012136261
690-Massachusetts-Dukes,41.380939,-70.701536,0.023243607,0.0233715727,0.0233362584,0.0230973455,0.0235499221,0.0237044173,0.0237636345,0.0229936089,0.0232686062,0.0232301438,0.0235647104,0.0233258892,0.0241965098
704-Nebraska-Polk,41.187925,-97.570663,0.0020361234,0.0026214167,0.002921802,0.0028301661,0.0022240795,0.0022914964,0.0026321104,0.002377577,0.0016895803,0.0024007767,0.0023075167,0.0024558301,0.0024853631
707-Nebraska-Howard,41.219403,-98.513303,0.0012344321,0.001322894,0.0014725273,0.0013177746,0.0011588958,0.0011709692,0.0016289401,0.0009146832,0.0008298043,0.0009965901,0.0011137094,0.0010964724,0.0015939023
710-Massachusetts-Nantucket,41.305878,-70.14191,0.023243607,0.0233715727,0.0233362584,0.0230973455,0.0235499221,0.0237044173,0.0237636345,0.0229936089,0.0232686062,0.0232301438,0.0235647104,0.0233258892,0.0241965098
720-Illinois-Mercer,41.204791,-90.741433,0.0006214715,0.0013312517,0.0010281938,0.0009564834,0.0008397057,0.0012044071,0.0015055307,0.0003983814,0.0003916069,0.0009172799,0.0010730589,0.0014177153,0.0008020847
815-New York-Bronx,40.848711,-73.852939,0.0017060096,0.0019652199,0.001835984,0.0016195631,0.0020070957,0.0022774119,0.0023137751,0.0015213424,0.0018277797,0.0017440449,0.0020926591,0.0017921078,0.0027437423
833-New York-New York,40.776557,-73.970174,0.0097752306,0.0100213981,0.009933547,0.0096878205,0.010061773,0.0103468122,0.0103677056,0.0095748226,0.0098700776,0.0098171221,0.0101452549,0.0098413267,0.0107767916
840-Ohio-Hardin,40.660415,-83.664077,0.0046400391,0.0049645429,0.0045468195,0.0042085341,0.0050330061,0.0051981537,0.0053234551,0.0038020042,0.0040991263,0.0045351706,0.004696298,0.0048373576,0.0050290505
841-New York-Queens,40.658557,-73.837929,0.0069161733,0.0071664067,0.0070539398,0.0068270724,0.0072029118,0.0074916968,0.0075242361,0.0067428796,0.0070388341,0.0069744603,0.0073314417,0.0070097692,0.0079623457
844-New Jersey-Hunterdon,40.565283,-74.91197,0.0012136627,0.0017200721,0.0015611719,0.0013160407,0.0018162643,0.0020843927,0.0021600923,0.0013785071,0.0015083724,0.0016196615,0.0017844456,0.0015102418,0.0024319814
854-New York-Kings,40.635133,-73.950777,0.0021081183,0.0023681515,0.0022671369,0.0020252768,0.0023906936,0.002670793,0.0027178973,0.0019255543,0.00221112,0.0021764641,0.0025163428,0.0021990231,0.0031505618
886-West Virginia-Hancock,40.516931,-80.570057,0.0018292421,0.0021862758,0.0019622661,0.0015584877,0.0022019051,0.0024369972,0.0024736306,0.0016449899,0.0019756562,0.001898299,0.0022087503,0.0019376699,0.0028221098
890-Missouri-Schuyler,40.469361,-92.519016,0.0006682074,0.0012969272,0.0010883085,0.0007969164,0.0009401414,0.0013392731,0.0014570222,0.0006009831,0.0005544303,0.0008211615,0.0011428907,0.0012083332,0.0011886344
891-New Jersey-Middlesex,40.439593,-74.407585,0.007156423,0.0075018135,0.0073745861,0.007122168,0.0075355213,0.0078065257,0.007858407,0.007010853,0.0073043066,0.007318733,0.0075617594,0.0073001065,0.0082453909
904-Ohio-Knox,40.40362,-82.422393,0.0007829839,0.0011402735,0.0008207411,0.000324548,0.0010897407,0.001327299,0.0015099452,0.0003812216,0.0006224552,0.0006767026,0.0009780986,0.000761994,0.0013950506
914-Ohio-Shelby,40.33668,-84.204143,0.0006759909,0.0010085373,0.0006914064,0.0006448943,0.0012317586,0.0015658849,0.0015938371,0.0003030647,0.0003883199,0.0009355602,0.0009827168,0.0010672109,0.0011432331
956-Illinois-Piatt,40.009056,-88.592328,0.0013046801,0.0019956477,0.0012389095,0.0011833959,0.0014671051,0.0019426518,0.0021165394,0.0008264441,0.0010476488,0.0016287377,0.0015877783,0.002095905,0.0014553278
969-Indiana-Hamilton,40.04987,-86.020586,0.0083254468,0.0086167267,0.0085405914,0.008195231,0.0088648957,0.0091010936,0.0091150024,0.0082133962,0.0084553773,0.008484557,0.008909875,0.0087733492,0.0088017749
981-Ohio-Belmont,40.017682,-80.967727,0.0014240475,0.0017597072,0.0015225623,0.001052097,0.0017954816,0.0019668414,0.0019972386,0.0012278757,0.0014687122,0.001392835,0.0017498682,0.0014327125,0.0022653087
1063-Missouri-Caldwell,39.658998,-93.979179,0.0091072194,0.0098683141,0.0094942965,0.0095913911,0.0093125677,0.0097667872,0.0100408994,0.0093059248,0.008875622,0.0095143848,0.0095595453,0.0097753491,0.0092553697
1096-West Virginia-Mineral,39.405626,-78.956581,0.0024872253,0.002871203,0.0026296246,0.0022757972,0.0028479883,0.0030676032,0.0030965232,0.0023998748,0.0026413149,0.0025446486,0.0029492451,0.0025699721,0.0035553039
1152-California-Colusa,39.177739,-122.237563,0.000457595,0.0004745925,0.0006473161,0.000290227,0.0010016488,0.001147828,0.0006341445,0.0004844328,0.0003925632,0.0003785562,0.001196108,0.0004920869,0.000707864
1174-Indiana-Monroe,39.160751,-86.523325,0.0014136143,0.0017202574,0.001478825,0.0012626887,0.001777016,0.0019696866,0.0020540367,0.0011410964,0.0014545388,0.0015005492,0.0017968061,0.001542627,0.0021852996
1183-California-Sutter,39.035257,-121.702758,0.0032682362,0.0030739377,0.0035085194,0.0031098544,0.0040328352,0.0041775929,0.0031913872,0.0035664141,0.0032631241,0.0033116872,0.0040648607,0.00330755,0.0033068298
1188-Virginia-Clarke,39.115931,-77.992004,0.0039130644,0.0044820415,0.0042345198,0.0039115221,0.0044154149,0.0046600055,0.0046558282,0.0040629304,0.0041557461,0.004059385,0.0045359179,0.0042173362,0.0051915212
1190-Nevada-Carson City,39.153447,-119.743442,0.0100007721,0.010310039,0.0099777904,0.0099656162,0.0105223889,0.0104839556,0.0105244941,0.009770775,0.0100946283,0.0101229432,0.0105682276,0.010211515,0.0108429547
1253-Colorado-Cheyenne,38.835387,-102.604585,0.0007196128,0.0007452042,0.0011888349,0.0010317864,0.0008744098,0.000984325,0.0013555669,0.0004881808,0.0005016521,0.0006600694,0.0006559261,0.0006094879,0.0011862654
1256-Illinois-Bond,38.885924,-89.436592,0.0024639691,0.0031528727,0.0024379292,0.0021214796,0.0025727993,0.0029590656,0.0030493416,0.0019228594,0.0016913584,0.0025799568,0.0024527371,0.0025974153,0.0021923316
1263-District of Columbia-Washington,38.904149,-77.017094,0.0141925232,0.0144934075,0.0144029348,0.0141615716,0.0145795479,0.0148531731,0.0147862611,0.0140449692,0.0143925987,0.0142685506,0.0146822398,0.0143661935,0.0153276041
1284-Virginia-Falls Chruch,38.883787,-77.174639,0.2855057823,0.2857437188,0.2856869426,0.2854823425,0.2858149351,0.2860187655,0.2859379959,0.2854069718,0.2856456767,0.2855761596,0.285884285,0.2856613072,0.2863505518
1309-Virginia-Manassas City,38.747561,-77.484727,0.5669409164,0.567146434,0.5670977968,0.5669393149,0.5671887328,0.5672998698,0.5672482256,0.5669346548,0.5670696463,0.5670799316,0.5671842314,0.5670577764,0.5675051367
1363-Illinois-Wabash,38.445821,-87.839167,0.0004119938,0.0009659583,0.0,5.34893e-05,0.0005387028,0.000932286,0.001046657,9.84656e-05,5.57287e-05,0.0003968375,0.0005924388,0.0003807797,0.0003606409
1384-Kentucky-Boyd,38.360004,-82.681406,0.005427887,0.0057225999,0.0055164547,0.0051676608,0.0057483193,0.0058840814,0.005979058,0.0051269229,0.0054972003,0.0053954989,0.0058265492,0.0054076955,0.006387909
1420-California-San Joaquin,37.935034,-121.272237,0.0026081777,0.0025338904,0.0025061927,0.0022875892,0.0032831569,0.0034049953,0.0024708622,0.0026717622,0.0025868381,0.0025851712,0.0032680982,0.0026924359,0.0025914181
1466-Colorado-San Miguel,38.009374,-108.427326,0.0028003757,0.0030036122,0.0029390097,0.0026529486,0.0030713233,0.0032701622,0.0032834819,0.0024849958,0.0028331975,0.002782101,0.0030851626,0.0027258328,0.0037169234
1477-Virginia-Richmond,37.942894,-76.730561,0.0093367973,0.0097399718,0.0093617902,0.0090809301,0.009473902,0.0098045443,0.0099394003,0.009108061,0.0095292468,0.0093390157,0.0097719741,0.0095380835,0.0104365249
1483-California-Stanislaus,37.562384,-121.002656,0.0004017255,0.0004114399,0.0005091449,0.0002615883,0.000972569,0.0011388444,0.0005575831,0.000407261,0.0003778501,0.0003497067,0.0009536363,0.0004447405,0.0007557004
1539-Virginia-Clifton Forge,37.82,-79.82,0.0379749573,0.0382817811,0.0381950485,0.0378850444,0.038324619,0.038525384,0.0385807942,0.0377898777,0.0381467255,0.0379996815,0.0383946016,0.0381004342,0.0390150957
1546-Virginia-Amherst,37.630362,-79.147848,0.0022421086,0.0026037359,0.0024967458,0.0021818117,0.0026509773,0.0028576889,0.0029301735,0.0021134122,0.0024333142,0.0023042285,0.0026756636,0.0024656342,0.0033826331
1547-California-San Francisco,37.727239,-123.032229,0.0033704478,0.003714229,0.0034030421,0.0033817737,0.003800326,0.0039015488,0.0039505991,0.0030842043,0.0034552577,0.0035102571,0.0038261052,0.0035168299,0.0043190292
1548-Virginia-Covington,37.778143,-79.986039,0.0015039866,0.0017794289,0.0016817082,0.001347813,0.0018291756,0.0020471386,0.0020765389,0.0013068782,0.0016660558,0.0014849127,0.0018700865,0.0015732983,0.0025247739
1592-California-Merced,37.194806,-120.722802,0.0013940863,0.0014420757,0.0015215615,0.0012201279,0.0019669599,0.0021896416,0.0014328889,0.0014086714,0.0011958114,0.0011827633,0.0017899806,0.0012959908,0.0015452406
1659-Kentucky-Caldwell,37.148643,-87.87051,0.0008782598,0.001072399,0.0007994443,0.0005924446,0.0010558083,0.0011741365,0.0015083848,0.0004125097,0.0006725432,0.0007177599,0.0009997526,0.0004638697,0.0013879129
1665-Virginia-Bedford City,37.338156,-79.520705,0.1915980651,0.1918832427,0.1918347537,0.1915394142,0.191946202,0.1920659321,0.1921467797,0.191440559,0.1917465962,0.1916395472,0.1919356596,0.1917548334,0.1925008354
1675-Virginia-Hopewell,37.29101,-77.298944,0.0232059022,0.0235206691,0.0233199454,0.0230118134,0.0234916032,0.0237336007,0.0237465636,0.0229867429,0.0233900026,0.0232337377,0.023645751,0.0233321581,0.0242416651
1691-Virginia-Charlotte,37.014091,-78.661424,0.0040192939,0.0043597926,0.0041379446,0.0039505523,0.0043640284,0.0045537643,0.0047648282,0.003826454,0.0042874823,0.0041084802,0.0045144662,0.0041778468,0.0050698286
1697-Kentucky-Ballard,37.05112,-89.009178,0.0044615935,0.0048437761,0.0043991117,0.0043123384,0.0046389891,0.0049055409,0.0052048676,0.0039546215,0.0042366783,0.0044237231,0.0048349034,0.0040717954,0.0047861533
1707-Virginia-Radford,37.120036,-80.557048,0.0134527956,0.0137024237,0.0136423981,0.0132475161,0.0137900695,0.0139661841,0.0140419,0.0131891153,0.0135933724,0.0134107582,0.0137950903,0.0135567281,0.0144519734
1801-Virginia-Franklin City,36.684014,-76.941396,1.0,1.0,1.0,1.0,1.0,1.0,1.0,1.0,1.0,1.0,1.0,1.0,1.0
1835-North Carolina-Warren,36.397979,-78.099924,0.0011136882,0.0014540097,0.0012520761,0.0009501086,0.0014822103,0.0016401099,0.0017624102,0.000988299,0.0013175113,0.0011431527,0.0015335563,0.0012505243,0.0021626545
1868-California-Kings,36.072478,-119.81553,0.0053015808,0.0051474301,0.0052480332,0.0048968351,0.0062787954,0.0061941741,0.004889722,0.0054743405,0.0052611451,0.0049174825,0.0057555142,0.0051205555,0.0048443541
1900-Oklahoma-Payne,36.079225,-96.975255,0.0006202553,0.0006557827,0.0007073699,0.0006224354,0.0006358009,0.0008949991,0.0010378365,0.0003245901,0.0004924933,0.000574753,0.0007213544,0.0003921062,0.0011667288
1939-Texas-Hemphill,35.816237,-100.284807,0.0013502901,0.0015236007,0.0013619037,0.0012390637,0.0012502816,0.0016676768,0.0017485924,0.0010763654,0.0011448858,0.0011746201,0.0014444486,0.0011784729,0.0021198328
2039-North Carolina-Moore,35.310163,-79.480664,0.0021404895,0.002476785,0.0023871521,0.0020513027,0.0025976959,0.0027551102,0.0027682165,0.0020431555,0.0023997646,0.0022000904,0.0026960209,0.0023002877,0.0032218284
2050-Oklahoma-Haskell,35.232294,-95.109578,0.0008463953,0.000869463,0.0009911985,0.0007763922,0.0009149637,0.0013154958,0.0015680968,0.0006104379,0.0007217043,0.0006430145,0.0009519262,0.0007581314,0.0016605838
2065-Tennessee-Moore,35.288889,-86.358684,0.0017755008,0.0019478013,0.0017371945,0.001445859,0.0020392611,0.0022681147,0.0022490329,0.0015285548,0.0016731903,0.0017193962,0.0023090875,0.0017094065,0.0024582903
2119-South Carolina-Lancaster,34.686818,-80.703689,0.0047058596,0.0050559921,0.0049516322,0.0047278804,0.0050988928,0.0053051941,0.0053026025,0.0045865452,0.0048655376,0.0047173317,0.0052256859,0.00486832,0.0057605358
2151-South Carolina-Union,34.690514,-81.615831,0.0007354475,0.0009695248,0.0009346714,0.0006477726,0.0010312902,0.0012440929,0.0012466485,0.0004794455,0.0007946833,0.000620138,0.001183431,0.0008408274,0.0017222392
2239-South Carolina-Lee,34.15864,-80.251209,0.0026736279,0.0032279801,0.0031382205,0.0028448893,0.0031591372,0.0032689336,0.0032741815,0.0025868895,0.0030134379,0.0026727138,0.0032455242,0.0030499719,0.0038067966
2372-Georgia-Fayette,33.412717,-84.493941,0.0028364668,0.0030365978,0.00302568,0.0026880633,0.0031667043,0.0033400004,0.0032901029,0.0025497601,0.0029397442,0.0027415557,0.0032999404,0.0029297627,0.0038474439
2380-Georgia-Coweta,33.352897,-84.762138,0.0076648539,0.0078743036,0.0079056803,0.007499684,0.0079851991,0.008163888,0.0081219128,0.007385176,0.0077430293,0.0075782862,0.0081125404,0.0077601644,0.008671225
2396-California-Imperial,33.040816,-115.355395,0.003058099,0.003241606,0.0027691447,0.0029931102,0.0035044587,0.0036966105,0.0031966932,0.0025823061,0.0028306374,0.0023701397,0.0034534464,0.0028822094,0.0036155472
2556-Louisiana-Franklin,32.138279,-91.672101,0.0011558973,0.0010024366,0.0007783719,0.0008375531,0.0013420729,0.0016706448,0.0017167729,0.000582153,0.0008617407,0.0008808542,0.0012487041,0.0006787394,0.0015851692
2829-Texas-Austin,29.891901,-96.27017,0.0023038814,0.002501033,0.0026535156,0.0025716032,0.00224426,0.0029222722,0.0031342433,0.0021800923,0.0025167745,0.0020688074,0.0026028782,0.0025353638,0.0031583758
2876-Texas-Maverick,28.745217,-100.311368,0.0014140492,0.0015540047,0.0013815091,0.001291059,0.0014245738,0.001874448,0.0018083033,0.0009511194,0.0012460544,0.000812391,0.0014841074,0.0013424663,0.0022636161
2889-Texas-Refugio,28.312496,-97.160479,0.0020612753,0.0023931634,0.0023731321,0.0021776454,0.0018258918,0.0026752456,0.0027992085,0.0017525677,0.0018196249,0.001611762,0.0024643001,0.0023158589,0.0028976357
2895-Florida-Pinellas,27.903122,-82.739518,0.0049288274,0.0050575236,0.0050791099,0.0048818506,0.0051306269,0.0053535261,0.0054243951,0.0047037148,0.0051227156,0.0049033393,0.0052640851,0.004898458,0.0059911695
2925-Texas-Cameron,26.102923,-97.478958,0.0019988697,0.002342046,0.0019770015,0.0020393387,0.0019024046,0.0026689189,0.0021891309,0.0013725596,0.0011163208,0.0007585679,0.0017458017,0.0020248246,0.0027597218
2972-Michigan-Benzie,44.648621,-86.494317,0.0018438164,0.0021448897,0.0021280745,0.0017299763,0.0021418346,0.0024683309,0.0024490632,0.0016193168,0.001944299,0.0018839769,0.0022076091,0.0018785044,0.0028235929
3008-Michigan-Tuscola,43.487902,-83.436618,0.0005981113,0.000613788,0.0009533209,0.0003498011,0.0010922563,0.0012563873,0.0014285308,0.0004739895,0.0002993246,0.0005672601,0.0008947034,0.0006591119,0.0015910645
3033-Wisconsin-Waukesha,43.019308,-88.306707,0.0007703717,0.0012463588,0.0011386738,0.0007803742,0.0010689045,0.0016333127,0.0016505057,0.0007449275,0.0010802774,0.0010147978,0.0011038639,0.0010976928,0.0017416366
3035-New York-Madison,42.910026,-75.663575,0.0004998416,0.0007391847,0.0006153972,0.0002850004,0.0008475123,0.00108182,0.0010587405,0.0002383502,0.0005369647,0.0001722542,0.0009255826,0.0006222217,0.0014485593
3070-Illinois-Boone,42.318983,-88.824295,0.002496775,0.0034562089,0.003505332,0.0030644759,0.0031302626,0.0039441352,0.0037683304,0.0029331732,0.0029440886,0.0034851066,0.0028888458,0.0036657679,0.0033397929
3071-Illinois-Lake,42.326444,-87.436118,0.002217847,0.0025321961,0.0024334787,0.0021174814,0.0025431201,0.0028901771,0.0028475984,0.0019194975,0.0022931335,0.0022651481,0.002431352,0.0023695217,0.0031340292
3081-Pennsylvania-Erie,42.117952,-80.096386,0.00141374,0.0016659215,0.0015507203,0.0010386264,0.0018193135,0.0019863873,0.0020377246,0.0010886791,0.0013530427,0.0013334337,0.0016205535,0.0014123062,0.0024682511
3084-Illinois-Carroll,42.059084,-89.926485,0.0001329706,0.0007583764,0.0005408769,0.000147659,0.0004034325,0.000998706,0.0011796444,0.00025947,0.0001451985,0.0007884015,0.0005215612,0.0011866251,0.0005040117
3087-Illinois-De Kalb,41.894613,-88.768991,0.003044951,0.0036989256,0.003484378,0.0032842024,0.003234935,0.0042741907,0.0038413124,0.0029491539,0.003225255,0.0036574578,0.0027801268,0.0038141452,0.0034667748
BASE,0,0,0,0,0,0,0,0,0,0,0,0,0,0,0,0
MAX,0,0,0.016,0.016,0.016,0.016,0.016,0.016,0.016,0.016,0.016,0.016,0.016,0.016,0.016,0
