[
    {
       "id": "109-North Dakota-Oliver",
       "lat": 47.118079,
       "lon": -101.33142,
       "agprod": 1,
       "color": "red"
    },
    {
       "id": "621-Iowa-Johnson",
       "lat": 41.668737,
       "lon": -91.588812,
       "agprod": 1,
       "color": "red"
    },
    {
       "id": "634-Nebraska-Valley",
       "lat": 41.564094,
       "lon": -98.983484,
       "agprod": 1,
       "color": "red"
    },
    {
       "id": "646-Rhode Island-Newport",
       "lat": 41.502732,
       "lon": -71.284063,
       "agprod": 1,
       "color": "red"
    },
    {
       "id": "673-Nebraska-Nance",
       "lat": 41.402386,
       "lon": -97.991408,
       "agprod": 1,
       "color": "red"
    },
    {
       "id": "707-Nebraska-Howard",
       "lat": 41.219403,
       "lon": -98.513303,
       "agprod": 1,
       "color": "red"
    },
    {
       "id": "1253-Colorado-Cheyenne",
       "lat": 38.835387,
       "lon": -102.604585,
       "agprod": 1,
       "color": "red"
    },
    {
       "id": "1466-Colorado-San Miguel",
       "lat": 38.009374,
       "lon": -108.427326,
       "agprod": 1,
       "color": "red"
    },
    {
       "id": "1900-Oklahoma-Payne",
       "lat": 36.079225,
       "lon": -96.975255,
       "agprod": 1,
       "color": "red"
    },
    {
       "id": "2050-Oklahoma-Haskell",
       "lat": 35.232294,
       "lon": -95.109578,
       "agprod": 1,
       "color": "red"
    },
    {
       "id": "2151-South Carolina-Union",
       "lat": 34.690514,
       "lon": -81.615831,
       "agprod": 1,
       "color": "red"
    },
    {
       "id": "2372-Georgia-Fayette",
       "lat": 33.412717,
       "lon": -84.493941,
       "agprod": 1,
       "color": "red"
    },
    {
       "id": "2380-Georgia-Coweta",
       "lat": 33.352897,
       "lon": -84.762138,
       "agprod": 1,
       "color": "red"
    },
    {
       "id": "2829-Texas-Austin",
       "lat": 29.891901,
       "lon": -96.27017,
       "agprod": 1,
       "color": "red"
    },
    {
       "id": "2889-Texas-Refugio",
       "lat": 28.312496,
       "lon": -97.160479,
       "agprod": 1,
       "color": "red"
    },
    {
       "id": "2895-Florida-Pinellas",
       "lat": 27.903122,
       "lon": -82.739518,
       "agprod": 1,
       "color": "red"
    },
    {
       "id": "2907-Texas-Kleberg",
       "lat": 27.438735,
       "lon": -97.66062,
       "agprod": 1,
       "color": "red"
    },
    {
       "id": "2972-Michigan-Benzie",
       "lat": 44.648621,
       "lon": -86.494317,
       "agprod": 1,
       "color": "red"
    },
    {
       "id": "3008-Michigan-Tuscola",
       "lat": 43.487902,
       "lon": -83.436618,
       "agprod": 1,
       "color": "red"
    }
]
