FID-State-County,Latitude,Longitude,y1952,y1953,y1955,y1956,y1960,y1962,y1963,y1966,y1972,y1976,y1987,y1988,y1998,colors
109-North Dakota-Oliver,47.118079,-101.33142,0.001274133,0.0010510324,0.0014400351,0.0001355057,0.0014648783,0.0016188231,0.001035938,0.0004947767,0.0019241749,0.001133147,0.0021182614,0.0017267404,0.0013186154,1
621-Iowa-Johnson,41.668737,-91.588812,0.0007244271,0.0019831561,0.0020422264,0.0008373891,0.0011370962,0.0018575186,0.0015393279,0.0007359256,0.0015522963,0.0012978365,0.0020453061,0.0018586652,0.00061128,2
634-Nebraska-Valley,41.564094,-98.983484,0.0120445962,0.0124605377,0.0128243397,0.0117547922,0.0122409506,0.0124034929,0.0122590268,0.0114465601,0.012970991,0.0120181631,0.0125875488,0.0119954808,0.0120741253,3
646-Rhode Island-Newport,41.502732,-71.284063,0.0046951276,0.0052358063,0.0053024281,0.0044266315,0.0053154665,0.0058493489,0.0051808135,0.0047102606,0.0057618618,0.0049252911,0.0058728975,0.0050441185,0.0052714386,4
673-Nebraska-Nance,41.402386,-97.991408,0.0009034923,0.0017903549,0.0020039995,0.0010310796,0.0014271469,0.001942429,0.0014362464,0.0008933469,0.0017614012,0.0013316134,0.0019982221,0.0013904674,0.0012136261,3
707-Nebraska-Howard,41.219403,-98.513303,0.0015350098,0.0020721153,0.0023289343,0.0014531017,0.0018109534,0.0021176376,0.0018635964,0.0014090073,0.0021860686,0.0015279694,0.0022815346,0.0016602607,0.0015939023,3
1253-Colorado-Cheyenne,38.835387,-102.604585,0.0010203453,0.0014948589,0.0020454852,0.0011671523,0.0015266531,0.0019311703,0.0015902875,0.0009827159,0.0018583618,0.0011916277,0.0018242865,0.0011735511,0.0011862654,5
1466-Colorado-San Miguel,38.009374,-108.427326,0.0031004821,0.0037515726,0.003794159,0.0027880948,0.0037221324,0.004214841,0.0035177493,0.002978543,0.0041867423,0.0033125306,0.0042506829,0.0032887015,0.0037169234,5
1900-Oklahoma-Payne,36.079225,-96.975255,0.0009210178,0.0014055044,0.0015644332,0.0007578567,0.0012882,0.001841929,0.0012726317,0.0008192062,0.0018492154,0.0011063567,0.0018896382,0.0009562921,0.0011667288,6
2050-Oklahoma-Haskell,35.232294,-95.109578,0.0011470897,0.0016190244,0.0018480184,0.0009117927,0.0015671805,0.0022620272,0.0018027674,0.0011049126,0.0020781153,0.0011745819,0.0021199405,0.0013221107,0.0016605838,6
2151-South Carolina-Union,34.690514,-81.615831,0.0010361753,0.0017190112,0.0017915398,0.0007831905,0.0016834311,0.002190692,0.0014813946,0.000973985,0.0021509952,0.0011517176,0.0023511746,0.00140476,0.0017222392,7
2372-Georgia-Fayette,33.412717,-84.493941,0.0031365623,0.0037845335,0.0038807549,0.0028232048,0.0038174512,0.004284613,0.0035243688,0.0030432752,0.0042931445,0.0032720068,0.0044652096,0.0034925163,0.0038474439,8
2380-Georgia-Coweta,33.352897,-84.762138,0.0079634963,0.00861861,0.0087565698,0.0076341735,0.0086328004,0.0091039286,0.008355043,0.0078762986,0.0090899096,0.0081061647,0.009272183,0.0083201917,0.008671225,8
2829-Texas-Austin,29.891901,-96.27017,0.0026041372,0.0032493704,0.0035089097,0.0027067604,0.0028956091,0.0038672807,0.0033685458,0.0026737903,0.0038707489,0.0025996164,0.0037689623,0.00309834,0.0031583758,9
2889-Texas-Refugio,28.312496,-97.160479,0.0023616041,0.0031415818,0.0032287667,0.002312856,0.0024775141,0.0036204883,0.0030335898,0.0022464772,0.0031745456,0.0021428141,0.0036305463,0.002878959,0.0028976357,9
2895-Florida-Pinellas,27.903122,-82.739518,0.0052282932,0.0058039432,0.0059324236,0.0050166947,0.0057800917,0.0062962304,0.0056581594,0.0051961642,0.0064731527,0.0054326407,0.0064270579,0.0054601005,0.0059911695,10
2907-Texas-Kleberg,27.438735,-97.66062,0.0007973627,0.0013391576,0.0013655406,0.0004258139,0.0008820337,0.0018888768,0.0012002407,0.0003996608,0.0013368946,0.0002340501,0.0018009969,0.0010216192,0.0012649216,9
2972-Michigan-Benzie,44.648621,-86.494317,0.0021442107,0.0028934943,0.0029839193,0.0018652476,0.0027932505,0.0034137697,0.0026835268,0.0021132923,0.0032990505,0.0024148842,0.0033741553,0.0024418513,0.0028235929,11
3008-Michigan-Tuscola,43.487902,-83.436618,0.0008988805,0.0013635413,0.0018101732,0.0004852594,0.0017443575,0.0022029747,0.0016632342,0.0009685316,0.001656309,0.0010988678,0.0020627846,0.0012231471,0.0015910645,11
MIN,0,0,0,0,0,0,0,0,0,0,0,0,0,0,0,0
MAX,0,0,0.014268090099999998,0.014268090099999998,0.014268090099999998,0.014268090099999998,0.014268090099999998,0.014268090099999998,0.014268090099999998,0.014268090099999998,0.014268090099999998,0.014268090099999998,0.014268090099999998,0.014268090099999998,0.014268090099999998,0

