FIDCoun-State,1952,1953,1955,1956,1960,1962,1963,1966,1972,1976,1987,1988,1998
109Oliv-NorthDakota,1.139234594,0.882258885,0.985734496,0.905762122,1.007874032,0.90955436,0.940765774,0.944879577,0.993155457,1.044916578,1.026292925,1.184971914,0.94791092
140Bent-Washington,1.141564702,1.061416228,0.980335883,1.205567189,1.10181796,0.996372337,1.098350304,1.099588943,1.194794379,1.246378954,1.21370894,1.103189212,1.070372646
398Cany-Idaho,1.017388819,0.860997012,0.891527757,1.024327902,1.062764473,1.016157013,0.907613842,1.143155862,0.97350161,0.920512886,1.065896078,1.079737967,0.805573042
464Siou-Iowa,0.775296753,0.58185522,0.906963556,0.867072454,0.589205714,0.593894598,0.87361372,0.803569195,0.82356421,1.019828754,0.775837523,0.821186772,0.664281451
476Linc-Idaho,1.131607804,1.130651187,1.078782468,1.146766125,1.157952097,1.113437102,1.057503598,1.170258278,1.098031963,1.165977538,1.163124266,1.135001373,1.010739933
478Mini-Idaho,0.965953493,0.854752129,0.840379378,0.97879266,0.978860238,0.910962229,0.711898153,1.031529637,0.851308358,0.873149506,0.952011516,1.033784236,0.756959504
504Buen-Iowa,0.861258647,0.796279629,1.099467741,1.034352823,0.775782709,0.71767095,0.925525501,1.026418047,0.831071184,1.107562942,0.75485354,0.852876698,0.571020866
515Jero-Idaho,0.986947917,0.892704656,0.915492875,1.01536914,1.022744484,0.935196739,0.76646409,1.083631385,0.882668677,0.901995489,1.012320538,1.022625318,0.76814847
576Cumi-Nebraska,1.466548618,1.636954686,1.76883557,1.774154763,1.465080622,1.4823948,1.499319723,1.518392766,1.555377953,1.761528981,1.541705899,1.618835457,1.193025563
621John-Iowa,0.982219017,1.14867645,1.157846153,1.106163941,0.914192477,0.97780868,1.084616203,1.013752828,0.886808663,1.09196658,1.005428746,1.222664678,0.745738501
634Vall-Nebraska,4.215662788,4.143297913,4.239471334,4.223301453,4.08772017,3.993400262,4.147914064,4.072757233,4.152233046,4.154648365,4.020366033,4.118897675,4.022078123
638Lake-Indiana,1.717594615,1.717024988,1.702046315,1.760857942,1.734110093,1.781566253,1.743593204,1.650608255,1.626091325,1.715764451,1.632561523,1.750289318,1.62861076
641Geau-Ohio,2.744811479,2.746608872,2.719563562,2.696265482,2.741458755,2.754219077,2.776090745,2.740951699,2.726765594,2.722293444,2.70968306,2.736532404,2.731614075
644Bann-Nebraska,0.940618323,0.922249911,0.866349833,0.986353599,1.015847002,0.872985156,0.968861818,0.956727474,0.858847534,1.002825752,0.875717188,0.916908282,0.871918318
646Newp-RhodeIsland,2.116392605,2.078341523,2.089641164,2.130964567,2.108388146,2.119261267,2.125219637,2.148840401,2.090625574,2.128291298,2.100067464,2.132794247,2.077716922
673Nanc-Nebraska,1.033366379,1.093570389,1.146920596,1.161466422,0.997090242,1.002088555,1.055159291,1.058713013,0.946606754,1.10161627,0.991963307,1.088893891,0.917902639
690Duke-Massachusetts,7.498463181,7.471278166,7.483281694,7.499623987,7.502054338,7.489458046,7.50107968,7.508706381,7.476203349,7.506221213,7.486159601,7.513654915,7.486928921
704Polk-Nebraska,1.442672966,1.544964902,1.653650404,1.713721836,1.411018865,1.372296871,1.463882327,1.623590074,1.313587561,1.558660685,1.414000219,1.554146383,1.281393698
707Howa-Nebraska,1.213750333,1.174102501,1.239789899,1.28196224,1.106783718,1.052189011,1.177280272,1.205987889,1.068049652,1.157713145,1.072986799,1.165977716,1.026594082
720Merc-Illinois,1.038719583,1.17648954,1.112904302,1.178820293,1.015617363,1.06174143,1.14202267,1.058602831,0.942907656,1.135067126,1.061374861,1.257709566,0.800274807
815Bron-NewYork,1.348409116,1.35755291,1.343580024,1.368117197,1.34904447,1.368273278,1.372935096,1.379166739,1.353055073,1.371139311,1.352625715,1.364618495,1.355244286
833New-NewYork,3.652572603,3.658424074,3.655951484,3.671454386,3.64960188,3.673508619,3.673912892,3.678138064,3.649803416,3.676303675,3.652865643,3.663097279,3.651270889
840Hard-Ohio,2.186220304,2.214169524,2.117696724,2.107220213,2.213297659,2.20265961,2.232789357,2.030211488,2.001714374,2.168109708,2.096360272,2.234198817,2.008436908
841Quee-NewYork,2.836169662,2.843029124,2.833639746,2.854764138,2.833060868,2.857870195,2.861544252,2.869722861,2.841246705,2.86461778,2.849094279,2.85453752,2.846838816
844Hunt-NewJersey,1.207819632,1.287537853,1.265103592,1.281467213,1.294539667,1.313132322,1.329028493,1.338392494,1.26183757,1.335623233,1.264583863,1.284130772,1.266136006
854King-NewYork,1.463231092,1.472631452,1.466701687,1.483940931,1.458606795,1.480652864,1.48839126,1.494554277,1.462530781,1.494611111,1.473651796,1.480814401,1.471522544
886Hanc-WestVirginia,1.383598098,1.420687202,1.379641606,1.350681347,1.404685545,1.413862955,1.4186052,1.41446351,1.395286168,1.415184596,1.385787389,1.406184214,1.377643488
890Schu-Missouri,1.052064962,1.166686323,1.130070931,1.133266922,1.044303574,1.100269376,1.128164007,1.116438088,0.989407381,1.107621701,1.08132251,1.197919943,0.910759356
891Midd-NewJersey,2.904772929,2.938822434,2.925204673,2.939008434,2.92806002,2.947809348,2.957015669,2.946219426,2.91706125,2.962920467,2.914885007,2.937444228,2.927739462
904Knox-Ohio,1.084839419,1.121945451,1.053663303,0.99841452,1.087031811,1.096848749,1.143283932,1.053704285,1.008834233,1.06637331,1.034249308,1.070466433,0.969757783
914Shel-Ohio,1.054287605,1.084321188,1.016730037,1.089867383,1.127594648,1.165006967,1.167251515,1.031393417,0.94196901,1.140286786,1.035568468,1.157621975,0.897782717
956Piat-Illinois,1.233809602,1.366243242,1.173077063,1.243599649,1.194813672,1.27264026,1.316585645,1.180798927,1.130262485,1.338214796,1.208405488,1.451368708,0.986986444
969Hami-Indiana,3.238587273,3.257245305,3.258173742,3.245347941,3.307752743,3.317636538,3.316020266,3.289501074,3.245788175,3.295806723,3.299976892,3.358133147,3.086766627
981Belm-Ohio,1.26789492,1.298857846,1.254078123,1.206116218,1.288603802,1.279550658,1.282501801,1.295392802,1.250511347,1.27085581,1.254706831,1.26199215,1.218497226
1063Cald-Missouri,3.461822231,3.614702784,3.530517364,3.643925553,3.435615721,3.507809326,3.580545566,3.60137771,3.365803207,3.589860857,3.485556482,3.644257229,3.216414174
1096Mine-WestVirginia,1.571485008,1.616304708,1.570215109,1.555459802,1.589218243,1.594012066,1.59656334,1.629955286,1.585387358,1.599741507,1.597311162,1.586740025,1.587206939
1152Colu-California,0.991924665,0.931824759,1.004139352,0.988616523,1.06187123,1.0455781,0.893070881,1.083167268,0.943180779,0.98124137,1.096524057,0.993393574,0.773344367
1174Monr-Indiana,1.264915668,1.287590802,1.24158831,1.266236178,1.28332969,1.28036349,1.298728765,1.270620498,1.246463622,1.301612206,1.268114652,1.293378461,1.195628779
1183Sutt-California,1.79450237,1.674206448,1.821195729,1.793567636,1.927631275,1.911109713,1.623665637,1.962959174,1.76296595,1.818759618,1.915988999,1.797357648,1.516187368
1188Clar-Virginia,1.978632895,2.076365455,2.028515201,2.022428772,2.036902818,2.048923487,2.042050942,2.104696261,2.017884136,2.032255235,2.050547385,2.057149794,2.054874714
1190Cars-Nevada,3.716975908,3.740860852,3.668585843,3.750759894,3.781161876,3.712687166,3.718706848,3.734075346,3.713931433,3.763627008,3.773688626,3.768805743,3.670181785
1253Chey-Colorado,1.066743766,1.009112444,1.158777564,1.20031787,1.025529469,0.998869195,1.099178562,1.084237233,0.974334816,1.061623939,0.942220141,1.026917834,0.910082342
1256Bond-Illinois,1.564844232,1.696750517,1.515473765,1.511405017,1.510619437,1.563005505,1.583083673,1.493785,1.314095419,1.609823339,1.455482686,1.594576459,1.197638737
1263Wash-DistrictofColumbia,4.913929067,4.935644838,4.932247203,4.948626984,4.939957761,4.960868547,4.936277667,4.95420004,4.941361164,4.947352409,4.948864343,4.955186709,4.951995699
1284Fall-Virginia,82.38734396,82.40563232,82.40116013,82.40565331,82.40955102,82.42641455,82.40331416,82.41803761,82.40678896,82.41578477,82.41826436,82.42432692,82.41646415
1309Mana-Virginia,162.7510571,162.77518,162.7619345,162.7563763,162.7748524,162.7817213,162.7725947,162.7838018,162.7768565,162.7956017,162.7721499,162.7779397,162.7767828
1363Waba-Illinois,0.978903257,1.072160518,0.819289326,0.921032311,0.929645742,0.984002899,1.010924244,0.97298786,0.846986406,0.986461385,0.924084827,0.961609496,0.674100167
1384Boyd-Kentucky,2.411189983,2.430673086,2.394589493,2.381032965,2.417603673,2.39861277,2.420092674,2.408426888,2.40098139,2.413765508,2.419218777,2.397060459,2.39682926
1420San-California,1.606022932,1.519967109,1.534967357,1.558826194,1.713510028,1.690396966,1.417814339,1.707569091,1.569829675,1.611312223,1.688392233,1.621709908,1.311706621
1466San-Colorado,1.660904989,1.654121178,1.658564337,1.663129473,1.65300658,1.651878374,1.649976677,1.654254161,1.640185855,1.667542951,1.636136317,1.631246538,1.633401407
1477Rich-Virginia,3.527378142,3.578047836,3.492678389,3.498198518,3.481695646,3.518595583,3.551547711,3.544894864,3.552467651,3.539786498,3.546237161,3.576505285,3.554015017
1483Stan-California,0.975971223,0.913788244,0.964682736,0.980440727,1.053565506,1.043011675,0.871197648,1.061137569,0.938979049,0.97300376,1.027261623,0.979873746,0.787017133
1504Gray-Kansas,0.871912479,0.828500634,0.574159537,1.009847732,0.688844523,0.446656461,0.644732615,0.830062816,0.579357188,0.72461494,0.420499133,0.691617451,0.671284894
1539Clif-Virginia,11.70499562,11.72968309,11.72641537,11.72123664,11.72196741,11.72345491,11.73428676,11.73249512,11.72515002,11.72347463,11.72234733,11.73257089,11.72241481
1546Amhe-Virginia,1.501491954,1.539915207,1.532269744,1.528628725,1.532948412,1.534044607,1.549037796,1.548180803,1.525985843,1.531092644,1.519162092,1.556946044,1.537853707
1547San-California,1.8236889,1.857075684,1.791075187,1.871195507,1.861222553,1.832250465,1.84056956,1.825306067,1.817836104,1.875458698,1.84778801,1.857118061,1.805496823
1548Covi-Virginia,1.290721475,1.304490368,1.299524446,1.290537566,1.298227419,1.302489686,1.305157643,1.31794508,1.30686944,1.297147397,1.289047366,1.302136849,1.292658247
1565Hask-Kansas,0.940379572,0.891270166,0.59332592,1.0192732,0.735822307,0.565328961,0.747194246,0.820542492,0.442895793,0.721188691,0.623654217,0.771126155,0.711250704
1592Merc-California,1.259339461,1.208141189,1.253792312,1.254085894,1.337581011,1.343199389,1.121269215,1.347003289,1.172575296,1.210872463,1.266165014,1.222950781,1.012685515
1659Cald-Kentucky,1.112045371,1.102560301,1.04758169,1.074893984,1.077340128,1.05309382,1.142838139,1.062635944,1.02313846,1.07809673,1.04043484,0.985336119,0.967717652
1665Bedf-Virginia,55.57202516,55.59876936,55.6003652,55.58669712,55.59899116,55.58632964,55.60751447,55.59409443,55.59075249,55.59338145,55.58165388,55.60904934,55.59209939
1675Hope-Virginia,7.487696615,7.513860641,7.478623286,7.475206206,7.485397355,7.49779498,7.496202641,7.506746366,7.510872133,7.507247396,7.509308954,7.515445027,7.49983533
1691Char-Virginia,2.008966727,2.041450793,2.000936846,2.033571169,2.022225926,2.018572883,2.07319177,2.037190979,2.055505804,2.046273716,2.044419692,2.045873466,2.020092183
1697Ball-Kentucky,2.135265197,2.179678145,2.075516696,2.136854448,2.100759471,2.119067144,2.198909357,2.073778148,2.040996985,2.136287341,2.13595322,2.015590214,1.93901143
1707Radf-Virginia,4.702700072,4.709737179,4.715065414,4.687681207,4.714468859,4.707476916,4.723616505,4.709885281,4.713115329,4.702420667,4.695448268,4.724041428,4.701720661
1801Fran-Virginia,286.4109408,286.3995924,286.3831658,286.3871354,286.3933564,286.3938344,286.4081581,286.4079763,286.4146611,286.4104136,286.4068294,286.405901,286.3935649
1835Warr-NorthCarolina,1.179271931,1.211549595,1.176836973,1.177000427,1.199127966,1.186211331,1.21541222,1.227002461,1.207330772,1.199562171,1.192916864,1.209967734,1.189156317
1868King-California,2.375123346,2.266402726,2.31793798,2.303717322,2.569116953,2.487198875,2.108873476,2.507601839,2.333567911,2.277273954,2.398927509,2.315066804,1.955646542
1900Payn-Oklahoma,1.038372276,0.983573332,1.021288649,1.083455803,0.957378584,0.973350886,1.008404233,1.037538131,0.971719167,1.037262856,0.960909797,0.964843806,0.904498316
1939Hemp-Texas,1.246833452,1.231424976,1.208199816,1.2594917,1.13288515,1.194086518,1.211464522,1.252142209,1.158031817,1.208547317,1.167463114,1.189393172,1.176916908
2039Moor-NorthCarolina,1.472474651,1.503657557,1.500973673,1.491370753,1.517730316,1.504740253,1.502767307,1.528125115,1.516404559,1.501357348,1.524977173,1.509730825,1.491892081
2050Hask-Oklahoma,1.102946454,1.044601111,1.102339754,1.127407623,1.037112359,1.093476771,1.159897633,1.119137071,1.037178053,1.05675409,1.026773093,1.069363441,1.045653206
2065Moor-Tennessee,1.36825225,1.352578091,1.315369291,1.318527871,1.358231512,1.365617321,1.354438495,1.381225604,1.308906856,1.364101178,1.414448918,1.341002919,1.273655669
2119Lanc-SouthCarolina,2.205015316,2.24028771,2.233296575,2.255483948,2.232116099,2.233238498,2.226831901,2.254168994,2.220588882,2.220123507,2.247581038,2.243040168,2.21751191
2151Unio-SouthCarolina,1.071265421,1.073179071,1.086197717,1.09068907,1.070337292,1.073078745,1.068060969,1.081743572,1.058019697,1.050221975,1.092902906,1.092977528,1.063275722
2239Lee-SouthCarolina,1.624712221,1.718201445,1.715451652,1.717925009,1.678087806,1.651527367,1.6473196,1.683341071,1.691659643,1.636308885,1.681943902,1.723805392,1.659089185
2372Faye-Georgia,1.671210838,1.663542001,1.683314178,1.673154069,1.680249098,1.671829548,1.651868307,1.672741962,1.670613921,1.655965774,1.697487968,1.68947926,1.67070707
2380Cowe-Georgia,3.049955205,3.045206759,3.076866043,3.046782213,3.056495868,3.049899223,3.032298317,3.053074791,3.042353345,3.037032598,3.072216724,3.068815115,3.049452465
2396Impe-California,1.734497805,1.722093018,1.610056975,1.760239308,1.776717726,1.773704519,1.625181458,1.682032742,1.639454788,1.549912664,1.741337312,1.675900298,1.604425759
2556Fran-Louisiana,1.191324733,1.082578822,1.041564218,1.144867935,1.159102293,1.194934399,1.202373805,1.111062805,1.077170213,1.124666219,1.111548312,1.04669277,1.02409803
2829Aust-Texas,1.519131201,1.510582927,1.577037507,1.639906906,1.416782797,1.552494526,1.607339799,1.567215495,1.549820723,1.463871065,1.498370816,1.57685751,1.473755868
2876Mave-Texas,1.265039906,1.240108489,1.213798379,1.274335392,1.182666029,1.253156133,1.228523686,1.216389138,1.18692395,1.105117443,1.178791705,1.236221958,1.218013447
2889Refu-Texas,1.449855124,1.479774999,1.496970096,1.527439344,1.297289482,1.481924861,1.511621602,1.44517304,1.35072625,1.333367602,1.458785745,1.514177164,1.399230514
2895Pine-Florida,2.268683699,2.240725085,2.26969958,2.299439454,2.241179936,2.247045754,2.261627585,2.287616557,2.294034737,2.273235608,2.258549843,2.251646192,2.283432215
2907Kleb-Texas,1.003051985,0.964610248,0.96444327,0.988650871,0.841294609,0.986775451,0.987717466,0.917714144,0.825209939,0.788054346,0.935559639,0.983508679,0.932564046
2925Came-Texas,1.432035226,1.46517574,1.3838495,1.487955279,1.319142862,1.480117492,1.337324673,1.3366947,1.149874087,1.089748879,1.253545232,1.431071465,1.35981161
2972Benz-Michigan,1.387759803,1.408867205,1.426990543,1.399638142,1.387528274,1.422814348,1.411586418,1.407134802,1.386331091,1.411095109,1.385461404,1.389289296,1.378067377
3008Tusc-Michigan,1.032049064,0.97157948,1.091523348,1.005623791,1.087750334,1.07659089,1.120024144,1.080186125,0.916553433,1.035123387,1.010427295,1.041088093,1.025782962
3033Wauk-Wisconsin,1.081237986,1.152243804,1.14445337,1.128544388,1.081080568,1.184269505,1.183441494,1.157528914,1.139580714,1.162912122,1.070174419,1.16632621,1.068819912
3035Madi-NewYork,1.003988221,1.007393172,0.995024471,0.987124386,1.017847094,1.026721233,1.014376442,1.012919786,0.984419479,0.922334502,1.019248039,1.030554007,0.985051843
3070Boon-Illinois,1.574211914,1.783384273,1.820285472,1.780612878,1.669840702,1.844416354,1.788496058,1.782192307,1.671854589,1.868277312,1.580058004,1.89964783,1.525609031
3071Lake-Illinois,1.494564121,1.519483165,1.514202854,1.510263607,1.502142493,1.54332575,1.525446401,1.492825332,1.485952544,1.519933676,1.449373973,1.5295008,1.466797115
3081Erie-Pennsylvania,1.26495164,1.27207235,1.262118969,1.202270646,1.295410595,1.285134484,1.29406851,1.255657274,1.217478033,1.253894497,1.21776777,1.256164953,1.276502656
3084Carr-Illinois,0.899228264,1.012874406,0.973744199,0.947916016,0.891010059,1.002977497,1.048918153,1.018948692,0.872537548,1.098267462,0.903838492,1.191721073,0.715078785
3087DeK-Illinois,1.730743364,1.852705025,1.814301839,1.84334065,1.699736966,1.938705366,1.809346794,1.786754171,1.752151084,1.917490035,1.549002212,1.942017386,1.561903341
