[
   {
      "id": "140-Washington-Benton",
      "lat": 46.228072,
      "lon": -119.516864,
      "agprod": 1,
      "color": "red"
   },
   {
      "id": "476-Idaho-Lincoln",
      "lat": 42.986181,
      "lon": -114.153899,
      "agprod": 1,
      "color": "red"
   },
   {
      "id": "638-Indiana-Lake",
      "lat": 41.472239,
      "lon": -87.374337,
      "agprod": 1,
      "color": "red"
   },
   {
      "id": "641-Ohio-Geauga",
      "lat": 41.499322,
      "lon": -81.173505,
      "agprod": 1,
      "color": "red"
   },
   {
      "id": "690-Massachusetts-Dukes",
      "lat": 41.380939,
      "lon": -70.701536,
      "agprod": 1,
      "color": "red"
   },
   {
      "id": "710-Massachusetts-Nantucket",
      "lat": 41.305878,
      "lon": -70.14191,
      "agprod": 1,
      "color": "red"
   },
   {
      "id": "720-Illinois-Mercer",
      "lat": 41.204791,
      "lon": -90.741433,
      "agprod": 1,
      "color": "red"
   },
   {
      "id": "815-New York-Bronx",
      "lat": 40.848711,
      "lon": -73.852939,
      "agprod": 1,
      "color": "red"
   },
   {
      "id": "833-New York-New York",
      "lat": 40.776557,
      "lon": -73.970174,
      "agprod": 1,
      "color": "red"
   },
   {
      "id": "840-Ohio-Hardin",
      "lat": 40.660415,
      "lon": -83.664077,
      "agprod": 1,
      "color": "red"
   },
   {
      "id": "841-New York-Queens",
      "lat": 40.658557,
      "lon": -73.837929,
      "agprod": 1,
      "color": "red"
   },
   {
      "id": "844-New Jersey-Hunterdon",
      "lat": 40.565283,
      "lon": -74.91197,
      "agprod": 1,
      "color": "red"
   },
   {
      "id": "854-New York-Kings",
      "lat": 40.635133,
      "lon": -73.950777,
      "agprod": 1,
      "color": "red"
   },
   {
      "id": "886-West Virginia-Hancock",
      "lat": 40.516931,
      "lon": -80.570057,
      "agprod": 1,
      "color": "red"
   },
   {
      "id": "890-Missouri-Schuyler",
      "lat": 40.469361,
      "lon": -92.519016,
      "agprod": 1,
      "color": "red"
   },
   {
      "id": "891-New Jersey-Middlesex",
      "lat": 40.439593,
      "lon": -74.407585,
      "agprod": 1,
      "color": "red"
   },
   {
      "id": "904-Ohio-Knox",
      "lat": 40.40362,
      "lon": -82.422393,
      "agprod": 1,
      "color": "red"
   },
   {
      "id": "914-Ohio-Shelby",
      "lat": 40.33668,
      "lon": -84.204143,
      "agprod": 1,
      "color": "red"
   },
   {
      "id": "956-Illinois-Piatt",
      "lat": 40.009056,
      "lon": -88.592328,
      "agprod": 1,
      "color": "red"
   },
   {
      "id": "969-Indiana-Hamilton",
      "lat": 40.04987,
      "lon": -86.020586,
      "agprod": 1,
      "color": "red"
   },
   {
      "id": "981-Ohio-Belmont",
      "lat": 40.017682,
      "lon": -80.967727,
      "agprod": 1,
      "color": "red"
   },
   {
      "id": "1063-Missouri-Caldwell",
      "lat": 39.658998,
      "lon": -93.979179,
      "agprod": 1,
      "color": "red"
   },
   {
      "id": "1096-West Virginia-Mineral",
      "lat": 39.405626,
      "lon": -78.956581,
      "agprod": 1,
      "color": "red"
   },
   {
      "id": "1174-Indiana-Monroe",
      "lat": 39.160751,
      "lon": -86.523325,
      "agprod": 1,
      "color": "red"
   },
   {
      "id": "1188-Virginia-Clarke",
      "lat": 39.115931,
      "lon": -77.992004,
      "agprod": 1,
      "color": "red"
   },
   {
      "id": "1190-Nevada-Carson City",
      "lat": 39.153447,
      "lon": -119.743442,
      "agprod": 1,
      "color": "red"
   },
   {
      "id": "1263-District of Columbia-Washington",
      "lat": 38.904149,
      "lon": -77.017094,
      "agprod": 1,
      "color": "red"
   },
   {
      "id": "1363-Illinois-Wabash",
      "lat": 38.445821,
      "lon": -87.839167,
      "agprod": 1,
      "color": "red"
   },
   {
      "id": "1384-Kentucky-Boyd",
      "lat": 38.360004,
      "lon": -82.681406,
      "agprod": 1,
      "color": "red"
   },
   {
      "id": "1477-Virginia-Richmond",
      "lat": 37.942894,
      "lon": -76.730561,
      "agprod": 1,
      "color": "red"
   },
   {
      "id": "1539-Virginia-Clifton Forge",
      "lat": 37.82,
      "lon": -79.82,
      "agprod": 1,
      "color": "red"
   },
   {
      "id": "1546-Virginia-Amherst",
      "lat": 37.630362,
      "lon": -79.147848,
      "agprod": 1,
      "color": "red"
   },
   {
      "id": "1547-California-San Francisco",
      "lat": 37.727239,
      "lon": -123.032229,
      "agprod": 1,
      "color": "red"
   },
   {
      "id": "1548-Virginia-Covington",
      "lat": 37.778143,
      "lon": -79.986039,
      "agprod": 1,
      "color": "red"
   },
   {
      "id": "1659-Kentucky-Caldwell",
      "lat": 37.148643,
      "lon": -87.87051,
      "agprod": 1,
      "color": "red"
   },
   {
      "id": "1675-Virginia-Hopewell",
      "lat": 37.29101,
      "lon": -77.298944,
      "agprod": 1,
      "color": "red"
   },
   {
      "id": "1691-Virginia-Charlotte",
      "lat": 37.014091,
      "lon": -78.661424,
      "agprod": 1,
      "color": "red"
   },
   {
      "id": "1697-Kentucky-Ballard",
      "lat": 37.05112,
      "lon": -89.009178,
      "agprod": 1,
      "color": "red"
   },
   {
      "id": "1707-Virginia-Radford",
      "lat": 37.120036,
      "lon": -80.557048,
      "agprod": 1,
      "color": "red"
   },
   {
      "id": "1835-North Carolina-Warren",
      "lat": 36.397979,
      "lon": -78.099924,
      "agprod": 1,
      "color": "red"
   },
   {
      "id": "1939-Texas-Hemphill",
      "lat": 35.816237,
      "lon": -100.284807,
      "agprod": 1,
      "color": "red"
   },
   {
      "id": "2039-North Carolina-Moore",
      "lat": 35.310163,
      "lon": -79.480664,
      "agprod": 1,
      "color": "red"
   },
   {
      "id": "2065-Tennessee-Moore",
      "lat": 35.288889,
      "lon": -86.358684,
      "agprod": 1,
      "color": "red"
   },
   {
      "id": "2119-South Carolina-Lancaster",
      "lat": 34.686818,
      "lon": -80.703689,
      "agprod": 1,
      "color": "red"
   },
   {
      "id": "2239-South Carolina-Lee",
      "lat": 34.15864,
      "lon": -80.251209,
      "agprod": 1,
      "color": "red"
   },
   {
      "id": "2396-California-Imperial",
      "lat": 33.040816,
      "lon": -115.355395,
      "agprod": 1,
      "color": "red"
   },
   {
      "id": "2556-Louisiana-Franklin",
      "lat": 32.138279,
      "lon": -91.672101,
      "agprod": 1,
      "color": "red"
   },
   {
      "id": "2876-Texas-Maverick",
      "lat": 28.745217,
      "lon": -100.311368,
      "agprod": 1,
      "color": "red"
   },
   {
      "id": "2925-Texas-Cameron",
      "lat": 26.102923,
      "lon": -97.478958,
      "agprod": 1,
      "color": "red"
   },
   {
      "id": "3033-Wisconsin-Waukesha",
      "lat": 43.019308,
      "lon": -88.306707,
      "agprod": 1,
      "color": "red"
   },
   {
      "id": "3035-New York-Madison",
      "lat": 42.910026,
      "lon": -75.663575,
      "agprod": 1,
      "color": "red"
   },
   {
      "id": "3071-Illinois-Lake",
      "lat": 42.326444,
      "lon": -87.436118,
      "agprod": 1,
      "color": "red"
   },
   {
      "id": "3081-Pennsylvania-Erie",
      "lat": 42.117952,
      "lon": -80.096386,
      "agprod": 1,
      "color": "red"
   }
]