FID-State-County,Latitude,Longitude,y1949,y1950,y1951,y1952,y1953,y1954,y1955,y1956,y1957,y1958,y1959,y1960,y1961,y1962,y1963,y1964,y1965,y1966,y1967,y1968,y1969,y1970,y1971,y1972,y1973,y1974,y1975,y1976,y1977,y1978,y1979,y1980,y1981,y1982,y1983,y1984,y1985,y1986,y1987,y1988,y1989,y1990,y1991,y1992,y1993,y1994,y1995,y1996,y1997,y1998,y1999,y2000,y2001,y2002,y2003,y2004,y2005,y2006,y2007,y2008,y2009,colors
69-Washington-Grant,47.213633,-119.467788,0.0023407903,0.0007194667,0.0023297406,0.0006172808,0.0007750474,0.0008466347,0.0009011745,0.0002497569,0.0014416222,0.0019659482,0.001119934,0.0009970401,0.0016631554,0.0014983946,0.0008339458,0.0008895431,0.0015776802,0.000338708,0.0015821433,0.0008999691,0.0012802881,0.0014793371,0.0004288937,0.0014496012,0.0009821798,0.0006905396,0.0009204654,0.0004772004,0.0011367986,0.0005594296,0.0015780043,0.0001526059,0.0011887276,0.0013162333,0.0011968456,0.0006330764,0.0016211444,0.0012442423,0.0017759226,0.000753815,0.001854289,0.0008624635,0.000674961,0.0015358282,0.001336019,0.0009525167,0.0010785141,0.0013732721,0.0011410277,0.0011056371,0.0015191752,0.0007166258,0.0009923263,0.0005398125,0.0009965967,0.0011360561,0.001065213,0.0006089336,0.0011300594,0.0012289221,0.0014316872,1
109-North Dakota-Oliver,47.118079,-101.33142,0.0024577647,0.0010656276,0.0025803872,0.001274133,0.0010510324,0.0010933703,0.0014400351,0.0001355057,0.0017057166,0.0023050366,0.0017424037,0.0014648783,0.0022435378,0.0016188231,0.001035938,0.0010958806,0.0015455327,0.0004947767,0.0019083398,0.0010605467,0.0012986159,0.0014110203,0.000600689,0.0019241749,0.0010993108,0.0011084791,0.0009422547,0.001133147,0.001074889,0.0011547429,0.0017448036,0.000945487,0.0016071562,0.0010768044,0.0018434,0.0014738774,0.0015551047,0.0009929568,0.0021182614,0.0017267404,0.0026113683,0.0016438141,0.0012851197,0.0022343533,0.001554516,0.0010306739,0.0014244805,0.0015258802,0.0020718867,0.0013186154,0.001549001,0.0006149481,0.0012958762,0.0009458078,0.0011990521,0.0016200611,0.0013387168,0.0014041663,0.001142154,0.0012107033,0.0013661309,2
139-Washington-Franklin,46.53458,-118.906944,0.0024083735,0.0009598158,0.0026444857,0.0005604654,0.0010477075,0.0009006628,0.00096037,0.0003321847,0.0014083646,0.0018481645,0.000937849,0.0008755975,0.001585561,0.0013230667,0.0007202601,0.0007850119,0.001479806,0.0003732029,0.0016599727,0.0010075943,0.0011552641,0.00137204,0.0003102251,0.0014766,0.0009933731,0.0005702107,0.0007820627,0.0004140758,0.0010011299,0.0002329494,0.0013617531,5.98733e-05,0.0010147704,0.0012154497,0.0012086873,0.0006990105,0.0013939972,0.0011253585,0.0017603208,0.0005176868,0.0017321104,0.0008926429,0.0006069042,0.0015236093,0.0012370981,0.00069781,0.0007544882,0.0011231308,0.0011160732,0.0010243587,0.0014764053,0.000353746,0.0007271231,0.0003578431,0.0007949397,0.0007135932,0.0010363633,0.0004299568,0.0009787639,0.0009638491,0.0012637266,1
140-Washington-Benton,46.228072,-119.516864,0.0029337006,0.0011620401,0.0031276953,0.0012822906,0.001677856,0.001806201,0.0014211463,0.0011855374,0.0016112978,0.0023323644,0.0020277945,0.0017935789,0.0021790477,0.0019224383,0.0015873889,0.0014342867,0.0024598995,0.0010364675,0.002743196,0.0017423673,0.0017941137,0.0023097384,0.001032204,0.0026292757,0.0015571513,0.0012632462,0.0017544331,0.0018383273,0.001609532,0.0015633136,0.0018743594,0.0007643612,0.0017448934,0.0016358816,0.0015515694,0.0014423836,0.0021074063,0.0017355119,0.0027735934,0.001440501,0.0026910582,0.0020859595,0.0014836368,0.0022230023,0.0025332502,0.0012669448,0.001336178,0.0016933239,0.0018934458,0.001747069,0.002425733,0.0014647519,0.0015492715,0.0012133973,0.0015542464,0.0019305332,0.0016500338,0.0010562925,0.0016219426,0.0017740397,0.0020754689,1
398-Idaho-Canyon,43.623051,-116.708527,0.0026939218,0.0013199632,0.0029100941,0.0008475553,0.0009766427,0.0012595056,0.0011104209,0.0005507683,0.0016586936,0.0018322898,0.0015636404,0.0016569346,0.002338892,0.0019916283,0.000919926,0.00090497,0.0014003187,0.0011890107,0.0018749031,0.0013064532,0.0014255853,0.0014429324,0.0011083823,0.0018554482,0.0013403829,0.0012670003,0.0011221133,0.0006976959,0.0014681407,0.0008892279,0.0017392428,0.0004540884,0.0014233114,0.0015503154,0.0013224987,0.0010867339,0.001644405,0.0016314009,0.0022567407,0.0013584218,0.0025996662,0.0014336114,0.0011939807,0.0024911998,0.0017179819,0.0015204519,0.0013246796,0.0017757225,0.0016537706,0.0008206214,0.002028743,0.0011714373,0.0014905668,0.0011264195,0.0012112741,0.0014749078,0.0011905162,0.0011698021,0.0017005539,0.0015854198,0.0015339128,3
464-Iowa-Sioux,43.082854,-96.177929,0.0013324202,0.0002375346,0.0005599043,0.0,0.0,6.52506e-05,0.0011644283,0.0,0.0004325015,0.0018521215,5.9773e-05,0.0,0.0006346375,0.0005149136,0.0008009461,0.0001250772,0.0003535551,0.0,0.001454325,0.0002811721,0.0001926643,0.0002964791,0.0,0.0013311398,0.000152848,4.06123e-05,0.0002966256,0.001045332,0.000410357,0.0,0.0003837872,0.0002845151,0.0005444015,0.0004816366,0.0,0.0,0.0005075161,0.0002735613,0.0012425013,0.0004534926,0.0020525059,0.0003378036,0.0002137967,0.0003488377,0.0,0.0002308218,0.0001746448,0.0003280736,0.0008535881,0.0003262885,0.0008365561,0.0,0.0,0.0,0.0,0.0001317553,0.000223547,0.0002778871,0.0004457061,0.0,0.0003328428,4
476-Idaho-Lincoln,42.986181,-114.153899,0.0027903328,0.0016591954,0.0031112364,0.0012474319,0.0019200908,0.0018675669,0.0017655952,0.0009795935,0.002214935,0.0024796475,0.0019389558,0.0019899865,0.00226986,0.0023318314,0.0014444501,0.0013709905,0.0022513179,0.0012839056,0.0023135363,0.001534957,0.0016154754,0.0020878076,0.0012639312,0.0022909122,0.0014374396,0.001447902,0.0016303838,0.0015568974,0.0017361466,0.0016348697,0.0021028599,0.0013255604,0.0018920334,0.0018580793,0.0017316062,0.00177656,0.0019180802,0.0019188332,0.0025967157,0.0015518437,0.0028005999,0.0022012553,0.0019068028,0.0026376664,0.0025697798,0.0017176919,0.0017490223,0.0020105459,0.0022630613,0.0015384336,0.0023058663,0.0016676942,0.0017388262,0.0014113455,0.0015733103,0.0019942991,0.001597824,0.0014089336,0.0018026818,0.0019022974,0.0020206726,3
478-Idaho-Minidoka,42.856937,-113.64001,0.002248665,0.0011056014,0.0024597671,0.0006674822,0.0009547934,0.0011122556,0.0009314609,0.0003912867,0.001318857,0.0018104328,0.0012097927,0.0013633619,0.0018246654,0.0016237464,0.0002350392,0.0005867257,0.0010340868,0.0007981684,0.0014186461,0.000731702,0.0010792187,0.0010201278,0.0005632481,0.0014281571,0.0006392366,0.0010890489,0.0007087883,0.0005319095,0.0010270476,0.0008081329,0.0016437572,0.000206984,0.0015600692,0.001127189,0.0010040825,0.0008848798,0.0015390387,0.0010751657,0.0018585238,0.0011975835,0.002247715,0.0013290352,0.0009067936,0.0022196888,0.0013771938,0.0013446075,0.0008219218,0.0015993429,0.0013985511,0.0006505386,0.0012687916,0.0011264878,0.0012485766,0.0007630996,0.0009512059,0.0011890359,0.0006216894,0.0009149697,0.0014105221,0.0013053398,0.0010078164,3
504-Iowa-Buena Vista,42.741522,-95.141433,0.0019099698,0.0007126923,0.0009986379,0.0003009491,0.0007502138,0.0,0.0018379694,0.0005858793,0.0007209151,0.0020216771,0.00027,0.0006528142,0.0009887238,0.0009477782,0.0009826062,0.0004496826,0.0009761351,0.0007802709,0.0014400655,0.0002314573,0.0004394295,0.0007842737,0.0007615951,0.0013573906,7.52694e-05,0.0005814561,0.0005322727,0.0013524283,0.000367346,8.74623e-05,0.0004950092,0.0005987419,0.00091533,0.0,0.0001579917,0.000206085,0.0007740236,3.67542e-05,0.0011691272,0.0005644072,0.0023548581,0.0002909207,0.0,0.0004089085,0.0003431203,0.0002451189,0.0006988723,0.000199156,0.0009167477,0.0,0.0010910313,0.0005772402,0.0004762087,0.0001104826,0.0003065878,0.0003481827,0.0005601639,0.0005880027,0.0001766903,1.84973e-05,0.0006469793,4
515-Idaho-Jerome,42.691172,-114.263009,0.0024283793,0.0012755137,0.0026744752,0.0007409828,0.0010875795,0.0012690852,0.001194271,0.0005193912,0.0014499979,0.0019688796,0.0013575304,0.0015169087,0.0019338312,0.0017084981,0.000425987,0.0007598335,0.001195179,0.0009805948,0.0015462278,0.0007985347,0.0011823108,0.0011985744,0.0007504511,0.0015378193,0.0007836605,0.0011533278,0.0008095842,0.0006328793,0.0011514329,0.0008827734,0.0017830639,0.0004183865,0.0014812543,0.0013348353,0.0011991624,0.0009332909,0.0017175789,0.0012759281,0.0020694045,0.0011585273,0.0023428508,0.0014038402,0.001137135,0.0022265147,0.001559237,0.0012662414,0.000758122,0.0016150219,0.001407583,0.0006896853,0.0015278341,0.0012142209,0.0012726614,0.0008647941,0.0010819988,0.0013321735,0.0008640616,0.0009205617,0.0015844903,0.0013329788,0.0012161868,3
576-Nebraska-Cuming,41.915865,-96.788517,0.0042127526,0.0030634032,0.0037639394,0.0024200474,0.0036915116,0.0033366494,0.0041799806,0.0031769477,0.0032890013,0.0039249033,0.0027991252,0.0030645982,0.0034516918,0.0036221316,0.0029905405,0.0027668364,0.0030030645,0.0025028451,0.0038950758,0.0029202908,0.0029400101,0.0030289041,0.0026255406,0.003890182,0.0028530377,0.0030436728,0.0031646014,0.0036415105,0.0024755199,0.0031824714,0.0030355334,0.0035035855,0.0035690706,0.0022667319,0.0031291123,0.0022088828,0.0033023742,0.0022692939,0.0039204909,0.003245263,0.0046643462,0.0029579599,0.0028101914,0.0029414764,0.002863475,0.0026263891,0.003176145,0.002976144,0.0033885493,0.0021761919,0.0032662764,0.0030134497,0.0023621389,0.0028780121,0.0028072075,0.0028687746,0.0033685793,0.002695032,0.0020824685,0.0027392183,0.0031605652,5
621-Iowa-Johnson,41.668737,-91.588812,0.002260033,0.0013992759,0.0021709565,0.0007244271,0.0019831561,0.001170658,0.0020422264,0.0008373891,0.0020185309,0.0019644508,0.0005578481,0.0011370962,0.0011873363,0.0018575186,0.0015393279,0.0013533767,0.0010167217,0.0007359256,0.0016152423,0.0013387618,0.00146149,0.0008444565,0.000780773,0.0015522963,0.0010546565,0.0001094998,0.0017708663,0.0012978365,0.0009670232,0.0005560476,0.001631824,0.0010107004,0.0013677421,0.0010469375,0.0016744128,0.0009931995,0.00153604,0.0006232484,0.0020453061,0.0018586652,0.0025522224,0.0007063211,0.0013573366,0.0014341299,0.0005347576,0.0013962978,0.0015364405,0.0016222015,0.0018358868,0.00061128,0.0018462981,0.0005324927,0.0010599486,0.0005655254,0.00119222,0.0011244131,0.0020058237,0.0009270517,0.0005943665,0.0005817585,0.0007936558,4
634-Nebraska-Valley,41.564094,-98.983484,0.0130586232,0.0118739552,0.0131611086,0.0120445962,0.0124605377,0.0124271252,0.0128243397,0.0117547922,0.0121468544,0.0128441597,0.0122793126,0.0122409506,0.0125737933,0.0124034929,0.0122590268,0.0121299683,0.0123068085,0.0114465601,0.0129940626,0.0120519178,0.0122542301,0.012225783,0.0114867947,0.012970991,0.0119829048,0.012103444,0.0122309769,0.0120181631,0.011512663,0.0120053988,0.0123118914,0.0122784098,0.0121772508,0.0120851324,0.0123625992,0.0119243592,0.0122877126,0.0118905392,0.0125875488,0.0119954808,0.013308674,0.0123591742,0.0122103854,0.0124670325,0.0122989967,0.011833948,0.0122232072,0.0122957557,0.0125916053,0.0120741253,0.0124642921,0.0119457269,0.0119536805,0.0118829615,0.0119179289,0.0122336366,0.0122720994,0.0118614612,0.0115150301,0.0115921428,0.0122596374,5
638-Indiana-Lake,41.472239,-87.374337,0.0045387995,0.0036728172,0.0050667524,0.0032989503,0.0039716562,0.003411861,0.0039462955,0.0031303769,0.0040826768,0.0044246873,0.0035971636,0.0040059054,0.0038917106,0.004668379,0.0038453507,0.0037166706,0.004044299,0.0029657774,0.004196731,0.0036224319,0.003849589,0.0038434133,0.0030047714,0.0041374557,0.003406075,0.0030994592,0.0035566151,0.0034813207,0.0036831093,0.003594562,0.0041340757,0.0033633158,0.003607905,0.003945456,0.0039888092,0.0036523633,0.003924312,0.0037039847,0.004238183,0.0037053513,0.0045481142,0.0034233573,0.0037924558,0.0044092683,0.0040349338,0.0035411392,0.004158656,0.0037421335,0.0040381408,0.0037001626,0.0042644085,0.0032010404,0.0035106319,0.0033256637,0.003322413,0.0035375122,0.0042320952,0.0029707215,0.0033568914,0.0034316336,0.0037527654,6
641-Ohio-Geauga,41.499322,-81.173505,0.0082887789,0.0072967837,0.0087767234,0.0068951993,0.0075738956,0.0072916014,0.0075064258,0.0064065305,0.0079148721,0.0078884776,0.0073907389,0.0075305173,0.0077991831,0.0080698911,0.0074584706,0.0072588126,0.0079468314,0.0067834475,0.0080286569,0.0073032354,0.0074551324,0.0077541218,0.0068142164,0.0079863472,0.0071897057,0.0068455533,0.0073350771,0.0070044808,0.0072613015,0.0072461207,0.0076657706,0.006923058,0.0076019842,0.0078200561,0.0076859802,0.0073853751,0.0075877658,0.0073510556,0.0080045224,0.0071572022,0.0082826046,0.0074384305,0.0075709703,0.0079655423,0.0082323494,0.0072383558,0.007749192,0.007613576,0.0078585091,0.007559212,0.0078840884,0.0070092808,0.0073317776,0.0068462785,0.0070096861,0.0073417823,0.0075288184,0.0068081711,0.0072008564,0.0072917151,0.007659794,7
644-Nebraska-Banner,41.53975,-103.726263,0.0018168463,0.0011375182,0.0021276954,0.0005787846,0.0011909502,0.0010697272,0.0010223271,0.0004177678,0.0009014495,0.0017125469,0.001281271,0.001492775,0.0013067182,0.0014909352,0.0011342571,0.0012922942,0.0012233127,0.0005362603,0.0014352425,0.0010426145,0.001482261,0.0010576894,0.000499018,0.0014545202,0.0009528386,0.0010778984,0.0011859454,0.0009858163,0.0010990644,0.0009287322,0.0011706283,0.0009472641,0.0012305478,0.0009945475,0.0010498495,0.0010846334,0.0014661971,0.0008089976,0.0015917478,0.0007885178,0.0022417222,0.0011046703,0.0010886333,0.0017358838,0.0016287381,0.0011369668,0.0011573996,0.0014580958,0.0012210944,0.001052742,0.0014374008,0.0009170581,0.0010370182,0.0009537459,0.0008159902,0.0012408142,0.0008008135,0.0008614756,0.0011706666,0.0010947847,0.0008936898,5
646-Rhode Island-Newport,41.502732,-71.284063,0.0062717632,0.0053428026,0.006714144,0.0046951276,0.0052358063,0.0050570062,0.0053024281,0.0044266315,0.0058585577,0.0058126791,0.0052655137,0.0053154665,0.005617327,0.0058493489,0.0051808135,0.0052168867,0.0059515542,0.0047102606,0.0058005007,0.0051461073,0.0054219659,0.0057530912,0.0047492069,0.0057618618,0.0050572354,0.0048641495,0.0051489234,0.0049252911,0.0051178343,0.004999361,0.0056275584,0.0048464138,0.0055585008,0.0055608782,0.0053570966,0.0052818547,0.0054212605,0.0052180446,0.0058728975,0.0050441185,0.0060493263,0.0054674918,0.0052953958,0.0059009216,0.0060918715,0.0050916037,0.0056300029,0.0055760745,0.0056697772,0.0052714386,0.0057719824,0.004859445,0.0051171833,0.0046087493,0.0049495809,0.005326287,0.0052406369,0.0047934228,0.0051839866,0.0051739563,0.0053660091,8
673-Nebraska-Nance,41.402386,-97.991408,0.0021060555,0.0012889002,0.0025347536,0.0009034923,0.0017903549,0.0016742351,0.0020039995,0.0010310796,0.0014866479,0.0020177029,0.0012912475,0.0014271469,0.0019155096,0.001942429,0.0014362464,0.0010239808,0.0012271569,0.0008933469,0.0017715206,0.0010535472,0.0011694891,0.0012262414,0.0009309903,0.0017614012,0.0009827516,0.0015328995,0.0014476321,0.0013316134,0.0009825834,0.0012663538,0.0015074732,0.0013631924,0.0014145129,0.0010158271,0.0013019325,0.0009726577,0.0014140899,0.0008856339,0.0019982221,0.0013904674,0.0027554306,0.0013449157,0.0013881771,0.0015035649,0.001364634,0.0011490039,0.0017069933,0.0015998641,0.0019449005,0.0012136261,0.0015858635,0.0012627767,0.0013529654,0.0011907266,0.0012461269,0.0014355181,0.0015782431,0.0008338566,0.0006309298,0.0006695137,0.0014895371,5
704-Nebraska-Polk,41.187925,-97.570663,0.0035760996,0.0029991321,0.0037404765,0.0023364598,0.0033696639,0.0030629832,0.003776966,0.0029652883,0.0027067441,0.0035559249,0.0021026501,0.0028754418,0.0033084149,0.0032371028,0.0028665309,0.0027503662,0.0024987547,0.0028711773,0.003091431,0.0022471444,0.0029043773,0.0025949287,0.0028554812,0.0030446775,0.0021413759,0.0030114682,0.0029165465,0.0029314091,0.0020105169,0.0026304763,0.0028892984,0.0031316458,0.0030222333,0.0019638118,0.0028464341,0.0023903507,0.0024737443,0.002028217,0.0034739461,0.0030188512,0.0043406071,0.0028638103,0.0021805377,0.0025765591,0.0027839232,0.0025772815,0.0033071711,0.0027543577,0.0032513601,0.0024853631,0.002904895,0.0028018139,0.0027227679,0.0026029715,0.0026555947,0.0029946302,0.0030900277,0.0021483151,0.0017054551,0.0017041563,0.0028249288,5
707-Nebraska-Howard,41.219403,-98.513303,0.0026061349,0.0015569282,0.0029255384,0.0015350098,0.0020721153,0.0018244492,0.0023289343,0.0014531017,0.001893142,0.0024246085,0.0016681374,0.0018109534,0.0021846515,0.0021176376,0.0018635964,0.0016419184,0.0017593889,0.0014090073,0.0022041172,0.001482751,0.0017403757,0.0017086174,0.0014027353,0.0021860686,0.0014275932,0.0018178852,0.001795176,0.0015279694,0.0012176022,0.0016615373,0.0018907717,0.0016908751,0.0019661132,0.0016260491,0.0019071155,0.0013544797,0.0016334642,0.0013721417,0.0022815346,0.0016602607,0.0030045318,0.0018467649,0.0017021513,0.0020160009,0.0018118308,0.0015684019,0.0020506023,0.0018413106,0.0022140974,0.0015939023,0.0020489584,0.001650779,0.0017513427,0.0016571746,0.0016619447,0.0017659082,0.0020439688,0.0013211542,0.0011808974,0.0010832111,0.0018567226,5
720-Illinois-Mercer,41.204791,-90.741433,0.0022496747,0.0013895044,0.0022513788,0.0009222336,0.0020804668,0.0009478364,0.0018849819,0.0010918595,0.001915856,0.0019356787,0.0009706595,0.0014919717,0.001452226,0.0021510438,0.0017402161,0.0013918305,0.0012875609,0.000892961,0.0017568065,0.0014906155,0.0014751644,0.0010932823,0.0009297694,0.001748466,0.0011864207,0.0006253022,0.0015544665,0.0014487015,0.001007529,0.001236564,0.0018389641,0.0006974488,0.001364832,0.0008256496,0.0018917601,0.001240568,0.0017289122,0.0011761223,0.0022409316,0.0019813224,0.0024911167,0.0009848367,0.0015250076,0.0016783736,0.0009621424,0.0014557176,0.0014726732,0.0017333131,0.0018258421,0.0008020847,0.001712266,0.0005853936,0.0008397711,0.0007079031,0.0010295077,0.0011051899,0.0021156007,0.0011452404,0.0009497936,0.000575564,0.0005850093,9
815-New York-Bronx,40.848711,-73.852939,0.0035743459,0.0026360802,0.0040153963,0.0020064453,0.0027139593,0.002553973,0.0026920793,0.0017548494,0.0031296141,0.0032607104,0.002688183,0.0026585996,0.0030416322,0.0032230316,0.0025482705,0.0025792611,0.0032366933,0.0020153663,0.003225833,0.002526731,0.0027852721,0.0030423756,0.0020539446,0.0031826894,0.0024452009,0.0021607303,0.0024961645,0.0022750266,0.002540959,0.0024051821,0.0029930727,0.0021454357,0.0029239437,0.0030354008,0.0027953423,0.0026183509,0.0028951221,0.0026432009,0.0032593397,0.0023555035,0.0034983309,0.0027519262,0.0027071172,0.0033333329,0.003448637,0.0024904037,0.0030303711,0.0029820644,0.0030844121,0.0027437423,0.0031440306,0.0022723545,0.0025732676,0.0020113835,0.0023419339,0.0026850191,0.0027406887,0.0022277377,0.0024681097,0.0026460058,0.0028765432,10
833-New York-New York,40.776557,-73.970174,0.0116257356,0.0106989971,0.012072394,0.0100732379,0.0107640937,0.010634284,0.0107826973,0.0098220135,0.0111923025,0.0113034459,0.0107460439,0.0107080187,0.0111017161,0.0112847839,0.0106003079,0.0106309365,0.0112847409,0.0100648618,0.0112575418,0.0105716077,0.0108352845,0.0110919922,0.0101029222,0.0112140707,0.0104940545,0.0102001054,0.0105317698,0.0103438098,0.0105803172,0.010438599,0.0110414649,0.0101862017,0.010969687,0.0110715331,0.0108378068,0.0106660817,0.0109461487,0.0106898335,0.011302521,0.0104001794,0.0115003462,0.0107767973,0.0107390226,0.0113749938,0.0114784411,0.0105231715,0.0110596002,0.0110266026,0.0111269484,0.0107767916,0.0112089374,0.0103233798,0.0106244394,0.0100691498,0.0103771169,0.0107361436,0.0107725649,0.010257453,0.0104902748,0.0106930312,0.0109081213,10
840-Ohio-Hardin,40.660415,-83.664077,0.0056011594,0.0051142174,0.0064990721,0.0049395919,0.0057110322,0.0052362867,0.0054005898,0.0043434696,0.0052502603,0.0052266872,0.0052543686,0.0056825347,0.0052580297,0.0061410052,0.005557243,0.0049978441,0.0057341512,0.0042948998,0.0054732738,0.0049173953,0.0050738271,0.0055148043,0.0043417385,0.0054509528,0.004740876,0.0047871648,0.005056413,0.0050646677,0.0050590536,0.0051865332,0.0052842939,0.0046715287,0.0052326423,0.0056622586,0.0052620915,0.0050966622,0.0051796809,0.0048338045,0.0058599346,0.0053990346,0.0057352269,0.0045023779,0.0058064669,0.0051618264,0.0057350363,0.0053040979,0.0052794744,0.0051724052,0.00539527,0.0050290505,0.0059343884,0.0047050032,0.004915376,0.0046878973,0.0041794708,0.0045280599,0.0051278142,0.0041544304,0.0045039043,0.0048959434,0.0056433619,7
841-New York-Queens,40.658557,-73.837929,0.0087815949,0.0078496708,0.0092262859,0.0072150411,0.0079112441,0.0077540164,0.0079055598,0.006961653,0.0083442127,0.0084388894,0.0079063295,0.0078510238,0.0082219926,0.0084323745,0.0077575067,0.0077848881,0.0084491664,0.0072343201,0.0084307375,0.0077341755,0.0079898239,0.0082558649,0.0072728262,0.0083866703,0.0076640841,0.007390392,0.0077054842,0.0075026599,0.007755487,0.0076308035,0.0082101459,0.0073677957,0.0081390973,0.0082500505,0.008013652,0.0078314493,0.0081247361,0.0078519712,0.0084919975,0.0075702201,0.0086845706,0.0079767442,0.0079275048,0.0085591979,0.0086689224,0.0076951952,0.0082511093,0.0082039792,0.0083030895,0.0079623457,0.0083835894,0.0074950654,0.0077956028,0.007230993,0.0075849359,0.0079027973,0.0079502852,0.0074729098,0.0077060307,0.0078768167,0.0081017121,10
844-New Jersey-Hunterdon,40.565283,-74.91197,0.0033852579,0.0023581831,0.0036308531,0.0015142466,0.0024689955,0.0023350554,0.0024175029,0.0014513681,0.0030268741,0.0029522673,0.0023975219,0.0024678928,0.0027930536,0.0030301953,0.0023946238,0.00245307,0.0030904972,0.0018726017,0.0029245326,0.0023125343,0.0026357263,0.0028700315,0.0018830919,0.0028637156,0.0022379933,0.001778935,0.0020647973,0.0021507094,0.0021282415,0.0020162298,0.0025750695,0.002009939,0.0026102483,0.0027543519,0.0023807985,0.0022894847,0.002598791,0.0022661154,0.0029514865,0.0020737966,0.0030906721,0.0023800187,0.0025026623,0.0030369761,0.0030363691,0.0021517096,0.0026882018,0.0024136482,0.0027852026,0.0024319814,0.0028436212,0.0019499075,0.0022996805,0.0016111604,0.0017628483,0.0022527291,0.0023626911,0.0018331623,0.0020824069,0.0023665216,0.0024272884,11
854-New York-Kings,40.635133,-73.950777,0.0040032298,0.0030594362,0.0044336454,0.002408433,0.0031165886,0.0029766869,0.0031228624,0.0021605081,0.0035554676,0.0036360104,0.0030939504,0.0030419471,0.0034263955,0.0036160399,0.0029522977,0.0029735501,0.0036411148,0.0024193783,0.0036105179,0.0029339832,0.0031794796,0.003446876,0.0024573775,0.0035655093,0.0028616717,0.0025564538,0.0028996297,0.0027072159,0.002919125,0.0027947297,0.0033987836,0.0025526471,0.0033323651,0.0034392141,0.0031997348,0.0030400135,0.0033159807,0.0030597619,0.0036825281,0.0027621892,0.0038895524,0.0031574129,0.0031101155,0.0037489205,0.0038553777,0.0028836088,0.0034272084,0.0033803576,0.0034924181,0.0031505618,0.0035766901,0.0026899351,0.0029796603,0.0024203169,0.0027520833,0.0030968866,0.0031478352,0.0026444409,0.0028828123,0.0030687678,0.00329135,10
886-West Virginia-Hancock,40.516931,-80.570057,0.0036015581,0.0026538777,0.0040612308,0.0021296407,0.0029348493,0.0025899639,0.002818253,0.0016937822,0.0032503778,0.0033213926,0.0027420744,0.0028532819,0.0031046179,0.0033824656,0.0027080883,0.0025436262,0.0032523479,0.0021389526,0.0033748703,0.0026546069,0.0027467783,0.0030567076,0.0021741783,0.0033303651,0.0025383319,0.002161562,0.002653211,0.0024291987,0.0027441465,0.0024918331,0.0030700038,0.0021023135,0.0029612271,0.0032020773,0.0029694297,0.0027946999,0.0029120276,0.00277058,0.0033752952,0.0025009835,0.0036610415,0.0027373422,0.0028837347,0.0034299208,0.0035258793,0.0025293318,0.003122193,0.0030986424,0.0031655532,0.0028221098,0.0032772911,0.0023551282,0.002619615,0.002151031,0.0023661499,0.0025553344,0.002892861,0.0023326017,0.0025844476,0.0027541028,0.0030752186,12
890-Missouri-Schuyler,40.469361,-92.519016,0.0023347925,0.0016871409,0.0028598095,0.0009689554,0.002046168,0.0013498899,0.0019450451,0.0009323142,0.0018723142,0.0020528798,0.0012963715,0.0015923418,0.0016445452,0.002285782,0.0016917189,0.001358788,0.0019301418,0.0010954624,0.0019262617,0.0015451682,0.0015317232,0.0017478677,0.0011437571,0.0019110684,0.0013607423,0.0009851925,0.0017180827,0.0013526341,0.0014691736,0.0010569091,0.0018765157,0.0009775048,0.0012432055,0.0012621434,0.0019248633,0.00126772,0.0015695223,0.0011655467,0.0023106818,0.0017720584,0.0026445314,0.0015092933,0.0014152459,0.002023445,0.0017342878,0.0014817684,0.0016107276,0.0018119813,0.0019574787,0.0011886344,0.0021332892,0.0011411285,0.0011289951,0.0010838963,0.0012813307,0.0012959233,0.0017966538,0.0011509515,0.0012347873,0.0007058796,0.0011575751,13
891-New Jersey-Middlesex,40.439593,-74.407585,0.0091070295,0.0081146087,0.0095206458,0.0074552184,0.0082463993,0.0080730167,0.0082259311,0.0072567086,0.0086631547,0.0087310081,0.0081862993,0.0081834161,0.0085104762,0.008746905,0.0080915992,0.0080796786,0.0087468744,0.0075021608,0.0087015338,0.0080236586,0.008281358,0.0085488759,0.0075356313,0.0086517824,0.0079469118,0.0076704561,0.0079130155,0.0078467496,0.0080156915,0.0078758982,0.0084290911,0.0076886682,0.008410097,0.0085313192,0.0082660247,0.0081261852,0.0083758855,0.0081080515,0.0087220459,0.0078603935,0.0089406826,0.0082472194,0.0082018912,0.0088532059,0.0088782514,0.007973209,0.0085066504,0.0083998312,0.0085752311,0.0082453909,0.0086261436,0.0077621682,0.0080946877,0.0074635402,0.0077952176,0.0081753083,0.008229144,0.0077316957,0.0079537796,0.0081450446,0.0083356806,11
904-Ohio-Knox,40.40362,-82.422393,0.0022771453,0.0014604391,0.0027772824,0.0010836974,0.0018896319,0.0014701071,0.0016777071,0.0004600097,0.0018300493,0.0018064632,0.0014313485,0.0017418435,0.0016855887,0.0022738193,0.0017446295,0.0011893743,0.0020682964,0.0008758097,0.0020591486,0.0013410871,0.0013696171,0.0018681994,0.0009281736,0.001979001,0.0011686574,0.000912942,0.0014268597,0.0012082521,0.0014056978,0.0012462391,0.0015711961,0.0007076428,0.0015727,0.0018789375,0.0017084074,0.0015203435,0.0016469202,0.0014107967,0.0021460823,0.0013259712,0.0021788146,0.0011639439,0.0019206203,0.0019129545,0.0021625651,0.0013911846,0.0015274325,0.0016063791,0.0018248688,0.0013950506,0.0020309637,0.0009663609,0.0013715594,0.0009004249,0.0009384022,0.0010296991,0.0016304302,0.0008120418,0.0012813336,0.0014241704,0.0017705304,7
914-Ohio-Shelby,40.33668,-84.204143,0.0019598296,0.0010373941,0.0027147251,0.0009767366,0.0017579945,0.0013593618,0.0015484834,0.0007803126,0.0013493741,0.0011876188,0.0015982966,0.0018837687,0.0013500507,0.002512179,0.0018285017,0.0013472613,0.0021255431,0.0007976915,0.0018147904,0.001115105,0.0014463318,0.0018631754,0.0008015366,0.0017451835,0.0008832085,0.000850948,0.0009866678,0.001466972,0.0015394875,0.0011824303,0.0013183752,0.0008684786,0.0011463516,0.0018552688,0.0016991463,0.0014271108,0.0014623887,0.0009281564,0.0021506951,0.0016310158,0.0017751468,0.0007434838,0.0018611876,0.0014163967,0.0016229927,0.0014915322,0.0010162308,0.0012300502,0.0017840445,0.0011432331,0.0021770133,0.0008140588,0.0008045779,0.0009036449,0.0002372204,0.0009534255,0.0013587829,0.0003971693,0.0010801476,0.0011891123,0.0017496783,7
956-Illinois-Piatt,40.009056,-88.592328,0.0024270388,0.0018261721,0.0030337687,0.0016052366,0.0027443643,0.0023122062,0.0020955169,0.0013187413,0.002169691,0.0022463322,0.0023421182,0.0021189615,0.0018218056,0.0028885887,0.0023510811,0.002034823,0.0023658896,0.0013208119,0.0024101089,0.0017225577,0.0021633062,0.0021386657,0.0012651671,0.0024036174,0.0014239049,0.000756134,0.0015606816,0.0021597808,0.0016442056,0.0017587964,0.0024499718,0.0018820339,0.0013263585,0.0021358753,0.001960699,0.0020678817,0.0019143645,0.0020349817,0.0027550492,0.0026591292,0.0030738579,0.001383126,0.0023702281,0.0021179786,0.0020617507,0.0019515716,0.0023556541,0.0021206105,0.0024351374,0.0014553278,0.0027426779,0.0016186781,0.0020755926,0.0014343636,0.0015162676,0.0013261776,0.0025478235,0.001297795,0.0019065777,0.0014512016,0.0012213473,9
969-Indiana-Hamilton,40.04987,-86.020586,0.0099136643,0.0091344235,0.0106817295,0.0086238904,0.0093604761,0.0094020663,0.0093909364,0.0083296262,0.0093015418,0.0095040768,0.0093846876,0.0095119227,0.0094882816,0.010040246,0.0093478992,0.0090250264,0.009834434,0.008704109,0.0098930958,0.0091069246,0.009170555,0.0096266054,0.0086692383,0.0098012907,0.0089137595,0.0085781028,0.0090875465,0.0090119535,0.0093558628,0.0089101209,0.0093687645,0.0088405165,0.0092406676,0.0096019631,0.0095471598,0.0091995594,0.0092407126,0.0090111766,0.0100685854,0.0093328047,0.0097391853,0.0089637354,0.009406342,0.0094175658,0.0095917579,0.0092105462,0.0095446095,0.0091945679,0.0097673767,0.0088017749,0.0099957648,0.0087705941,0.0087917226,0.0084825703,0.0084420459,0.0089356205,0.0092741089,0.0082391716,0.009012348,0.0088628823,0.0092950337,6
981-Ohio-Belmont,40.017682,-80.967727,0.0031012672,0.0021395551,0.0036052937,0.001724568,0.0025086008,0.0021637274,0.0023789264,0.0011874602,0.0028182525,0.0027476349,0.002315769,0.0024471237,0.0025312987,0.0029127554,0.0022318084,0.0020157667,0.0027659756,0.0017220449,0.0028710787,0.0021320597,0.0022170478,0.0025698575,0.0017520066,0.0028241092,0.0020008569,0.0016601477,0.0021181492,0.0019240036,0.0022343189,0.0019532095,0.0025323786,0.0015946328,0.0024133292,0.0026595293,0.0024809842,0.0023522891,0.0024354174,0.0022825561,0.0029169496,0.0019963111,0.0030208919,0.0021728211,0.002385212,0.0029074325,0.002988385,0.0020279713,0.0025505822,0.0025288848,0.0026373553,0.0022653087,0.0027588902,0.0018854057,0.0020927173,0.0016173189,0.0018609249,0.002072426,0.0024144031,0.0018052482,0.0021397667,0.0022248511,0.0025907704,7
1063-Missouri-Caldwell,39.658998,-93.979179,0.0106859798,0.0102309973,0.0108573369,0.0094054277,0.0106111245,0.0098698921,0.0103438234,0.0097255971,0.0104163626,0.0100938215,0.0099949639,0.0099593025,0.0095157423,0.0107053087,0.0102735786,0.0097959122,0.0102760027,0.0097960971,0.010245837,0.0099656771,0.0099735111,0.0101224727,0.0098485324,0.010220965,0.0098309876,0.0094386473,0.0103644544,0.0100412334,0.0096464063,0.009492884,0.0102933861,0.009880871,0.0096863846,0.0096954499,0.0102184035,0.0097386816,0.00995218,0.0096964733,0.0107174962,0.010334239,0.0109873782,0.0099602653,0.0101073575,0.0101476276,0.0099043068,0.0099803821,0.0101651541,0.010103651,0.0104182462,0.0092553697,0.0104162015,0.0093984077,0.0093402259,0.009798702,0.0097555627,0.0095037503,0.0102339,0.0097680225,0.0097763154,0.0096053868,0.0094344214,13
1096-West Virginia-Mineral,39.405626,-78.956581,0.0042864524,0.0033956751,0.0048776987,0.0027874259,0.0036192628,0.0032804493,0.0034850392,0.0024109945,0.0040036601,0.0040782527,0.003496574,0.0034989432,0.0037945928,0.0040124739,0.0033308346,0.0032750334,0.0039599935,0.0028934641,0.0040432148,0.0034115565,0.0034798637,0.0037628741,0.0029220822,0.0039951203,0.0032986069,0.0029688564,0.0033454177,0.0030752045,0.0034253311,0.0030946032,0.0037146269,0.002901714,0.0035955355,0.0038594113,0.0037038695,0.0033935134,0.0035582588,0.0034429316,0.0041149243,0.0031329288,0.004283714,0.0035191633,0.0036010584,0.0041506979,0.0040780426,0.0032238841,0.0036897611,0.0036270099,0.0038250222,0.0035553039,0.0039728406,0.0030948247,0.003330168,0.0027395685,0.002951649,0.003413462,0.0036083872,0.0031311487,0.0033174007,0.0033595438,0.0036343511,12
1152-California-Colusa,39.177739,-122.237563,0.0023726273,0.0015902441,0.0029174404,0.0007584064,0.0012244503,0.0012654583,0.0015044309,0.0004256934,0.0019649344,0.0019190904,0.0018113046,0.0016538091,0.0019719533,0.0020945183,0.0008690346,0.0013208783,0.0016594268,0.0009789698,0.0016159263,0.0013788971,0.0015687276,0.0016819294,0.0007418833,0.001749421,0.001388937,0.0008962791,0.0013786595,0.0009102643,0.0014652935,0.0011927783,0.0017573153,0.0008200436,0.0018481997,0.0015905409,0.0014269927,0.001687152,0.0018921949,0.0015039633,0.0023638368,0.0010562164,0.0023380599,0.0015523273,0.0011990718,0.0021871401,0.001835208,0.0011781647,0.0013302281,0.0016960868,0.0018626791,0.000707864,0.0016443927,0.0008593783,0.0013850565,0.0009019388,0.0008853567,0.0015886718,0.0012429444,0.000837494,0.0014476637,0.0016031946,0.001826231,14
1174-Indiana-Monroe,39.160751,-86.523325,0.0029173819,0.0021896284,0.0036768235,0.001714138,0.0024691806,0.0022832139,0.0023352266,0.0013980233,0.0026872925,0.0027802787,0.0023694656,0.0024286701,0.0026298814,0.0029155979,0.0022885931,0.0021700593,0.0028180594,0.0016353084,0.0028470071,0.0021377409,0.0023625819,0.0026260566,0.0016682205,0.002809955,0.0020117629,0.0017106762,0.0022144951,0.0020316605,0.0022879719,0.0020632774,0.0024748032,0.0018447751,0.0024389917,0.0025815055,0.0025673162,0.0022966117,0.0024023871,0.002268388,0.0029638326,0.0021061635,0.0030649281,0.0023610008,0.0024118669,0.0029667579,0.0028403732,0.0021737656,0.0025725559,0.0024765989,0.002791089,0.0021852996,0.0028675886,0.0018238616,0.0020520261,0.0015484257,0.0019050189,0.0022624604,0.002412338,0.0016426097,0.0022403985,0.0021171595,0.0024667335,6
1183-California-Sutter,39.035257,-121.702758,0.0053151136,0.004515936,0.0058965873,0.0035682017,0.0038218454,0.0040409005,0.0043631802,0.0032449387,0.004773591,0.0046443898,0.0049088664,0.0046830167,0.0050199221,0.0051214116,0.0034256763,0.004191813,0.0043253798,0.0040594262,0.0043776274,0.0044214698,0.004607406,0.0046000847,0.003601234,0.0046160854,0.0045087231,0.0036644589,0.0042330576,0.0038418351,0.0042949264,0.003837849,0.0045714328,0.003544786,0.0047701201,0.0042078568,0.0039800556,0.0046334401,0.0047901137,0.0043881733,0.0052292356,0.0038700904,0.0052165707,0.004350603,0.0039403173,0.005123682,0.0044211818,0.0041330254,0.0039267294,0.0043893498,0.0049028098,0.0033068298,0.0044543773,0.0038137725,0.0043974185,0.003752992,0.0036156057,0.0046748611,0.003966337,0.0036572389,0.0043888771,0.0045929349,0.0046284208,14
1188-Virginia-Clarke,39.115931,-77.992004,0.0058631644,0.0048210663,0.0064542226,0.0042128359,0.0052288928,0.0049045055,0.005088558,0.0040464978,0.0055774549,0.0056319749,0.0050601301,0.0050653467,0.0054011712,0.0056033671,0.0048897731,0.0049912996,0.0057390533,0.0045556969,0.0055776346,0.0049057368,0.0051584515,0.0055170272,0.0045434247,0.0055074958,0.0048551569,0.0045450539,0.0047124371,0.0045891353,0.0049741879,0.0046111524,0.0050493917,0.0045831824,0.005323748,0.0053811502,0.0050913417,0.0049754426,0.0053330533,0.0051209132,0.005699742,0.0047793631,0.0058527751,0.0050487975,0.0053494543,0.0055212238,0.0056160311,0.0048075493,0.0051624035,0.0050080993,0.0053368818,0.0051915212,0.0054486751,0.0046451949,0.0049366351,0.004152986,0.0043375091,0.004919589,0.005098882,0.004564756,0.0051001682,0.0048939648,0.0049599861,15
1190-Nevada-Carson City,39.153447,-119.743442,0.01175392,0.0106583836,0.0121975945,0.0102987115,0.0110525181,0.0109636169,0.0108269027,0.0100997715,0.0114143933,0.0114710062,0.0111333227,0.011168334,0.0112825694,0.0114217973,0.0107570596,0.0106303454,0.0113787952,0.0102607174,0.0114759273,0.0109080505,0.0108346935,0.0111860648,0.0102968823,0.0114383166,0.0107724509,0.0105159374,0.0109107847,0.0106494681,0.0108751561,0.0107959605,0.0111252546,0.0105325251,0.0110042901,0.0108654465,0.0110091548,0.0110570451,0.011033863,0.0110263833,0.0117249992,0.0107701588,0.0118790671,0.011324343,0.0110068589,0.0116088943,0.0118800164,0.0107663667,0.0109218452,0.0110396253,0.0114381814,0.0108429547,0.0114780537,0.0107568553,0.0108956785,0.0104384909,0.0107636113,0.01110669,0.0108915803,0.0106557467,0.0109806884,0.011167827,0.0113016143,16
1253-Colorado-Cheyenne,38.835387,-102.604585,0.0019477046,0.0015063319,0.0025035653,0.0010203453,0.0014948589,0.0016767178,0.0020454852,0.0011671523,0.0014288633,0.0014305907,0.0011883422,0.0015266531,0.0015650914,0.0019311703,0.0015902875,0.0016794694,0.0011139109,0.0009827159,0.0018491985,0.0014235259,0.0018264388,0.0009764765,0.0009619771,0.0018583618,0.0013020406,0.0013909029,0.0015883029,0.0011916277,0.0013724389,0.0013139817,0.0013701884,0.0007841923,0.0014696837,0.0013519997,0.0015046435,0.001344089,0.0014885,0.0012209601,0.0018242865,0.0011735511,0.0018277888,0.0013954359,0.0007905279,0.001817931,0.0018797128,0.0009348925,0.0009545314,0.0015646662,0.0011027931,0.0011862654,0.0013785268,0.0012424498,0.0012837831,0.0012069465,0.0012319015,0.0008250057,0.001248895,0.000794157,0.0011895536,0.0010930332,0.0011632151,17
1256-Illinois-Bond,38.885924,-89.436592,0.0033201008,0.0026759579,0.0042818066,0.0027641767,0.0039007212,0.0034909441,0.0032935082,0.0022566978,0.0027647074,0.0033892791,0.0031855373,0.0032239339,0.0029765111,0.0039040392,0.0032836641,0.0033503373,0.003715935,0.0024166847,0.0029428039,0.0029099215,0.003423301,0.0034433413,0.0023673904,0.0030464532,0.0026201604,0.0020319327,0.0030776314,0.0031104939,0.0028096594,0.0026127736,0.0033909948,0.0030117833,0.0029373224,0.0027740949,0.0029300341,0.0026375575,0.002821378,0.0030531514,0.0036189968,0.0031603565,0.0040808264,0.002442809,0.0033624343,0.0035385612,0.0031870791,0.0028537845,0.0032285884,0.0030263602,0.0035147888,0.0021923316,0.0035890419,0.0021018582,0.0028926304,0.0022298513,0.0025161047,0.0025398693,0.0036390973,0.0027930137,0.0032818409,0.0021290242,0.0026107427,9
1263-District of Columbia-Washington,38.904149,-77.017094,0.0160731136,0.0151142862,0.016561106,0.0144892011,0.0152327481,0.0151564233,0.0152482518,0.0142951583,0.0157043165,0.0157508114,0.0152368762,0.0152228443,0.0155828264,0.0157868738,0.0150178249,0.0151258265,0.0157023963,0.0145327968,0.0157713751,0.0150693497,0.015329246,0.0155105088,0.0145697621,0.015730453,0.0149968786,0.0147494654,0.0150294285,0.0147928705,0.0151643336,0.0149580675,0.0154534562,0.0147575527,0.0154688799,0.0155613029,0.0153776734,0.0152207351,0.0154548199,0.0151861644,0.0158342016,0.0149224923,0.0160625807,0.0153342162,0.015259802,0.0158657401,0.0159066212,0.0150324764,0.0154917631,0.0155085587,0.0156189694,0.0153276041,0.0156473549,0.0148351153,0.0150773311,0.0145633909,0.0147916982,0.0152846568,0.0152946327,0.01478992,0.015167635,0.0151757803,0.0153735752,18
1363-Illinois-Wabash,38.445821,-87.839167,0.0013848696,0.0003970826,0.0023006029,0.000712819,0.0017154474,0.0012743787,0.00085767,0.0001889878,0.0008497156,0.0010682014,0.0009185484,0.0011911653,0.0009229063,0.0018791806,0.0012814502,0.0010584014,0.0016198868,0.0005931936,0.0014275735,0.0008012901,0.0011835169,0.0012960617,0.0004483909,0.0014130437,0.0005707365,0.0,0.000835836,0.0009285359,0.0008463871,0.0007630173,0.0009095618,0.0008632036,0.0008871337,0.0009832071,0.0008891751,0.0006306838,0.0005839439,0.0009343708,0.0017608733,0.000944972,0.001570155,0.0006187413,0.0011581597,0.0014805482,0.0011218375,0.0008374167,0.00125236,0.0007014214,0.0013749288,0.0003606409,0.0015432014,0.0004743088,0.0005826992,0.0002321205,0.0005407218,0.0002567684,0.0011889497,4.94804e-05,0.0010138412,0.0006861276,0.0006869425,9
1384-Kentucky-Boyd,38.360004,-82.681406,0.0070865467,0.0061064509,0.0076217942,0.0057272026,0.0064685205,0.0061680602,0.0063693934,0.0053024663,0.0068575404,0.0068452137,0.0063765384,0.0063973808,0.0065596687,0.0068262828,0.0062126918,0.0061594244,0.0067229787,0.0056191629,0.0068888411,0.0061500601,0.006361174,0.0065294313,0.0056513059,0.0068471291,0.0060243502,0.0057543116,0.0061893133,0.0059245385,0.0062865213,0.0060233766,0.0065053078,0.0058194626,0.0065684297,0.0066031643,0.0065970146,0.006288397,0.006507376,0.0062094954,0.0069888645,0.0059690505,0.0071068101,0.006359469,0.006333247,0.0069719881,0.007015202,0.0060990509,0.0065880036,0.0066148874,0.0067211855,0.006387909,0.0068309256,0.0059536582,0.0061955055,0.0055777733,0.0058932531,0.0062531429,0.0065096008,0.0058069815,0.0062174886,0.0062838655,0.0064731234,19
1420-California-San Joaquin,37.935034,-121.272237,0.0045598164,0.0036954799,0.0050990603,0.0029083419,0.0032822032,0.0033174068,0.0033617132,0.0024227849,0.0038070895,0.0038831555,0.0039596172,0.0039338278,0.0040183095,0.0043495463,0.0027053207,0.0033497913,0.0036474664,0.0031652169,0.0036744591,0.003578525,0.0036846268,0.0038862959,0.0029108413,0.0039407174,0.0036968714,0.003011868,0.0033820915,0.0031157055,0.0034558852,0.0032095954,0.0040405788,0.0028346034,0.0041244297,0.0035973508,0.0034047769,0.0039619066,0.0039911678,0.003575692,0.0044334046,0.0032553234,0.0046064763,0.0036659661,0.0034156919,0.0045074594,0.0040816509,0.0034280014,0.0034218796,0.0040100145,0.0042820716,0.0025914181,0.0037676015,0.0032155663,0.0037991014,0.0031410092,0.0031302122,0.0039909984,0.0033701609,0.0030953329,0.0037826931,0.0040658454,0.0040773715,14
1466-Colorado-San Miguel,38.009374,-108.427326,0.0044747643,0.0037191562,0.0050703472,0.0031004821,0.0037515726,0.0035636532,0.003794159,0.0027880948,0.0038707842,0.0043239875,0.0036900556,0.0037221324,0.0039512044,0.004214841,0.0035177493,0.003369992,0.0039137872,0.002978543,0.0042234667,0.0035835669,0.0035771545,0.0037212533,0.0030144662,0.0041867423,0.0034220926,0.0031752155,0.0035601202,0.0033125306,0.0035936918,0.0033241077,0.0038707122,0.0031561281,0.003715569,0.003839059,0.0037287071,0.0035110333,0.0037463458,0.0034237059,0.0042506829,0.0032887015,0.004759052,0.00374704,0.0036317134,0.0041850141,0.0044799378,0.0035061058,0.0039659242,0.0040475968,0.0040868023,0.0037169234,0.0039844093,0.0032883731,0.0035108576,0.0030846143,0.003383962,0.0037002153,0.0037867357,0.0032136564,0.0034810395,0.0037432277,0.0039439015,17
1477-Virginia-Richmond,37.942894,-76.730561,0.0110962862,0.0102791444,0.0116001848,0.0096349365,0.0104828785,0.010422027,0.0102114308,0.0092152053,0.0106355726,0.0106627438,0.0102329428,0.0101205315,0.0104581525,0.01074303,0.0101721034,0.010179732,0.0108392418,0.0095983312,0.0109304047,0.0101516059,0.0103702259,0.0106587573,0.0096231181,0.0108737025,0.0100930035,0.0097642677,0.0099439208,0.0098659577,0.0102801385,0.0099290956,0.0102825021,0.0099372342,0.0104901379,0.0106005633,0.0103926125,0.0101953646,0.0104268777,0.010351342,0.0109296766,0.0100971074,0.0109773305,0.01033718,0.0104109298,0.0108098643,0.011006986,0.0100538453,0.0104407621,0.0105050069,0.0106118049,0.0104365249,0.0107104123,0.0097929733,0.0101445572,0.0096684177,0.0096358237,0.0100861631,0.0104009457,0.0097041985,0.0104306684,0.0102863894,0.0101740487,15
1483-California-Stanislaus,37.562384,-121.002656,0.00236093,0.0014632532,0.0029719187,0.0007025538,0.001161345,0.0011531636,0.0013663782,0.0003970586,0.0018264565,0.0019462794,0.0016927475,0.0016247483,0.0018365675,0.0020855432,0.0007924912,0.0011560207,0.001624849,0.0009018362,0.0017036128,0.0013602462,0.0014305428,0.0015710823,0.0006830031,0.0017347279,0.0013065821,0.0007929317,0.0012402127,0.0008814302,0.0013033399,0.0009797942,0.0017776907,0.0006826578,0.0017619186,0.001532859,0.0013577694,0.0016723183,0.0017092512,0.0013815973,0.0021216486,0.0010088967,0.002400613,0.0013927588,0.0012035145,0.0021383021,0.0019131104,0.0010366273,0.0012557832,0.0016671948,0.0019404883,0.0007557004,0.0016098834,0.0008565427,0.0013323215,0.0008252864,0.0009277063,0.0016333416,0.0012087474,0.0009055736,0.0014691723,0.0016479362,0.0017360058,14
1504-Kansas-Gray,37.744513,-100.451716,0.0001339769,0.0,0.0,0.0003382481,0.0008629464,0.0004516499,0.0,0.0005000531,0.0,0.0,0.0,0.0003486261,0.0,0.0,0.0,0.0,6.5206e-05,9.27633e-05,0.0004568195,0.0,0.0,7.17682e-05,0.0001115948,0.0004771849,0.0,0.0002603315,0.0002174979,1.19928e-05,0.0,7.78807e-05,0.0,0.0,0.0,7.65476e-05,0.000348657,6.22553e-05,0.0,0.0,0.0,0.0,0.0002626411,0.0002242478,5.61753e-05,0.0,0.0003177706,0.0,9.65501e-05,0.0,0.0,0.0003507911,0.0,2.38796e-05,0.0003408112,6.13949e-05,4.26471e-05,0.0,0.0,0.0,0.0,0.0004534655,0.0,20
1546-Virginia-Amherst,37.630362,-79.147848,0.0040444347,0.0031933972,0.0046010266,0.002542383,0.0033519963,0.0031386973,0.0033522743,0.0023170218,0.0036935195,0.0038502264,0.0031775113,0.0033020609,0.003522563,0.0038027586,0.0031645239,0.0031642938,0.0037833454,0.0026071432,0.0038334546,0.0031400095,0.0033670843,0.0035945658,0.002638354,0.0037874019,0.0030752004,0.0027730568,0.0031144207,0.0028349123,0.0032188607,0.0029957324,0.0033706478,0.0028567104,0.0034730226,0.0035937061,0.0034686996,0.0031978301,0.0034469347,0.0032769923,0.0038416626,0.0030286498,0.0040020136,0.0033558012,0.0033161781,0.0038813328,0.0039626984,0.003064108,0.003437349,0.0035451646,0.0036655833,0.0033826331,0.0037494427,0.0029154522,0.0032289818,0.0026528624,0.0027952064,0.0033323584,0.003361583,0.0028175753,0.0032778186,0.0033001532,0.003364973,15
1547-California-San Francisco,37.727239,-123.032229,0.0051537077,0.0042166336,0.0055809428,0.0036703826,0.0044616563,0.0042184223,0.0042577934,0.0035168212,0.0046166844,0.0048210552,0.0044684911,0.0044506593,0.0047102376,0.0048456292,0.0041847098,0.0041630371,0.004725321,0.003577455,0.0048468347,0.0042560918,0.0043687209,0.0045312935,0.0036148474,0.0048079582,0.004138969,0.0038802088,0.0044084336,0.0040402994,0.0042766164,0.0040627929,0.0045762516,0.0039285401,0.0044248678,0.0044038625,0.0044384107,0.0043738695,0.0044466191,0.0043114785,0.0049907592,0.0040792521,0.0053264959,0.0046265964,0.0042982486,0.0048547323,0.0051616528,0.0040515913,0.0044434686,0.0045973882,0.0044601051,0.0043190292,0.0046939837,0.0039213768,0.0040819591,0.003670012,0.0039866487,0.0043859855,0.0043086912,0.0038218843,0.0042304852,0.0044130332,0.0045906227,14
1548-Virginia-Covington,37.778143,-79.986039,0.0032114596,0.0023553144,0.0037594159,0.0018044831,0.0025283077,0.0022713948,0.0025379358,0.0014831361,0.0029051767,0.0029576556,0.0024028663,0.0024807957,0.0027447038,0.0029929766,0.00231109,0.0023216248,0.0029275945,0.0018010083,0.0030628687,0.0023572146,0.0025276889,0.0027332166,0.0018389738,0.003021185,0.0022811466,0.0019713757,0.0023728766,0.0020160323,0.0023861849,0.0021798991,0.0026356174,0.0019676027,0.0026569736,0.002766282,0.0026995666,0.002402104,0.0026453879,0.0024053781,0.0030370273,0.0021368176,0.0032593775,0.0025750168,0.0024556963,0.0031081042,0.0031660109,0.0022456288,0.0027215949,0.0027856251,0.0028507869,0.0025247739,0.0028962941,0.0020479758,0.0022829596,0.0017270939,0.0020430133,0.0024436456,0.0025899613,0.0020241514,0.002380267,0.0024746425,0.0026053293,15
1565-Kansas-Haskell,37.55855,-100.876869,0.0,0.0001591775,0.0005166491,0.0005779489,0.0010825605,0.0005659041,6.70602e-05,0.0005330648,0.0005826747,0.0002869938,0.0002580738,0.0005129967,0.0001830657,0.0004150155,0.0003585539,0.0006212765,0.0,5.94294e-05,0.0,0.0001090875,0.0005834777,0.0,2.93349e-05,0.0,6.81067e-05,0.0004315733,0.0,0.0,0.0001273945,0.0004181076,0.000488901,0.0001154948,0.0004770402,0.0003432246,0.0009637106,0.0002402342,0.0007415186,0.0003611074,0.0007103665,0.0002782805,0.0,0.0,0.0001602777,0.0004847317,0.0004395887,0.0001304575,0.0,0.0002136766,0.0002603965,0.0004906184,7.3851e-05,0.0002955996,0.0002690234,0.0003670387,0.0002416564,6.64488e-05,0.0002459846,0.000238072,0.0003533446,0.0010374797,0.0004922602,20
1592-California-Merced,37.194806,-120.722802,0.0034464335,0.0025888725,0.0040071345,0.0016946159,0.0021912076,0.0022336626,0.0023779265,0.0013554683,0.0028333424,0.0028973528,0.0026830268,0.00261849,0.0028577427,0.0031353445,0.0016675913,0.0020780215,0.0026111204,0.0019027511,0.0026040892,0.0023712107,0.0022804909,0.0024808764,0.0015677064,0.0025515788,0.0022205177,0.0016876545,0.002107499,0.0017140436,0.002168805,0.0017988005,0.0026802253,0.0014992921,0.0026598194,0.0023198484,0.002178551,0.0025867496,0.0026282197,0.0023456374,0.0029570151,0.0018596666,0.0032810511,0.0023213887,0.0021703653,0.0030958826,0.0028593168,0.00202645,0.0022161694,0.002718951,0.0029456973,0.0015452406,0.0025410334,0.0018775439,0.0023268309,0.0017420822,0.0018859442,0.0026185819,0.0021726907,0.0017937812,0.0023918476,0.0025793776,0.0026818229,14
1659-Kentucky-Caldwell,37.148643,-87.87051,0.0020101018,0.0010163486,0.0027123851,0.0011789446,0.0018218082,0.001635745,0.0016564286,0.00072787,0.0016902956,0.0021383418,0.001654206,0.0017079332,0.0015899714,0.0021208018,0.0017430695,0.00132363,0.00194975,0.0009070823,0.0020316632,0.0013886145,0.0015005758,0.0017318448,0.0009099935,0.0020290209,0.0012275729,0.0007822681,0.0010601658,0.0012492876,0.0012918617,0.0011171519,0.0013861007,0.0011336572,0.0015965351,0.0017645733,0.0015480559,0.0011318794,0.001447455,0.0016212001,0.002167711,0.0010280151,0.0021797047,0.0014203143,0.0016903334,0.0021483932,0.0021682692,0.001359754,0.0018084052,0.0015695726,0.0020272349,0.0013879129,0.002028999,0.0011685356,0.001099933,0.0005518528,0.0011164092,0.0013903655,0.0017044916,0.0008552937,0.0013708232,0.0014532851,0.0014040893,19
1691-Virginia-Charlotte,37.014091,-78.661424,0.0057968612,0.0049000368,0.0063523445,0.0043190334,0.0051067356,0.0049883929,0.0049920656,0.0040855227,0.0053801226,0.0055303459,0.0050172512,0.0050139937,0.0052256478,0.0054972265,0.0049987475,0.004894198,0.005491458,0.0043193374,0.0056803761,0.004919026,0.0051032432,0.0053104193,0.0043511172,0.0056390532,0.0048282578,0.0044460154,0.0047949243,0.0046382043,0.0049608405,0.0045626145,0.0051783483,0.0046233608,0.0051957878,0.0052854283,0.0052090615,0.0049655669,0.0052327249,0.005024033,0.0056783155,0.004739896,0.0057220454,0.0051358915,0.0051347385,0.005627328,0.0056542623,0.0047949985,0.0051919491,0.0051936887,0.0053430696,0.0050698286,0.0054411267,0.0046581978,0.0049395986,0.0042907846,0.0043881501,0.0049623764,0.0051847828,0.0045686735,0.0050580401,0.0049755331,0.0050343168,15
1697-Kentucky-Ballard,37.05112,-89.009178,0.0054941905,0.0046080274,0.0063292352,0.0047611999,0.005590356,0.0053378663,0.0052530087,0.0044472598,0.0050383125,0.0055621253,0.005373144,0.0052887748,0.0049836402,0.0058486697,0.0054386834,0.0050668396,0.0054785368,0.0044474415,0.0055956635,0.0050009588,0.0052651737,0.0052589253,0.0044537342,0.0055883181,0.0047698172,0.0047952267,0.0047659612,0.0049532796,0.0050132916,0.0046338812,0.0051275944,0.0050165153,0.0052911179,0.005438794,0.0052484773,0.00472262,0.0051849019,0.0052927603,0.005998378,0.0046339045,0.0060454947,0.0051898885,0.0054496671,0.0058684918,0.0059009565,0.0050359358,0.0056279417,0.0052164039,0.0055142095,0.0047861533,0.0055317027,0.0047578786,0.0046025214,0.0040434722,0.0047567846,0.0050629965,0.0053121131,0.0041273281,0.0051013722,0.0049467431,0.0050466834,19
1707-Virginia-Radford,37.120036,-80.557048,0.0151428109,0.0143253924,0.0157551665,0.0137496961,0.0144423577,0.0142698533,0.0144883674,0.0133812267,0.0148147092,0.0149508767,0.0143787524,0.0144338813,0.0147227023,0.0149007255,0.0142736387,0.0142422333,0.0148368416,0.0136773663,0.014972503,0.0142309607,0.0144458354,0.0146447854,0.0137143728,0.0149323116,0.0141416072,0.0139277997,0.0143252111,0.0139355343,0.0142662212,0.0141422573,0.0146545508,0.0138519014,0.0145811721,0.0146801058,0.0146532402,0.0143802325,0.0146002197,0.0142972165,0.0149480893,0.0141134838,0.0152316941,0.0145560089,0.0144398191,0.0149676972,0.0150424673,0.0141372777,0.0146379532,0.0146672956,0.0148171435,0.0144519734,0.0148325928,0.0140208851,0.0142252167,0.0136917368,0.0139878235,0.0143962012,0.0145231737,0.0139763821,0.014316582,0.0144008534,0.0145231039,15
1835-North Carolina-Warren,36.397979,-78.099924,0.0029327814,0.0021033723,0.0034677737,0.0014143021,0.0022031327,0.0020643712,0.0021086722,0.0010854855,0.0025880194,0.0025727914,0.0019347618,0.0021340568,0.0023905647,0.0025863336,0.0019970351,0.0019720748,0.0025750081,0.0014825867,0.0027214099,0.0020307754,0.0021795543,0.0023895287,0.0015133725,0.0026731135,0.0019331898,0.0015617001,0.0019468914,0.0016744541,0.0020166115,0.0017817173,0.0023061096,0.0017242535,0.0023400469,0.0023521623,0.0023024141,0.0020014315,0.0023190665,0.0020545608,0.0027008906,0.0018142257,0.0028530342,0.0022861143,0.0021497424,0.0026945864,0.0028867526,0.0019274117,0.0023352214,0.0023612662,0.0025065906,0.0021626545,0.0023867655,0.0017259261,0.0019740036,0.0014172704,0.0016680432,0.0021189116,0.0022831834,0.0015734663,0.002171054,0.0020806652,0.0022999322,21
1868-California-Kings,36.072478,-119.81553,0.0071199199,0.0065521474,0.0079151027,0.0056009344,0.0058937822,0.0062147436,0.0061012021,0.0050316772,0.0066980077,0.0064553069,0.0068835137,0.0069275107,0.0070985308,0.0071360816,0.0051236119,0.0059363126,0.0063170901,0.0059664086,0.0063108958,0.0063947139,0.0063076984,0.006683741,0.005753619,0.0066113943,0.0065424892,0.0060711934,0.0062065401,0.0054467763,0.0061417415,0.0056321952,0.0068586356,0.0055332538,0.0068084868,0.0061157815,0.0060491527,0.0067469533,0.0067406422,0.0064865442,0.0069179125,0.0056820726,0.0072062083,0.00617661,0.0060688643,0.0069297249,0.0067441576,0.0060019373,0.0060377611,0.0069213182,0.0069328384,0.0048443541,0.0065029457,0.0060498378,0.0065374281,0.0059409468,0.0056909185,0.0067079639,0.0057540361,0.0055270879,0.0063628451,0.0066044784,0.0068060478,14
1900-Oklahoma-Payne,36.079225,-96.975255,0.0021667291,0.001283398,0.0026144578,0.0009210178,0.0014055044,0.0015788214,0.0015644332,0.0007578567,0.0013308604,0.0019480667,0.0007246412,0.0012882,0.0014324455,0.001841929,0.0012726317,0.001232339,0.0018582627,0.0008192062,0.0018581969,0.0011851007,0.0014064052,0.0016585592,0.0008428029,0.0018492154,0.0010706248,0.0003790691,0.0011754033,0.0011063567,0.0012659531,0.0012902285,0.0015548898,0.0008726128,0.0014029353,0.0014769424,0.0016005672,0.0012144223,0.0013002797,0.0007928323,0.0018896382,0.0009562921,0.0020617853,0.0014247572,0.0012641868,0.0015524281,0.0018583017,0.0010641734,0.0013500266,0.0016369337,0.0016344041,0.0011667288,0.0014549737,0.0007891732,0.001249132,0.000633544,0.001076307,0.0012369378,0.0016221101,0.0011168058,0.0006032673,0.0010877641,0.0013950575,22
1939-Texas-Hemphill,35.816237,-100.284807,0.0027564952,0.0016885954,0.0033557428,0.0016508328,0.0022726714,0.0021014364,0.0022184056,0.0013744015,0.0023568339,0.0025156403,0.0018416577,0.0019022796,0.0023684049,0.0026138744,0.0019832206,0.0019347919,0.0024128122,0.0015706095,0.002536715,0.0018822157,0.0021305319,0.0022288584,0.001611426,0.0025007224,0.0018335707,0.0016299322,0.0020188764,0.0017059047,0.0017708646,0.0018805247,0.0022746442,0.0016475114,0.0022370881,0.0022318847,0.0024383508,0.0021732266,0.002120141,0.0018910243,0.0026118871,0.001742215,0.002919458,0.0023037389,0.0019690947,0.0026841144,0.0028400044,0.001949629,0.0021891009,0.0022178962,0.0022196011,0.0021198328,0.002470891,0.0013598407,0.0018890917,0.0013476283,0.0017842065,0.0019743919,0.0022154319,0.0016895123,0.0018617162,0.0020107636,0.0022735947,23
2039-North Carolina-Moore,35.310163,-79.480664,0.0039329794,0.0031566227,0.0045950014,0.0024407945,0.0032251406,0.0030933122,0.0032427746,0.0021865304,0.0035094486,0.0037573042,0.0030274544,0.0032488143,0.0035401815,0.0037002771,0.003002605,0.0028868823,0.0035717652,0.0025369213,0.0037960565,0.0030887346,0.0030939693,0.0033810101,0.0025733733,0.0037538979,0.0030099341,0.0026692928,0.0030790345,0.0027308296,0.0031253574,0.002961445,0.0034005331,0.0026966292,0.0034098445,0.0034245909,0.0034065637,0.003090827,0.0033930591,0.0031031574,0.0038619961,0.0028633966,0.0039692515,0.0033375903,0.0032111446,0.0038139094,0.003957883,0.0028850108,0.0034163724,0.0034896157,0.0035644452,0.0032218284,0.0035230689,0.002897923,0.0030755857,0.0025690579,0.0027731342,0.003297971,0.003358169,0.002714658,0.0032148399,0.0031789396,0.0034304457,21
2050-Oklahoma-Haskell,35.232294,-95.109578,0.0024595065,0.0014732864,0.0029800232,0.0011470897,0.0016190244,0.0017163587,0.0018480184,0.0009117927,0.001869608,0.0021061575,0.0014694457,0.0015671805,0.0018321336,0.0022620272,0.0018027674,0.0014896748,0.0021205393,0.0011049126,0.0021020932,0.0012649038,0.0016870469,0.0019253964,0.0011260448,0.0020781153,0.0011699177,0.0009297285,0.0015602092,0.0011745819,0.0016557576,0.0015260034,0.0019131865,0.0012336008,0.0016615736,0.0018816413,0.0020128894,0.0013928048,0.0017237661,0.0014311466,0.0021199405,0.0013221107,0.0024365138,0.0014782149,0.0015597671,0.0019082438,0.0022814951,0.0013075667,0.0019650676,0.0017089913,0.0019438804,0.0016605838,0.0019649119,0.0010872583,0.0014333698,0.0009833341,0.001434988,0.0014821773,0.0020432639,0.0012051757,0.0014807001,0.0014367349,0.0016931196,22
2065-Tennessee-Moore,35.288889,-86.358684,0.0032221808,0.0024732615,0.0039087729,0.0020759156,0.0026965538,0.0025786571,0.0025933745,0.0015811687,0.0030140834,0.0032297881,0.0026065879,0.002690744,0.002772337,0.0032137432,0.0024835435,0.0023254508,0.0031696155,0.0020225752,0.0030548728,0.002575917,0.0025372452,0.0029828847,0.0020582378,0.0030283098,0.0023110775,0.0021120487,0.0023816859,0.0022503911,0.0024884096,0.0023355292,0.0027764623,0.0022169658,0.0028702417,0.0029340971,0.002777378,0.0025367759,0.0030405301,0.0025106088,0.0034755151,0.0022728489,0.0032489211,0.0025421799,0.0024817763,0.0032869922,0.0032482005,0.0022872089,0.0028018288,0.0027843638,0.0028810692,0.0024582903,0.0032025349,0.0020828989,0.0022890871,0.0018899718,0.0021364071,0.0024240389,0.0028340942,0.0023980266,0.0028501583,0.002641999,0.0027005876,24
2119-South Carolina-Lancaster,34.686818,-80.703689,0.0065546107,0.0057593825,0.0071674221,0.0050053925,0.0058024128,0.0056896309,0.0058050553,0.0048627455,0.0061234012,0.0062790458,0.0055404606,0.0057483784,0.006077791,0.0062479442,0.0055363953,0.005420644,0.0061450496,0.0050790526,0.0062579573,0.0055696865,0.0056269939,0.0059541829,0.0051135834,0.0062163238,0.0055012637,0.0052012287,0.0056131853,0.005246732,0.0056563028,0.0054893539,0.0059402163,0.0052326467,0.0059425019,0.0059907996,0.0059735749,0.005738559,0.0059644277,0.0056596817,0.0063887036,0.0054299795,0.006510492,0.0058548194,0.0056863652,0.006313836,0.006552528,0.0054656504,0.006045582,0.0061170583,0.0060495776,0.0057605358,0.0062524771,0.0054529011,0.0056617516,0.0051354683,0.0053968368,0.0058497251,0.0058599625,0.0053222687,0.0057791351,0.0057747478,0.0059821736,25
2151-South Carolina-Union,34.690514,-81.615831,0.0025369131,0.0017340967,0.0031255706,0.0010361753,0.0017190112,0.0016700722,0.0017915398,0.0007831905,0.0020864356,0.0022808492,0.001533358,0.0016834311,0.0019917254,0.002190692,0.0014813946,0.0013737796,0.0020615275,0.000973985,0.0021931477,0.0015218771,0.001581578,0.001868708,0.001010765,0.0021509952,0.0014415338,0.0011529851,0.0016085186,0.0011517176,0.0016520738,0.0014708151,0.0019376331,0.0011595291,0.0019161959,0.0019506986,0.0018623396,0.0016754002,0.0019119976,0.0015943076,0.0023511746,0.00140476,0.0025041423,0.0018133312,0.001678336,0.0022582812,0.0025445535,0.0014064368,0.0019508451,0.0020200669,0.0020835524,0.0017222392,0.002185795,0.0014006495,0.0015592189,0.0010452836,0.0013292143,0.0018226062,0.0017944621,0.0013341751,0.0017529743,0.0017524477,0.0018933552,25
2239-South Carolina-Lee,34.15864,-80.251209,0.0045868045,0.0038789382,0.005347317,0.0029737724,0.0039757722,0.0039488435,0.0039931989,0.0029800095,0.0041295966,0.0041652953,0.0031841206,0.003809889,0.0038683273,0.0042136135,0.0035084511,0.0032616201,0.0039509725,0.0030803863,0.0044222837,0.0034936062,0.0034717304,0.0037983397,0.0031159754,0.0043667381,0.0034752302,0.0032020057,0.0034960053,0.0032032017,0.003761478,0.003515939,0.0038759134,0.0034429442,0.0040032038,0.003921497,0.0039816214,0.0037246287,0.0040432625,0.0037651803,0.004410857,0.0036126577,0.0044752855,0.0038420317,0.0035845119,0.0041739862,0.0046698949,0.0031347484,0.00404783,0.0040780839,0.0037934896,0.0038067966,0.0042311311,0.0036427747,0.0038979613,0.0032122247,0.0032829083,0.0037976909,0.0038533471,0.0034047543,0.003775617,0.0036795903,0.0039058207,25
2372-Georgia-Fayette,33.412717,-84.493941,0.0046485042,0.0037971078,0.0051905473,0.0031365623,0.0037845335,0.0037542832,0.0038807549,0.0028232048,0.0041554907,0.0043847844,0.0037035007,0.0038174512,0.00406742,0.004284613,0.0035243688,0.0034678684,0.0041798334,0.0030432752,0.0043303092,0.0036189434,0.0036748326,0.0039868078,0.0030813194,0.0042931445,0.0035255701,0.003249837,0.0036379413,0.0032720068,0.0037093303,0.0035703678,0.0040381083,0.0032419668,0.0040029858,0.004064856,0.0039660822,0.0037727592,0.0040460568,0.0037182207,0.0044652096,0.0034925163,0.0045829897,0.0039483523,0.0037412747,0.0043726463,0.0046045101,0.0033919059,0.0040660332,0.0041174166,0.0041289248,0.0038474439,0.0042927708,0.0034385163,0.0036396961,0.0031546436,0.0034289885,0.0038671939,0.003846192,0.0034546653,0.0037730736,0.0037931199,0.0039074848,26
2380-Georgia-Coweta,33.352897,-84.762138,0.0094793487,0.0086396262,0.0100017023,0.0079634963,0.00861861,0.0086036076,0.0087565698,0.0076341735,0.0089827016,0.0092166655,0.0085398461,0.0086328004,0.0088633253,0.0091039286,0.008355043,0.0082878817,0.0089779896,0.0078762986,0.0091254782,0.0084300115,0.0084939249,0.0087858053,0.0079140585,0.0090899096,0.0083332397,0.0080947964,0.0084288497,0.0081061647,0.0085463719,0.0084053241,0.0088785716,0.0080824499,0.0088487669,0.0088472132,0.0087755107,0.0086049852,0.008894177,0.0085663438,0.009272183,0.0083201917,0.0093294475,0.0088030413,0.0085350385,0.0091520307,0.0094274923,0.0082070027,0.0089093538,0.008908175,0.0089434061,0.008671225,0.0091546586,0.0083177599,0.008486,0.007961909,0.0082481625,0.0087227752,0.0086521005,0.0083340581,0.0086387358,0.0086317394,0.0086999658,26
2396-California-Imperial,33.040816,-115.355395,0.0048760441,0.0039766278,0.0050559952,0.0033581278,0.0039893878,0.0038238584,0.0036244397,0.0031282103,0.0042508415,0.0044497678,0.0039876311,0.0041549851,0.0042990059,0.0046408851,0.0034309811,0.0036226688,0.0040305304,0.0030758051,0.0039630923,0.0035705482,0.0039125024,0.003957487,0.0029347325,0.0041841858,0.0036324279,0.0035563828,0.0035769425,0.0029007884,0.0032119463,0.0037167552,0.0038371192,0.0031510757,0.0041717612,0.0037648399,0.0036376227,0.0035588947,0.0041495776,0.0038685555,0.0046185361,0.0034449898,0.0050143564,0.0039530486,0.0036137366,0.0044031417,0.0048009821,0.003773835,0.0042665755,0.004449667,0.0042413166,0.0036155472,0.0040185576,0.0036360969,0.0039857163,0.0035415628,0.0034585121,0.0040320207,0.0037627718,0.0035510826,0.0039650564,0.0039767453,0.0043592921,14
2556-Louisiana-Franklin,32.138279,-91.672101,0.0023806459,0.0015164145,0.0033230821,0.0014564985,0.0017518983,0.0018330774,0.0016353743,0.0009729453,0.0021038861,0.0022455331,0.0015638266,0.0019940109,0.0017174742,0.0026168396,0.0019514086,0.0015728812,0.0023065474,0.0010766416,0.0022389582,0.00129705,0.0017823627,0.0020759595,0.0010982351,0.0022179616,0.0008629626,0.0009187705,0.001259961,0.0014122951,0.0019026476,0.0014719399,0.0018314681,0.001267271,0.0023250129,0.0012736146,0.001484877,0.0015429273,0.002070746,0.0015462972,0.0024163714,0.0012427636,0.002269139,0.0017687781,0.0010775782,0.0023345386,0.0024260486,0.0014568655,0.0019764012,0.0018483328,0.0017279485,0.0015851692,0.0024315546,0.0012450978,0.0013142568,0.0009371936,0.0013737078,0.0013117929,0.0020318268,0.0012033782,0.0016411797,0.0014318258,0.001676564,27
2829-Texas-Austin,29.891901,-96.27017,0.0039333671,0.0033256592,0.0047843312,0.0026041372,0.0032493704,0.0033998491,0.0035089097,0.0027067604,0.0033807163,0.0038934058,0.0030025899,0.0028956091,0.0034281444,0.0038672807,0.0033685458,0.0030821949,0.0035716211,0.0026737903,0.0039330344,0.0026983644,0.0032993283,0.0033737254,0.0027391972,0.0038707489,0.0025885378,0.0026593535,0.0031470841,0.0025996164,0.0032696049,0.003066668,0.0033076259,0.002957451,0.0033014652,0.00353607,0.003459981,0.0032452856,0.0034708107,0.0030325979,0.0037689623,0.00309834,0.0042089366,0.0034419464,0.0027878152,0.0036720351,0.0039040522,0.0028782542,0.0036519605,0.0036379056,0.0033846274,0.0031583758,0.0039325335,0.0027382158,0.0029004516,0.0023095027,0.0030025214,0.0029601035,0.0036093272,0.0028046308,0.0028230018,0.0034837286,0.0034252327,23
2876-Texas-Maverick,28.745217,-100.311368,0.0029153566,0.0021419452,0.003655549,0.0017145728,0.0023030527,0.0020750653,0.0022379942,0.0014263898,0.0022523037,0.0024839119,0.0020439916,0.0020764579,0.0026807856,0.0028204496,0.0020429175,0.0018925838,0.0025372825,0.0014454255,0.0026425826,0.0019990718,0.00209912,0.0023433658,0.0014837789,0.0026017537,0.0019228441,0.0016531591,0.0020220606,0.0013438683,0.0022794563,0.0018607221,0.0024643565,0.0016327061,0.0022084388,0.0024674107,0.0025152173,0.0022104835,0.0023514472,0.0019018312,0.0026514995,0.0019061158,0.0031247645,0.0021652792,0.001977927,0.002764621,0.0030387152,0.0019726768,0.0024938239,0.0026055952,0.0025308722,0.0022636161,0.0025340145,0.001803315,0.0020875121,0.0014787294,0.0017484034,0.0018843163,0.0024436121,0.0018651044,0.001781797,0.0022901627,0.0024695222,23
2889-Texas-Refugio,28.312496,-97.160479,0.0037931113,0.0033285587,0.0044506669,0.0023616041,0.0031415818,0.0031283202,0.0032287667,0.002312856,0.0030729025,0.0034720177,0.0028238794,0.0024775141,0.0035155792,0.0036204883,0.0030335898,0.0028662326,0.0034129508,0.0022464772,0.003212598,0.0025603098,0.0030836055,0.0032116808,0.0022945005,0.0031745456,0.0025145366,0.0023424031,0.0029657849,0.0021428141,0.0029279219,0.0026281646,0.0030479455,0.0024441456,0.0026501029,0.0035414567,0.0029556546,0.0031447699,0.0031859603,0.002713478,0.0036305463,0.002878959,0.0040810676,0.0030782608,0.0025748544,0.003358856,0.0036151389,0.0026374698,0.0033330794,0.0035352763,0.0029777164,0.0028976357,0.0035228874,0.0025274362,0.0028095298,0.0020012936,0.0025328481,0.0028200735,0.0032104592,0.002386338,0.0024737076,0.0032664537,0.0031366565,23
2895-Florida-Pinellas,27.903122,-82.739518,0.006710145,0.0057703191,0.0072387998,0.0052282932,0.0058039432,0.0057050276,0.0059324236,0.0050166947,0.0061258763,0.0063961235,0.0056634612,0.0057800917,0.0062902385,0.0062962304,0.0056581594,0.0057024782,0.0062873008,0.0051961642,0.0065127979,0.0056882759,0.0059078406,0.0060935911,0.0052335454,0.0064731527,0.005664141,0.0053487647,0.0058431904,0.0054326407,0.0058967322,0.005693033,0.0061025512,0.0053767363,0.0061155083,0.0060838974,0.0060706547,0.0059436815,0.0060682136,0.0057923528,0.0064270579,0.0054601005,0.0068251171,0.0060944772,0.005853453,0.0065366288,0.0067023217,0.0056952502,0.0060836502,0.006303136,0.0060714027,0.0059911695,0.006350943,0.0055234337,0.0056538993,0.0051867474,0.0055597535,0.0059176525,0.0060178265,0.0055335772,0.0058083335,0.0059086381,0.0060869091,28
2907-Texas-Kleberg,27.438735,-97.66062,0.001991639,0.001404225,0.0026354451,0.0007973627,0.0013391576,0.0012107979,0.0013655406,0.0004258139,0.0013312798,0.0015742126,0.0012778686,0.0008820337,0.0017594296,0.0018888768,0.0012002407,0.0011959177,0.00157675,0.0003996608,0.0013932574,0.0009507736,0.0014107518,0.0013731436,0.0004565126,0.0013368946,0.0008935976,0.0007742399,0.0010713934,0.0002340501,0.0012703003,0.0008564765,0.0013707436,0.0004834358,0.0010293186,0.0016751892,0.0013215647,0.0012693313,0.0011693991,0.0009983132,0.0018009969,0.0010216192,0.0022673578,0.0015525403,0.0008119385,0.0017354366,0.0016615445,0.0008943819,0.0013743609,0.0017227241,0.0011856892,0.0012649216,0.0014397898,0.0009275357,0.0009708282,0.0004023324,0.0007321051,0.0010075351,0.0014383808,0.0004946851,0.0007372577,0.0011868959,0.0014159938,23
2925-Texas-Cameron,26.102923,-97.478958,0.0037392592,0.002953947,0.0041990628,0.0022992173,0.0030905027,0.0026668937,0.0028329758,0.002174568,0.0029605456,0.0029301019,0.0029288435,0.0025539769,0.0031172391,0.0036141675,0.0024236555,0.0028633578,0.0032075034,0.0018666571,0.0025115301,0.0025036946,0.0030961532,0.0030175664,0.0019445279,0.0024721962,0.0024353,0.0022816907,0.0024603759,0.0012900739,0.0026303656,0.0024677519,0.0028248101,0.0023389908,0.0026613484,0.0030332528,0.0027025606,0.0023766412,0.0028278884,0.0022875115,0.0029128878,0.002588089,0.0038236579,0.0031506979,0.0021317253,0.0030807649,0.0032731006,0.0025653903,0.0027871366,0.0032044471,0.0026850011,0.0027597218,0.0032398651,0.0026090124,0.0027818292,0.0017622861,0.0020811614,0.0025459881,0.0032196808,0.0023493184,0.0022857033,0.0021591619,0.002925894,23
2972-Michigan-Benzie,44.648621,-86.494317,0.0036702629,0.0027926619,0.0041517039,0.0021442107,0.0028934943,0.0026384801,0.0029839193,0.0018652476,0.0033320818,0.0033858868,0.0027572232,0.0027932505,0.0031040026,0.0034137697,0.0026835268,0.0026028098,0.0031689948,0.0021132923,0.0033369826,0.0026720688,0.0028034554,0.0029769379,0.0021518052,0.0032990505,0.0025763495,0.0023153203,0.0026959575,0.0024148842,0.0027344238,0.0025489284,0.003081485,0.0023042417,0.0030275659,0.0030909144,0.0029956512,0.002681412,0.0029121637,0.0026435385,0.0033741553,0.0024418513,0.0037546401,0.0029054355,0.0027115646,0.0034134905,0.0034797492,0.002543855,0.0030199377,0.0030284533,0.0033164726,0.0028235929,0.0032590456,0.0023891994,0.0024998165,0.0022242758,0.0024981626,0.0027988724,0.0029663022,0.0024179168,0.0027623384,0.0026990577,0.0030977291,29
3008-Michigan-Tuscola,43.487902,-83.436618,0.0022170052,0.0011340498,0.0026872123,0.0008988805,0.0013635413,0.0012890385,0.0018101732,0.0004852594,0.001820751,0.0022348055,0.0011133789,0.0017443575,0.001648601,0.0022029747,0.0016632342,0.0014752242,0.0020911399,0.0009685316,0.001707948,0.0014145081,0.0015721288,0.00187327,0.0010157973,0.001656309,0.0011376469,0.0009298906,0.0011641761,0.0010988678,0.0012975364,0.0014478049,0.0019023291,0.0006813267,0.0012702928,0.0016423376,0.0014769622,0.0008701528,0.0012831548,0.0007603094,0.0020627846,0.0012231471,0.0022027348,0.0012073721,0.0010977586,0.0015556174,0.0021156567,0.000817536,0.0016647961,0.0010350901,0.0016485442,0.0015910645,0.0018893733,0.0005827177,0.0011207984,0.0008500001,0.000973367,0.0010430219,0.0012796828,0.0006818586,0.0010888766,0.0008219542,0.0014372353,29
3033-Wisconsin-Waukesha,43.019308,-88.306707,0.0027670073,0.0017037135,0.00305477,0.001071089,0.0019956375,0.001477343,0.0019953671,0.0009157742,0.0023441996,0.0025150594,0.0017236247,0.0017210208,0.0020952405,0.0025795429,0.0018851569,0.001666147,0.0020653185,0.0012393356,0.0024767985,0.0016058461,0.0018460912,0.0018812232,0.0012775352,0.0024362017,0.0014309403,0.0012723006,0.0017616014,0.0015461675,0.0017066043,0.0014402718,0.0020809807,0.0012311211,0.001967594,0.0020528996,0.0020344358,0.0016155139,0.0019256447,0.0016274368,0.0022717005,0.0016614805,0.0027473371,0.0018307229,0.0017092794,0.0024358282,0.0023747202,0.0017093503,0.002044264,0.0021004896,0.0022001154,0.0017416366,0.0021341735,0.0010739774,0.0015187929,0.0012252896,0.0015922594,0.0016821655,0.0020897487,0.001263594,0.0015673937,0.0015616887,0.0019397049,30
3035-New York-Madison,42.910026,-75.663575,0.0021863433,0.0011854442,0.0027161825,0.0008006403,0.0014888439,0.0012417165,0.0014725393,0.0004204675,0.0018200599,0.0018004052,0.0013179301,0.0014997732,0.0017533605,0.0020285729,0.0012935308,0.001351433,0.0018697217,0.000733009,0.0019392124,0.0010441469,0.0015427693,0.0016759711,0.0007670472,0.0018936265,0.0009633694,0.0007577159,0.0011677669,0.0007040721,0.0010066381,0.0011679083,0.0017998676,0.0009281793,0.0015101567,0.0017840522,0.0015406096,0.0012451834,0.0015688937,0.0012241663,0.0020936277,0.0011862778,0.0022131916,0.0013209241,0.0014365151,0.0018167565,0.0020224585,0.0010697822,0.001707447,0.0015068569,0.0017207241,0.0014485593,0.0018390844,0.0007536673,0.0011138349,0.0004873031,0.0007836813,0.0011258766,0.0013054819,0.0005392224,0.0009884054,0.0011705367,0.0014812986,10
3070-Illinois-Boone,42.318983,-88.824295,0.0048675685,0.0034378448,0.0047692126,0.0027969727,0.0042038297,0.0032440665,0.0043599956,0.0031995664,0.0043046409,0.004704373,0.0031961209,0.0037810333,0.0037867104,0.0048881752,0.0040024839,0.0034332196,0.0038925937,0.0034264986,0.004301523,0.0035366533,0.0035119053,0.003691717,0.0034987266,0.004297483,0.0032362894,0.0032305227,0.0036944463,0.0040151623,0.003799504,0.0031261943,0.0039247765,0.0031094527,0.003988741,0.0036069465,0.004025825,0.0037068367,0.0037105033,0.0037446534,0.0040545955,0.0042281061,0.0049872239,0.0034174196,0.0037710844,0.0042555471,0.0039132912,0.0037177167,0.0041267467,0.0037339521,0.0044790172,0.0033397929,0.0039403768,0.0027010134,0.0033701286,0.0033099391,0.0036149659,0.0034429416,0.004368874,0.002880421,0.003143881,0.0030286614,0.0033796781,9
3071-Illinois-Lake,42.326444,-87.436118,0.0039822325,0.0030584342,0.0043898577,0.0025181287,0.0032805102,0.0028544053,0.0032890615,0.0022527002,0.0035381416,0.0038209004,0.0029857651,0.0031942741,0.0034483279,0.003835216,0.0030819682,0.002873232,0.003457319,0.0024133245,0.0036892777,0.0030117377,0.003060675,0.0032553423,0.0024538714,0.0036474115,0.0028331064,0.0025880041,0.003054348,0.0027958527,0.003120323,0.0028045115,0.0033470411,0.0025662217,0.0033157261,0.0033510119,0.003239632,0.0030630476,0.0032383047,0.0029647614,0.0035976366,0.0029325916,0.0041275983,0.0031604626,0.0031040759,0.0037609565,0.0037392105,0.0030124065,0.0034070881,0.0034146461,0.0035864067,0.0031340292,0.0035588069,0.0025601664,0.0028716229,0.0026016158,0.0028578334,0.0031137467,0.0034201335,0.0026277516,0.0028610993,0.002920247,0.0032607164,9
3081-Pennsylvania-Erie,42.117952,-80.096386,0.0030954981,0.0020629569,0.0036234375,0.0017142636,0.0024148855,0.0020602184,0.0024070603,0.0011739914,0.0027754732,0.002744387,0.0022178734,0.00247094,0.0026733213,0.0029322828,0.0022722848,0.0020177229,0.0027628949,0.0015829171,0.0027647066,0.0022166093,0.0022072257,0.0025732354,0.0016116945,0.0027085968,0.002079136,0.0016965198,0.0021395687,0.0018646339,0.0019382222,0.0021483685,0.002473837,0.0016273842,0.0024157237,0.0026140857,0.0024606478,0.0022303389,0.002372913,0.0021351787,0.002787786,0.0019759163,0.0030924205,0.0022192836,0.0024736178,0.0027989534,0.0030464649,0.0020176731,0.0026592795,0.0024023152,0.0026696845,0.0024682511,0.0027588132,0.0018134705,0.0021359035,0.001580359,0.0018866172,0.0021480896,0.0024525433,0.0017403792,0.0021516408,0.0021816346,0.0025532895,31
3084-Illinois-Carroll,42.059084,-89.926485,0.0021141374,0.0008430348,0.0017884958,0.0004338797,0.0015080212,0.0007732759,0.001398083,0.0002831447,0.0014854322,0.0017085846,0.0004967102,0.0010559833,0.0008017486,0.0019455376,0.0014144063,0.0008227896,0.0009324191,0.0007541183,0.0015311749,0.0009093051,0.0009527062,0.0007224503,0.0007625825,0.001502392,0.0005757642,0.0003071298,0.0015103547,0.0013198916,0.0009998245,0.0009045398,0.0012135007,0.0005600529,0.0007331916,0.0008999677,0.001130707,0.0008631794,0.001011229,0.0008639719,0.0016900787,0.0017503626,0.0023768131,0.000659343,0.0011900144,0.001523061,0.0009630038,0.000901458,0.0012274863,0.0011424618,0.0016610149,0.0005040117,0.0015763339,0.0001170251,0.0007516585,0.0004685679,0.0009152484,0.0009737673,0.0018435472,0.0005276494,0.0006999286,0.0005024497,0.0004829968,9
3087-Illinois-De Kalb,41.894613,-88.768991,0.0048656739,0.0038623044,0.0047978243,0.0033449838,0.0044463644,0.0033920495,0.0043390596,0.003419263,0.0042980457,0.0045120712,0.0034922194,0.0038856374,0.0039380599,0.0052179179,0.0040754488,0.0036012465,0.0039665578,0.0034424714,0.0046032419,0.0039700297,0.0036442601,0.0037342906,0.0034645776,0.0045782677,0.0035819739,0.0032367293,0.0039789538,0.0041874218,0.0037670943,0.0031307158,0.004039778,0.0031533187,0.0040269283,0.0036753246,0.0037348844,0.0039997506,0.0040622519,0.0039863626,0.0039460036,0.0043763997,0.0048894248,0.0034960243,0.0041165338,0.0045322741,0.003951006,0.0037835761,0.0041460174,0.0035417609,0.0047198546,0.0034667748,0.0041658164,0.0030956546,0.0037447308,0.0035720193,0.0038420007,0.0036913909,0.0048548516,0.0033338218,0.0032708443,0.0031430772,0.0034626349,9
MIN,0,0,0,0,0,0,0,0,0,0,0,0,0,0,0,0,0,0,0,0,0,0,0,0,0,0,0,0,0,0,0,0,0,0,0,0,0,0,0,0,0,0,0,0,0,0,0,0,0,0,0,0,0,0,0,0,0,0,0,0,0,0,0,0
MAX,0,0,0.0198733272,0.0198733272,0.0198733272,0.0198733272,0.0198733272,0.0198733272,0.0198733272,0.0198733272,0.0198733272,0.0198733272,0.0198733272,0.0198733272,0.0198733272,0.0198733272,0.0198733272,0.0198733272,0.0198733272,0.0198733272,0.0198733272,0.0198733272,0.0198733272,0.0198733272,0.0198733272,0.0198733272,0.0198733272,0.0198733272,0.0198733272,0.0198733272,0.0198733272,0.0198733272,0.0198733272,0.0198733272,0.0198733272,0.0198733272,0.0198733272,0.0198733272,0.0198733272,0.0198733272,0.0198733272,0.0198733272,0.0198733272,0.0198733272,0.0198733272,0.0198733272,0.0198733272,0.0198733272,0.0198733272,0.0198733272,0.0198733272,0.0198733272,0.0198733272,0.0198733272,0.0198733272,0.0198733272,0.0198733272,0.0198733272,0.0198733272,0.0198733272,0.0198733272,0.0198733272,0.0198733272,0
