1949,1950,1951,1952,1953,1954,1955,1956,1957,1958,1959,1960,1961,1962,1963,1964,1965,1966,1967,1968,1969,1970,1971,1972,1973,1974,1975,1976,1977,1978,1979,1980,1981,1982,1983,1984,1985,1986,1987,1988,1989,1990,1991,1992,1993,1994,1995,1996,1997,1998,1999,2000,2001,2002,2003,2004,2005,2006,2007,2008,2009
0.0336381,0.0357547,0.0372723,0.0419646,0.0409463,0.0459885,0.0384989,0.0389694,0.0388245,0.0374882,0.0372574,0.0406297,0.0336945,0.041578,0.037858,0.0370765,0.0385743,0.0393012,0.0335629,0.0392646,0.0370437,0.0386548,0.0391222,0.033827,0.0366483,0.0363253,0.0314751,0.0372312,0.0402233,0.0385775,0.0351176,0.0414564,0.0379817,0.0349638,0.0360315,0.0376981,0.0388825,0.0392666,0.042165,0.0412704,0.0307262,0.0395332,0.033618,0.0339778,0.0391709,0.0324199,0.0367831,0.0349153,0.0327338,0.0380796,0.0397481,0.0431545,0.0333797,0.0349172,0.032796,0.0316247,0.0362292,0.04517,0.0470639,0.039138,0.0338211
0.0530561,0.0506151,0.045747,0.0516674,0.0529633,0.0483495,0.0431299,0.0578992,0.0478891,0.0457287,0.0475273,0.0549675,0.0487859,0.0578185,0.0508554,0.0490939,0.0487429,0.0527229,0.0425548,0.0512632,0.0502393,0.0506053,0.050612,0.0445438,0.0523569,0.0535035,0.0524365,0.0484199,0.0487583,0.054968,0.0486136,0.0543851,0.0511957,0.0451677,0.0465102,0.0354267,0.0537532,0.0492876,0.0524714,0.0455444,0.0543189,0.0416535,0.0523298,0.0433758,0.0546485,0.0499742,0.055433,0.0549364,0.0520334,0.0461074,0.0444779,0.0533279,0.0523089,0.0592851,0.052438,0.0545065,0.0508624,0.0480943,0.0511539,0.046852,0.0539774
0.0997592,0.0912703,0.1039766,0.148364,0.134325,0.1544938,0.1084361,0.1283803,0.081399,0.0913977,0.1094764,0.1082536,0.1003709,0.1195359,0.1218902,0.1244205,0.1176814,0.1141414,0.0932247,0.1091317,0.1269637,0.1172083,0.1106154,0.1036349,0.1085978,0.0944688,0.0987261,0.112915,0.1234519,0.1171545,0.0899482,0.1474693,0.0998945,0.0993391,0.1218352,0.1090607,0.1161147,0.1142902,0.1211511,0.1308096,0.0860896,0.1115272,0.1048326,0.088551,0.1091504,0.0917461,0.1111142,0.1001493,0.1001008,0.1166689,0.1189539,0.1154788,0.1161849,0.1037495,0.0929909,0.0878018,0.1262164,0.1185092,0.1173679,0.1047555,0.0734424
0.3818118,0.3808809,0.371927,0.3670195,0.3511635,0.3685213,0.3580911,0.3662352,0.355409,0.3610425,0.3979829,0.3886769,0.3797507,0.3871167,0.3343945,0.3667819,0.3483702,0.389158,0.3429827,0.3803118,0.3724872,0.3635634,0.3716671,0.3531235,0.3844588,0.3695052,0.366246,0.3657511,0.3555513,0.355319,0.3690815,0.3606665,0.3816659,0.3432446,0.3353317,0.3819839,0.3810304,0.3801119,0.382921,0.3661315,0.3756373,0.3700329,0.3577651,0.3695564,0.356584,0.3646743,0.3393071,0.3619241,0.3758179,0.3109294,0.3613257,0.3694586,0.3888887,0.3823172,0.3525542,0.3822851,0.3437601,0.3634153,0.3822964,0.394002,0.3768354
0.1151688,0.1541335,0.118805,0.1618849,0.1486692,0.1711903,0.149827,0.1696313,0.1146838,0.1233639,0.1472061,0.1538718,0.1264591,0.1331409,0.1658689,0.1584274,0.1111868,0.1603863,0.1065262,0.1485368,0.1522136,0.1142017,0.1544554,0.1099525,0.1447098,0.1691255,0.1310393,0.1526775,0.142078,0.1486226,0.1243302,0.1557599,0.1298927,0.115066,0.1182053,0.1398959,0.1422058,0.1382693,0.1263618,0.1352783,0.1404986,0.1375932,0.1251184,0.1280589,0.132907,0.152948,0.1046519,0.1264783,0.1277575,0.1377116,0.1220134,0.1667905,0.1385054,0.1894589,0.1423122,0.13376,0.1371578,0.159112,0.1340832,0.1533471,0.1133138
0.0406444,0.0328735,0.0299419,0.0307812,0.0336685,0.0290309,0.0283318,0.03625,0.038282,0.0296775,0.0296418,0.0318656,0.0329654,0.037258,0.0359297,0.0407429,0.0434078,0.042108,0.0337526,0.0326863,0.0404466,0.0426788,0.0419068,0.0335483,0.0328342,0.0311742,0.0274974,0.0350185,0.0270061,0.0301122,0.0363091,0.0368033,0.0349113,0.0318825,0.0274653,0.0356471,0.0301212,0.0338081,0.0346906,0.0388861,0.023847,0.0274739,0.0333265,0.0287899,0.0316474,0.0303946,0.0368669,0.0259504,0.0331805,0.0311963,0.0389487,0.0307817,0.0398931,0.0291691,0.0269181,0.0276604,0.0298378,0.0270655,0.0326528,0.0266742,0.0271633
0.4055244,0.3679138,0.3540802,0.3464918,0.3650684,0.410736,0.3744524,0.3535818,0.4138072,0.3362124,0.3730224,0.3644805,0.3676627,0.409118,0.4020897,0.4368347,0.4120842,0.4096923,0.3496218,0.39781,0.4246504,0.4047625,0.3977903,0.3413124,0.3895914,0.361499,0.3229033,0.4062209,0.3892549,0.3369462,0.3429709,0.3995817,0.3801399,0.3739573,0.3482952,0.3598056,0.3694226,0.4058064,0.4083356,0.3871966,0.3036054,0.3465843,0.3828434,0.3607954,0.3711491,0.3653359,0.3838895,0.2987529,0.3857908,0.387584,0.3864526,0.3247922,0.3545646,0.3877992,0.2943629,0.3236679,0.3470439,0.3335363,0.3961356,0.3826985,0.3203408
4.9520569,4.9282241,4.9351881,4.9139291,4.9356448,4.9612334,4.9322472,4.948627,4.9521731,4.9332447,4.9429167,4.9399578,4.9415746,4.9608685,4.9362777,4.9674537,4.9596181,4.9542,4.9420876,4.9390753,4.9674537,4.9596181,4.9542,4.9413612,4.9448333,4.9442531,4.9039498,4.9473524,4.9340824,4.9280498,4.9300502,4.9587459,4.9553643,4.9538386,4.9103871,4.9427808,4.9507239,4.9493101,4.9488643,4.9551867,4.9203879,4.933761,4.9543603,4.940505,4.919602,4.9463504,4.9344936,4.9173351,4.9327634,4.9519957,4.9432975,4.9452984,4.9550143,4.9298826,4.8941542,4.9344337,4.9292121,4.9279317,4.9544103,4.9312045,4.9078068
0.0725866,0.0740354,0.0712902,0.0742675,0.0696154,0.0701062,0.076303,0.0774106,0.0628241,0.0686994,0.0643276,0.068602,0.0757851,0.0707632,0.0723383,0.0715921,0.0727133,0.0695128,0.0782195,0.0694945,0.0709125,0.0719288,0.0708901,0.0771744,0.0714842,0.0717196,0.0716664,0.0697171,0.0760764,0.0714478,0.0703632,0.0736729,0.0791167,0.0656656,0.0704046,0.0723731,0.071203,0.0731303,0.0734501,0.0744077,0.0751754,0.0745823,0.0660883,0.0699135,0.0747894,0.0694333,0.0709475,0.0691036,0.0643302,0.0784931,0.0736105,0.0794733,0.0720065,0.0718249,0.0677193,0.0732383,0.0662275,0.0794178,0.0749057,0.0739312,0.0701061
0.0506753,0.0539515,0.0571258,0.0576104,0.0521064,0.0657451,0.0562051,0.0569872,0.0499823,0.0512824,0.0507933,0.0574999,0.0521836,0.0574159,0.0500648,0.0525157,0.0511376,0.0512013,0.0511374,0.054022,0.0522245,0.0510499,0.051276,0.0512537,0.0530406,0.0517273,0.047874,0.0510523,0.0608492,0.0562146,0.0532602,0.0618476,0.0587026,0.0503091,0.0557063,0.054862,0.0533282,0.0649134,0.0550749,0.0622309,0.0475932,0.0616273,0.0483956,0.0504017,0.0612684,0.0459235,0.055753,0.0544658,0.0497493,0.0605221,0.0550661,0.0619672,0.0531895,0.0562379,0.0462279,0.0513299,0.0470817,0.0614248,0.0612957,0.0582371,0.0532164
0.2181177,0.1971684,0.197938,0.2040481,0.1876534,0.2013897,0.1828338,0.213951,0.1845239,0.2068439,0.2041084,0.2202001,0.2214362,0.1949632,0.1616673,0.1696346,0.168346,0.232589,0.1759578,0.1810807,0.1829497,0.1763083,0.2185551,0.1781408,0.1843776,0.2289789,0.1748293,0.1891279,0.1896652,0.1892104,0.212215,0.1682707,0.1907575,0.175381,0.1624181,0.1652088,0.2070778,0.205808,0.1953382,0.2246906,0.2117807,0.1945296,0.1795581,0.2229503,0.1567008,0.2195328,0.1533224,0.1960403,0.1704863,0.1548572,0.1871972,0.2210671,0.2232088,0.2141327,0.2130943,0.1842999,0.1682574,0.2092431,0.2279636,0.2074823,0.1698136
0.3507002,0.328285,0.3001899,0.366966,0.4264417,0.3857919,0.3820913,0.3564884,0.3050057,0.27227,0.3654951,0.3278682,0.3247432,0.3739421,0.3893708,0.4090484,0.3518824,0.4064416,0.3313347,0.3415143,0.3805633,0.3404487,0.3911152,0.3459464,0.3306441,0.3087368,0.340273,0.4024043,0.3497586,0.3549214,0.348161,0.3637036,0.2550418,0.2927322,0.3905846,0.3748699,0.3231816,0.3307508,0.3757948,0.4931516,0.3585163,0.2741362,0.3987598,0.3396663,0.2314172,0.375094,0.3283575,0.3159322,0.3404498,0.2711254,0.3502823,0.2652832,0.3327254,0.365791,0.3334856,0.2934431,0.4190844,0.3371427,0.3651411,0.2764316,0.2622523
0.2493153,0.2410094,0.2541004,0.27393,0.2970691,0.2841251,0.2734826,0.2593271,0.2120596,0.1617574,0.2756008,0.2346163,0.2453375,0.2629004,0.2795465,0.2963772,0.2728821,0.3040975,0.2893553,0.2219356,0.2753745,0.2675412,0.2863446,0.2845572,0.2188916,0.2513326,0.2377087,0.2574565,0.2659375,0.2468912,0.2087433,0.2368226,0.2146251,0.2347838,0.2949479,0.2665529,0.2470187,0.2258608,0.2495939,0.3439295,0.2187807,0.2006931,0.2886989,0.2053203,0.1962618,0.2567934,0.2419355,0.2165798,0.2176694,0.1883113,0.2791394,0.1945627,0.2171715,0.2738653,0.1936693,0.1892281,0.2611994,0.2132188,0.2886405,0.2175613,0.2183636
0.3222253,0.2578381,0.1822395,0.2687985,0.3262961,0.2845722,0.3963471,0.3397775,0.2818388,0.2765797,0.2751855,0.2797754,0.2895062,0.2633127,0.3166671,0.3000103,0.2895004,0.3103536,0.2785413,0.2860235,0.2679525,0.2985642,0.3082793,0.2780138,0.2797974,0.289384,0.3254045,0.3998592,0.3366479,0.27685,0.2848539,0.3221312,0.255828,0.2313267,0.3286309,0.2792538,0.3535035,0.2344008,0.2913648,0.4562391,0.3455322,0.168941,0.2915609,0.2520333,0.0858332,0.2565556,0.276675,0.23589,0.2999899,0.1980045,0.2365329,0.2455604,0.2837754,0.2845782,0.326209,0.2221489,0.2961891,0.3186876,0.2751886,0.2175892,0.2160661
0.1331797,0.1936094,0.0703743,0.3033172,0.2879219,0.2745087,0.2439125,0.3176589,0.1483395,0.1410028,0.2123344,0.2188438,0.1637467,0.1834851,0.2605265,0.244829,0.1544194,0.2847555,0.1459769,0.2057865,0.2164223,0.1740074,0.2737224,0.155633,0.2113592,0.2755078,0.1887873,0.2537167,0.1705521,0.2287662,0.1945515,0.3022183,0.1654347,0.1473163,0.2450082,0.2461243,0.2079717,0.1916555,0.1744638,0.2753849,0.160473,0.1937164,0.227886,0.1403852,0.1296936,0.2272611,0.1420031,0.1660245,0.1904457,0.2209022,0.1541343,0.2561212,0.2028781,0.2800053,0.2329454,0.1699532,0.1876119,0.2579927,0.1753593,0.1890577,0.1679269
0.099341,0.0821238,0.1187454,0.1394561,0.1437072,0.1368474,0.115773,0.1130096,0.1107337,0.0960995,0.1109985,0.1112708,0.0970447,0.1166319,0.1157077,0.1302098,0.1168847,0.1252923,0.1002604,0.1090514,0.1267613,0.1151685,0.1186367,0.1033037,0.1053582,0.099007,0.1065667,0.1039722,0.1059222,0.1050066,0.0887454,0.1190536,0.097683,0.1070543,0.1298953,0.1161296,0.1007105,0.1161876,0.1247975,0.1320895,0.0948013,0.1094895,0.120494,0.0945803,0.1098362,0.1164997,0.1083832,0.0986278,0.1062388,0.0964109,0.1368686,0.1047436,0.1018561,0.1204936,0.0929366,0.0903124,0.1194734,0.0989748,0.1348398,0.1189523,0.0867478
0.0715273,0.069713,0.0936799,0.0903167,0.0843312,0.0950283,0.0718534,0.0896817,0.0680017,0.0719814,0.0695696,0.0908388,0.0626549,0.0927155,0.0863422,0.0809652,0.0869401,0.0813706,0.0760045,0.0725817,0.0814049,0.0844745,0.0809168,0.0774912,0.0711828,0.0736876,0.0570041,0.0818207,0.081851,0.0821614,0.0726945,0.0880007,0.0813874,0.0694502,0.067103,0.0746491,0.0818689,0.0778087,0.0745793,0.0841336,0.0585314,0.0845843,0.05905,0.0642236,0.0754124,0.0672999,0.0736695,0.0718392,0.0686876,0.0897644,0.0832735,0.091552,0.0720547,0.0745951,0.0739737,0.0621949,0.0864055,0.0872054,0.0714055,0.0797707,0.0767786
0.0163965,0.0148497,0.0115177,0.0162222,0.0131727,0.010942,0.0159576,0.0155155,0.0147459,0.0139983,0.0125588,0.014213,0.0148524,0.0138642,0.0145129,0.0155508,0.017218,0.0149124,0.0146239,0.014909,0.015411,0.0170151,0.0148733,0.0145198,0.014823,0.0134601,0.0139673,0.0133932,0.0116543,0.0157226,0.0142885,0.0149634,0.0135552,0.0159507,0.0113961,0.0137529,0.0155683,0.014694,0.014811,0.0158464,0.0147916,0.0116883,0.0135497,0.0159776,0.0147298,0.0137846,0.0146399,0.0131331,0.0148903,0.0133328,0.0146647,0.0138379,0.0171545,0.0149814,0.0141273,0.014055,0.0091563,0.0121256,0.0133033,0.0126813,0.0116562
0.1208462,0.1103659,0.1094937,0.0998227,0.1213935,0.1427492,0.1116409,0.1054898,0.1487101,0.0925213,0.1141706,0.1026937,0.1107703,0.1402984,0.1330337,0.1500283,0.1359457,0.1507284,0.1029444,0.1153493,0.1442658,0.1339126,0.143263,0.0981797,0.1129664,0.1086491,0.0796154,0.1244007,0.1279752,0.1001604,0.0900905,0.1295864,0.1125471,0.1137287,0.116066,0.0956682,0.1179291,0.1460459,0.1400693,0.1339143,0.0737362,0.0956532,0.1392952,0.1044813,0.1266686,0.1143507,0.1221506,0.0680801,0.1295999,0.1266018,0.1399096,0.089624,0.1090992,0.1395275,0.0620079,0.092132,0.1039888,0.1000978,0.1441148,0.1173657,0.0865016
0.5721073,0.5674354,0.5602637,0.5656027,0.5647896,0.5626349,0.5583983,0.5683007,0.5720574,0.5622288,0.5612573,0.5640227,0.5640338,0.5674716,0.5704282,0.5754206,0.5759827,0.5723477,0.564656,0.5656489,0.5751657,0.5759693,0.572324,0.5643176,0.5662377,0.5657833,0.5585699,0.5697733,0.5588694,0.5650392,0.56684,0.5709934,0.5670465,0.5640203,0.560737,0.5648279,0.5643483,0.5632427,0.5664274,0.5706221,0.5578295,0.5617624,0.56504,0.5628934,0.5669225,0.5640672,0.5681683,0.5560193,0.5646189,0.5648845,0.5703757,0.5604145,0.569459,0.5652161,0.5597241,0.5595276,0.560925,0.5612716,0.5665278,0.561108,0.5587496
0.1178138,0.1121398,0.1129109,0.1237393,0.1282407,0.1244183,0.1364936,0.1137051,0.1122887,0.1273423,0.1202255,0.1170603,0.118765,0.1368251,0.1384606,0.1297848,0.1349725,0.1365221,0.112821,0.1021078,0.1183321,0.1318563,0.1371701,0.1141171,0.1007373,0.1223139,0.1084514,0.1324831,0.1299893,0.1300059,0.120394,0.1027825,0.1118132,0.1123754,0.1195007,0.1226805,0.1184068,0.1013154,0.1307181,0.1546078,0.1065796,0.1078567,0.1148946,0.1072372,0.1043246,0.0984467,0.1179344,0.1050472,0.1146851,0.1359988,0.1194684,0.0924293,0.1196446,0.1251533,0.1187693,0.0947281,0.1228975,0.1069674,0.128163,0.1066999,0.105693
0.2564961,0.2671171,0.1724607,0.2243732,0.1693313,0.2325525,0.2520903,0.1983573,0.159692,0.2780879,0.2409633,0.2427385,0.2716648,0.167233,0.2171828,0.2876074,0.2127661,0.2497185,0.249797,0.1925005,0.2534663,0.2305587,0.2415985,0.2543174,0.2054912,0.252827,0.2489877,0.3640559,0.239206,0.2193685,0.199635,0.2922026,0.1994012,0.2443187,0.2406741,0.2193267,0.2308351,0.1874747,0.2654795,0.3664559,0.2843224,0.1787928,0.1587986,0.1972155,0.0933067,0.1972718,0.19534,0.2221753,0.1947573,0.1947088,0.1934717,0.1903216,0.2388766,0.1762926,0.2550082,0.1638528,0.1938077,0.2653759,0.2545331,0.2264617,0.2334484
0.033437,0.0367094,0.050382,0.0610517,0.0552912,0.0645203,0.0410375,0.0541043,0.0362095,0.029474,0.0386499,0.0510037,0.035462,0.0494786,0.0423545,0.0445223,0.049771,0.0517544,0.0382106,0.0425532,0.0450178,0.0475528,0.0497454,0.0409328,0.0417763,0.0332693,0.0310666,0.0446438,0.0496737,0.0449339,0.0313275,0.0460351,0.0450025,0.0359437,0.0437757,0.0429398,0.0442911,0.0460524,0.0419656,0.0537402,0.0233604,0.0473281,0.0395721,0.0324848,0.0390318,0.0305214,0.0411343,0.0373358,0.0327507,0.0452253,0.0476053,0.0555617,0.0392646,0.038035,0.0334731,0.0310079,0.045016,0.0555817,0.0451003,0.0415572,0.0351518
0.1286958,0.1331212,0.1148191,0.1747945,0.2253794,0.1908904,0.1725095,0.1677444,0.1477988,0.1118692,0.1650623,0.1572822,0.1319978,0.1775942,0.1728604,0.1644781,0.1391648,0.1700071,0.1415223,0.1511201,0.1592752,0.1427958,0.169336,0.1498579,0.1524949,0.1658862,0.1743795,0.1960165,0.1532198,0.1527462,0.1584313,0.2097324,0.1043551,0.1258497,0.1972862,0.1740052,0.1377497,0.1510646,0.1599758,0.2181647,0.1576868,0.1371494,0.1757283,0.140928,0.0994578,0.1702625,0.1309994,0.132882,0.1518165,0.1165494,0.1731264,0.1330208,0.1344463,0.1727205,0.1667266,0.1156691,0.1707512,0.1667566,0.1647066,0.112781,0.113046
0.0852295,0.0428618,0.0539481,0.0829205,0.0307159,0.0465589,0.0440284,0.0652003,0.0564997,0.0662607,0.0657081,0.0719342,0.0840727,0.0395172,0.0476175,0.0466004,0.0345101,0.0587916,0.059007,0.0550083,0.0464523,0.0383612,0.0607076,0.0618042,0.0594359,0.0560464,0.0340962,0.0504636,0.0804958,0.0312983,0.071928,0.0826763,0.051607,0.0372908,0.07047,0.0822878,0.0920988,0.0568289,0.0743169,0.1147599,0.0525963,0.0619925,0.029523,0.0670667,0.0408821,0.0629923,0.0397225,0.0613511,0.049408,0.0571095,0.0407308,0.0615086,0.0662607,0.045214,0.0615582,0.0450577,0.0397459,0.0733962,0.0542731,0.0485048,0.0542541
0.3292004,0.3106105,0.2491026,0.3842168,0.4191146,0.3983012,0.4469116,0.4363842,0.323417,0.3213153,0.3627048,0.3456376,0.3686982,0.2938263,0.387143,0.3802041,0.2924287,0.3858044,0.3004052,0.3745179,0.3552531,0.3245202,0.3750084,0.3074295,0.3762038,0.4467136,0.3574546,0.4459826,0.3292215,0.3767482,0.3479931,0.4489563,0.338912,0.2901551,0.3746362,0.3610089,0.3657245,0.3254292,0.3590944,0.4252183,0.4068067,0.3293489,0.3728347,0.2841923,0.2048393,0.3466974,0.3616866,0.2804593,0.3591582,0.3085112,0.29687,0.4009968,0.3661347,0.4481053,0.3935022,0.3379641,0.3613504,0.4041771,0.3206835,0.3118533,0.307185
0.239664,0.236302,0.2378332,0.2348277,0.2394124,0.2439239,0.2361764,0.2417728,0.2411751,0.2340802,0.2435734,0.2462531,0.2327116,0.2374273,0.2354279,0.2355378,0.228428,0.2427383,0.2318537,0.2386624,0.2357029,0.2290548,0.2411599,0.2320643,0.2379254,0.2443927,0.2354425,0.2346525,0.2338033,0.2432043,0.2367894,0.2383066,0.24129,0.2273917,0.2311333,0.236947,0.2374036,0.2443646,0.2425907,0.242519,0.2358645,0.2406931,0.236332,0.2374481,0.2426089,0.2441247,0.2310282,0.2330116,0.2374886,0.2309163,0.2424775,0.2470256,0.2468843,0.2461366,0.2406397,0.2410621,0.2382777,0.2444318,0.2478765,0.2469488,0.2398121
0.0168302,0.0148936,0.0115225,0.0138901,0.0146718,0.0108738,0.0152887,0.0154562,0.0140745,0.0156325,0.0124082,0.0135437,0.0151574,0.0135228,0.0154118,0.0173221,0.0176601,0.0154521,0.0150756,0.0127908,0.0171822,0.0176148,0.0154203,0.0149009,0.0128943,0.014689,0.0122187,0.014921,0.0111485,0.0145318,0.0153113,0.0150983,0.0118957,0.0148461,0.0107831,0.0126292,0.0144036,0.0136468,0.0135771,0.0153777,0.0125494,0.0127411,0.0135191,0.0152963,0.0139779,0.0137182,0.014424,0.0105967,0.0138505,0.0128798,0.0147175,0.0131526,0.0168797,0.0147767,0.0138399,0.0127706,0.0080018,0.0100037,0.0119978,0.0102221,0.0110522
0.3185209,0.2989812,0.2920347,0.2876498,0.3041297,0.3124214,0.3044595,0.2979121,0.3177997,0.2925187,0.2966833,0.2983114,0.2997364,0.3085983,0.3159624,0.3237822,0.3266901,0.3202051,0.296159,0.3031283,0.3218116,0.3250213,0.3178237,0.2948876,0.3047661,0.296084,0.27421,0.3142569,0.2878271,0.2866226,0.2946684,0.3124457,0.3021357,0.3054206,0.2840322,0.2923932,0.2986067,0.301233,0.296754,0.3104194,0.2778507,0.2878329,0.3079443,0.2983332,0.2984093,0.3008285,0.3072673,0.2767191,0.3006426,0.3059255,0.3093341,0.2951707,0.315228,0.2948733,0.2790744,0.2823193,0.2955007,0.2861036,0.2910406,0.3010651,0.2783365
0.0327087,0.0456511,0.0475331,0.0438754,0.0511924,0.0479009,0.0438897,0.0516994,0.0397414,0.0402786,0.0381781,0.042651,0.0435076,0.0450517,0.0416345,0.0501285,0.0386715,0.0420304,0.0394773,0.0459231,0.0481235,0.0389672,0.0423844,0.0388323,0.0443296,0.0502947,0.0424858,0.0431843,0.0398513,0.0403637,0.0342936,0.0508279,0.0406323,0.0407656,0.0452961,0.0324847,0.036985,0.0342576,0.0381608,0.0305019,0.0459484,0.0470043,0.040702,0.0331789,0.0447328,0.04085,0.0439049,0.0452444,0.0347089,0.0516624,0.034717,0.0431242,0.0477752,0.0522774,0.0492053,0.0426518,0.0467674,0.0459497,0.0360169,0.0431279,0.0406409
0.2529317,0.2365561,0.2316134,0.2414152,0.2399546,0.2437954,0.2491912,0.237769,0.2415951,0.2301042,0.2431753,0.237331,0.2298823,0.2482775,0.2483848,0.2540779,0.2552548,0.2509358,0.2368426,0.2332978,0.2513463,0.2548279,0.2487628,0.2349283,0.2337838,0.2312659,0.2291722,0.2254242,0.2286099,0.2406556,0.2421991,0.2368961,0.2329858,0.2394382,0.236772,0.230356,0.2396966,0.2246606,0.2333492,0.2496243,0.2241496,0.2285706,0.2491422,0.2259411,0.2398441,0.2326802,0.2472756,0.2215266,0.2358608,0.233202,0.2489227,0.2227373,0.2480009,0.2358569,0.2240487,0.2197219,0.2360025,0.2193807,0.2371676,0.2273095,0.2217715
0.068411,0.0684937,0.0797107,0.0811341,0.0840232,0.0929088,0.0760597,0.0777609,0.0846032,0.0748736,0.0737086,0.0750206,0.0678129,0.071718,0.0795235,0.0778659,0.0670013,0.0804329,0.0735701,0.0778124,0.0776333,0.0682278,0.0790332,0.0729522,0.0761534,0.0722932,0.0739617,0.0787903,0.0844732,0.0743638,0.0725518,0.089492,0.0769462,0.0699059,0.087987,0.0718328,0.0801505,0.0859925,0.086939,0.0833036,0.0635846,0.085394,0.0749538,0.0712753,0.08817,0.0761415,0.0726197,0.0693374,0.0817226,0.0818245,0.0793096,0.0752049,0.0758451,0.0872912,0.0601598,0.0692972,0.074127,0.0672212,0.0935797,0.0848063,0.0713076
0.3222528,0.2728102,0.2972929,0.3812327,0.1621376,0.2174241,0.2495442,0.2600386,0.2423289,0.3237416,0.3352828,0.2781394,0.3944386,0.1371888,0.235874,0.2283128,0.1980386,0.2409797,0.3510858,0.2463005,0.2171379,0.2168579,0.2500579,0.3646281,0.2825001,0.2810629,0.2052648,0.3728023,0.3040055,0.2559046,0.2749939,0.4141364,0.2741936,0.2389711,0.3012545,0.3184387,0.3070453,0.2484649,0.3365265,0.4593102,0.3522718,0.2621815,0.2193423,0.2839101,0.1529476,0.2368326,0.2262045,0.2635007,0.3074571,0.2540809,0.2046698,0.2162789,0.2401933,0.2530558,0.2520603,0.2186772,0.1524192,0.3688006,0.2005535,0.2410956,0.2422078
0.2473085,0.2409968,0.2597319,0.2860185,0.2885422,0.2594773,0.2758799,0.2265043,0.2410083,0.1730646,0.2611239,0.2541953,0.2291421,0.2810412,0.2886715,0.2809961,0.2812081,0.2602916,0.2723689,0.2288594,0.2650776,0.2760528,0.2541496,0.2647055,0.2247851,0.2499637,0.2345848,0.2520383,0.2525888,0.24673,0.2061281,0.2003828,0.2180557,0.2571097,0.2624328,0.2535587,0.2418793,0.225494,0.2442857,0.3131712,0.2085817,0.1855207,0.2890212,0.1923424,0.2407135,0.2545014,0.2207419,0.2237615,0.2135791,0.2192943,0.2845606,0.2037509,0.2356156,0.2695843,0.1775356,0.1859445,0.2635572,0.208837,0.2626426,0.2281196,0.2411453
0.0965242,0.1053843,0.0924125,0.1594062,0.1496395,0.1600615,0.1125941,0.1784443,0.0846753,0.1103101,0.0961458,0.1162863,0.1050599,0.1153353,0.1449669,0.1444338,0.1197982,0.1648763,0.1124191,0.1052526,0.1357234,0.1262119,0.1638041,0.1191525,0.1064378,0.1385269,0.0957579,0.1222062,0.1087902,0.1285395,0.1019146,0.1403303,0.1090335,0.0863766,0.1247319,0.1556221,0.1175605,0.1073487,0.0948439,0.1493381,0.0868399,0.1326746,0.1135833,0.0789363,0.0998521,0.1197184,0.0845104,0.1332582,0.0943941,0.1644192,0.0927078,0.1187907,0.1377702,0.108691,0.1234365,0.1031348,0.1211612,0.154874,0.0662433,0.1086356,0.1158384
0.0417834,0.0298334,0.0384028,0.0280804,0.0230549,0.0271744,0.0278432,0.0260671,0.0318755,0.0282935,0.0342914,0.0317108,0.0308066,0.0287765,0.0266231,0.0281866,0.0269118,0.0367764,0.0359908,0.0325981,0.0310283,0.0278485,0.0338731,0.0353953,0.0335417,0.0341936,0.0281376,0.0277403,0.0328892,0.0240985,0.0349114,0.0235734,0.0256289,0.0266437,0.0209949,0.022302,0.0354447,0.0378005,0.0351395,0.0286831,0.0292636,0.0266871,0.0230765,0.0329105,0.0182784,0.0309474,0.0198951,0.02774,0.0241547,0.0222339,0.0347739,0.0362846,0.0322785,0.0340638,0.0364797,0.0264986,0.0260949,0.0282653,0.0338502,0.0325717,0.0315684
0.0847564,0.0719108,0.0762837,0.0808893,0.0889903,0.0877945,0.0898175,0.0671963,0.0969241,0.0717361,0.0797325,0.0758741,0.0764793,0.0973047,0.0936849,0.0957508,0.0992166,0.1076902,0.0775199,0.0818974,0.0922216,0.0956957,0.1009953,0.0731959,0.0800312,0.072154,0.0655933,0.0747981,0.0751307,0.0701808,0.0730031,0.0843445,0.0754451,0.0786438,0.0789592,0.0661105,0.0737572,0.0796558,0.0823034,0.0962487,0.0650675,0.0677391,0.1028288,0.0723402,0.0833073,0.0739006,0.0849526,0.0593502,0.0842275,0.0841327,0.0964726,0.0713025,0.0884075,0.0863045,0.0596679,0.0556966,0.0838607,0.0662491,0.0833392,0.0789557,0.0640069
0.4787445,0.4702781,0.46258,0.4637687,0.4519031,0.4500481,0.4518716,0.4687758,0.4787051,0.4538178,0.4561329,0.4620437,0.4525194,0.4634726,0.4666969,0.4746823,0.4863324,0.4755814,0.4545282,0.4627633,0.4745041,0.4856399,0.4756736,0.4547049,0.463425,0.4651341,0.4504295,0.4687362,0.4438574,0.4510988,0.464718,0.4698029,0.4657254,0.4540953,0.439852,0.4593223,0.4503284,0.4568239,0.4637412,0.4680554,0.439175,0.4620035,0.4613999,0.4538162,0.4652697,0.4611907,0.4659778,0.447554,0.45554,0.4481367,0.4690941,0.4538177,0.4627886,0.4551108,0.4501561,0.4518689,0.4439663,0.4453865,0.4597843,0.4497374,0.4399923
0.1238642,0.1249926,0.1301698,0.1248966,0.1302223,0.1423316,0.1252308,0.1339164,0.1225609,0.1204785,0.114545,0.1250217,0.1162975,0.1236194,0.1247788,0.1180674,0.1176398,0.1239475,0.122518,0.1221406,0.117442,0.1186449,0.1233671,0.1223699,0.1220283,0.1209606,0.1176093,0.1206159,0.1297362,0.127266,0.1195415,0.1353077,0.1238488,0.1194067,0.1294782,0.1239627,0.1235759,0.1339083,0.1288739,0.1323306,0.116169,0.1302835,0.1184163,0.1184379,0.137,0.1174086,0.121251,0.124282,0.1173209,0.1286199,0.1306952,0.1336485,0.1302641,0.1328356,0.1131893,0.1229427,0.1198678,0.1239265,0.1342413,0.1273439,0.1212133
0.3611574,0.3140617,0.1957019,0.3548665,0.2422562,0.2918787,0.3490692,0.3148183,0.2352639,0.3439783,0.3495195,0.2911313,0.3228824,0.1601056,0.2576262,0.3248049,0.2568238,0.3225471,0.2937364,0.2790133,0.2936486,0.2912725,0.3043901,0.2859048,0.3073104,0.3517456,0.3095133,0.4460742,0.3117842,0.2652749,0.271806,0.368009,0.3039837,0.2599933,0.2867357,0.2375543,0.3175974,0.2514576,0.3490329,0.3889697,0.3426438,0.2514861,0.2456239,0.2129082,0.1236735,0.2594295,0.2333685,0.2591959,0.2501598,0.2359547,0.2399362,0.2746545,0.291369,0.3362509,0.3009743,0.2289119,0.2485281,0.3764194,0.2691069,0.2386299,0.2207541
0.0543936,0.0546354,0.068517,0.0881236,0.0882303,0.0952396,0.0714955,0.0778578,0.0634418,0.0721239,0.0646996,0.0719089,0.0627608,0.0788228,0.0692472,0.0693476,0.0696376,0.0754032,0.0604018,0.0803209,0.0706394,0.069182,0.0729951,0.062541,0.0762097,0.0608272,0.0637956,0.0652359,0.0711651,0.068862,0.0580608,0.0835012,0.0602804,0.0677562,0.0791866,0.0692099,0.0647256,0.0743916,0.0784645,0.0833352,0.0537813,0.0729234,0.0676624,0.0578208,0.0687487,0.0564378,0.0601622,0.0572501,0.0604789,0.0566529,0.0816315,0.0721092,0.0610065,0.0710325,0.0546924,0.0534985,0.067677,0.0703959,0.093078,0.0745872,0.0560069
0.1050882,0.1126701,0.1288701,0.147632,0.1555049,0.1491284,0.1237131,0.169354,0.1155142,0.1265491,0.1027102,0.1114116,0.1100909,0.1248894,0.1282814,0.1478888,0.1194665,0.1288638,0.1160093,0.1034615,0.1438474,0.1224167,0.1309075,0.1136333,0.10627,0.1399524,0.1030488,0.1082338,0.130207,0.1344226,0.0993784,0.1477567,0.1120956,0.1083424,0.1316818,0.1373463,0.1188982,0.1059015,0.1079435,0.1179468,0.1149342,0.1318951,0.0996567,0.0941362,0.1246673,0.126461,0.1088217,0.1286985,0.1024474,0.1666173,0.1128872,0.1347107,0.1445105,0.1223496,0.1252461,0.1016482,0.1281006,0.1450924,0.0851717,0.1289392,0.1213911
0.0260562,0.0355121,0.0261421,0.0295832,0.0304072,0.0294268,0.0286111,0.037407,0.0240273,0.0431907,0.030193,0.0426098,0.033156,0.0357075,0.0304361,0.0281502,0.0148235,0.0354515,0.0224937,0.0248528,0.028112,0.0160711,0.0339308,0.0225507,0.0239439,0.0435251,0.0226235,0.0342898,0.0246047,0.0359842,0.0369812,0.0306852,0.0273329,0.0215168,0.0178863,0.0179982,0.024796,0.0273954,0.023226,0.0335418,0.0342195,0.0281621,0.0253897,0.0278776,0.0240697,0.037901,0.023545,0.0318406,0.0176597,0.0187851,0.0244687,0.0329458,0.0353629,0.0405373,0.0345556,0.0248043,0.0259022,0.0311892,0.0339999,0.0319034,0.0256681
0.0038788,0.001772,0.0017176,0.0023636,0.0039669,0.001898,0.0020058,0.0024285,0.0020781,0.001834,0.0028595,0.0019002,0.0020256,0.0024995,0.0024914,0.0021527,0.0025147,0.0023622,0.0021481,0.0014712,0.0020222,0.0024104,0.0021378,0.0020759,0.001383,0.0014705,0.003542,0.0013526,0.0024034,0.001966,0.002652,0.0019607,0.0016425,0.0032412,0.0024323,0.0017978,0.001609,0.0013514,0.0014532,0.004058,0.0021645,0.0016066,0.0027228,0.0024867,0.0021853,0.0011522,0.004326,0.0013387,0.0023377,0.0014769,0.0024358,0.0012619,0.0032837,0.0021466,0.0024371,0.001074,0.0017547,0.0012912,0.0017339,0.0018166,0.0013086
4.6311812,4.6330755,4.6311348,4.6339193,4.6451086,4.6465126,4.6345391,4.6330482,4.641565,4.6299768,4.6345025,4.6349934,4.6289205,4.6349657,4.647505,4.6446838,4.6453436,4.6479359,4.6389913,4.6359241,4.64355,4.6461513,4.6453649,4.6372583,4.6365451,4.6346241,4.624831,4.6411866,4.6416057,4.6287991,4.6249091,4.6498966,4.6365904,4.6319605,4.6385227,4.6330009,4.6367934,4.6466661,4.6426011,4.6449177,4.6211361,4.6340044,4.644018,4.6293133,4.6383272,4.6359991,4.6322354,4.61983,4.6359256,4.6425014,4.6417267,4.6311817,4.6410772,4.6396729,4.6126854,4.6216007,4.6344729,4.6291285,4.6485093,4.639946,4.6213432
0.1623158,0.1183197,0.1373703,0.1387134,0.1202357,0.1287983,0.1213243,0.1391711,0.1200847,0.1398301,0.1336993,0.128131,0.1387298,0.1228741,0.1322027,0.1280836,0.1369511,0.1417164,0.1351164,0.141829,0.1373649,0.1395759,0.1358264,0.1312992,0.144995,0.1351268,0.1255269,0.1297569,0.1420881,0.1153704,0.1385643,0.1078558,0.1143967,0.1278669,0.1201506,0.1089692,0.1483171,0.1461225,0.1430382,0.1291271,0.1274656,0.116448,0.1064559,0.1356298,0.1088475,0.1327481,0.1086765,0.1192046,0.1129973,0.1240193,0.1374476,0.1287832,0.1317268,0.1365597,0.1436913,0.1254605,0.1208799,0.127484,0.1406571,0.136532,0.1350675
0.0918693,0.0876869,0.0917098,0.0928099,0.1036917,0.0913135,0.0946593,0.0863453,0.103064,0.0900727,0.0966048,0.0957156,0.0897567,0.0976459,0.1007501,0.0966552,0.1017019,0.1076979,0.0965833,0.0949854,0.095562,0.1010462,0.1054966,0.0953596,0.0935175,0.0876836,0.0871357,0.0954593,0.0937161,0.0856437,0.0894943,0.0888826,0.0912265,0.0959492,0.0925531,0.093716,0.0902194,0.0972641,0.0978075,0.1028505,0.0857101,0.0850929,0.1025471,0.0917871,0.0914206,0.0919821,0.0918972,0.0820809,0.0913925,0.0933488,0.1023806,0.0915913,0.0933358,0.0907726,0.0791838,0.0816974,0.0951649,0.0915477,0.0945701,0.0905962,0.0892869
0.1358943,0.1117705,0.1030877,0.1080752,0.1345206,0.1010826,0.1441969,0.1179209,0.1191173,0.1528251,0.1178538,0.1133428,0.1357017,0.1359419,0.1577448,0.1513545,0.1206885,0.1432095,0.1236123,0.0949731,0.1352527,0.1242992,0.139634,0.1272907,0.0941446,0.1236057,0.1332971,0.1844034,0.1227329,0.0981462,0.1192746,0.1188942,0.1279298,0.1133444,0.1299408,0.1058182,0.1369831,0.1071714,0.1257896,0.1921571,0.1329174,0.096613,0.1175797,0.1349117,0.0743082,0.1148816,0.1251531,0.1042808,0.1031129,0.1072281,0.0994003,0.0864925,0.1139101,0.1151041,0.13591,0.0969659,0.1408229,0.1300986,0.1298841,0.1077385,0.1151023
0.020278,0.0165783,0.0094551,0.0178253,0.017932,0.0210912,0.0172502,0.0219652,0.0139479,0.015272,0.0230353,0.0275401,0.0232431,0.0137777,0.018395,0.02423,0.0101894,0.0221293,0.0145361,0.015164,0.0234978,0.0123562,0.0198222,0.0139772,0.0149398,0.0250627,0.0190689,0.015925,0.0146663,0.0181847,0.0176472,0.0246687,0.0156373,0.011077,0.0138381,0.0163905,0.0194946,0.0194654,0.0130707,0.0308408,0.0195612,0.0151286,0.016456,0.0112117,0.0099556,0.0238701,0.0163414,0.0231274,0.0107564,0.0109994,0.0176387,0.0270491,0.0214841,0.0279239,0.0212697,0.0145656,0.0187836,0.0275235,0.0256779,0.0200193,0.0112857