FID-State-County,y1952,y1953,y1955,y1956,y1960,y1962,y1963,y1966,y1972,y1976,y1987,y1988,y1998 
109-North Dakota-Oliver,1.1392346,0.8822589,0.9857345,0.9057621,1.007874,0.9095544,0.9407658,0.9448796,0.9931555,1.0449166,1.0262929,1.1849719,0.9479109
140-Washington-Benton,1.1415647,1.0614162,0.9803359,1.2055672,1.101818,0.9963723,1.0983503,1.0995889,1.1947944,1.246379,1.2137089,1.1031892,1.0703726
398-Idaho-Canyon,1.0173888,0.860997,0.8915278,1.0243279,1.0627645,1.016157,0.9076138,1.1431559,0.9735016,0.9205129,1.0658961,1.079738,0.805573
464-Iowa-Sioux,0.7752968,0.5818552,0.9069636,0.8670725,0.5892057,0.5938946,0.8736137,0.8035692,0.8235642,1.0198288,0.7758375,0.8211868,0.6642815
476-Idaho-Lincoln,1.1316078,1.1306512,1.0787825,1.1467661,1.1579521,1.1134371,1.0575036,1.1702583,1.098032,1.1659775,1.1631243,1.1350014,1.0107399
478-Idaho-Minidoka,0.9659535,0.8547521,0.8403794,0.9787927,0.9788602,0.9109622,0.7118982,1.0315296,0.8513084,0.8731495,0.9520115,1.0337842,0.7569595
504-Iowa-Buena Vista,0.8612586,0.7962796,1.0994677,1.0343528,0.7757827,0.717671,0.9255255,1.026418,0.8310712,1.1075629,0.7548535,0.8528767,0.5710209
515-Idaho-Jerome,0.9869479,0.8927047,0.9154929,1.0153691,1.0227445,0.9351967,0.7664641,1.0836314,0.8826687,0.9019955,1.0123205,1.0226253,0.7681485
576-Nebraska-Cuming,1.4665486,1.6369547,1.7688356,1.7741548,1.4650806,1.4823948,1.4993197,1.5183928,1.555378,1.761529,1.5417059,1.6188355,1.1930256
621-Iowa-Johnson,0.982219,1.1486764,1.1578462,1.1061639,0.9141925,0.9778087,1.0846162,1.0137528,0.8868087,1.0919666,1.0054287,1.2226647,0.7457385
634-Nebraska-Valley,4.2156628,4.1432979,4.2394713,4.2233015,4.0877202,3.9934003,4.1479141,4.0727572,4.152233,4.1546484,4.020366,4.1188977,4.0220781
638-Indiana-Lake,1.7175946,1.717025,1.7020463,1.7608579,1.7341101,1.7815663,1.7435932,1.6506083,1.6260913,1.7157645,1.6325615,1.7502893,1.6286108
641-Ohio-Geauga,2.7448115,2.7466089,2.7195636,2.6962655,2.7414588,2.7542191,2.7760907,2.7409517,2.7267656,2.7222934,2.7096831,2.7365324,2.7316141
644-Nebraska-Banner,0.9406183,0.9222499,0.8663498,0.9863536,1.015847,0.8729852,0.9688618,0.9567275,0.8588475,1.0028258,0.8757172,0.9169083,0.8719183
646-Rhode Island-Newport,2.1163926,2.0783415,2.0896412,2.1309646,2.1083881,2.1192613,2.1252196,2.1488404,2.0906256,2.1282913,2.1000675,2.1327942,2.0777169
673-Nebraska-Nance,1.0333664,1.0935704,1.1469206,1.1614664,0.9970902,1.0020886,1.0551593,1.058713,0.9466068,1.1016163,0.9919633,1.0888939,0.9179026
690-Massachusetts-Dukes,7.4984632,7.4712782,7.4832817,7.499624,7.5020543,7.489458,7.5010797,7.5087064,7.4762033,7.5062212,7.4861596,7.5136549,7.4869289
704-Nebraska-Polk,1.442673,1.5449649,1.6536504,1.7137218,1.4110189,1.3722969,1.4638823,1.6235901,1.3135876,1.5586607,1.4140002,1.5541464,1.2813937
707-Nebraska-Howard,1.2137503,1.1741025,1.2397899,1.2819622,1.1067837,1.052189,1.1772803,1.2059879,1.0680497,1.1577131,1.0729868,1.1659777,1.0265941
710-Massachusetts-Nantucket,7.4984632,7.4712782,7.4832817,7.499624,7.5020543,7.489458,7.5010797,7.5087064,7.4762033,7.5062212,7.4861596,7.5136549,7.4869289
720-Illinois-Mercer,1.0387196,1.1764895,1.1129043,1.1788203,1.0156174,1.0617414,1.1420227,1.0586028,0.9429077,1.1350671,1.0613749,1.2577096,0.8002748
815-New York-Bronx,1.3484091,1.3575529,1.34358,1.3681172,1.3490445,1.3682733,1.3729351,1.3791667,1.3530551,1.3711393,1.3526257,1.3646185,1.3552443
833-New York-New York,3.6525726,3.6584241,3.6559515,3.6714544,3.6496019,3.6735086,3.6739129,3.6781381,3.6498034,3.6763037,3.6528656,3.6630973,3.6512709
840-Ohio-Hardin,2.1862203,2.2141695,2.1176967,2.1072202,2.2132977,2.2026596,2.2327894,2.0302115,2.0017144,2.1681097,2.0963603,2.2341988,2.0084369
841-New York-Queens,2.8361697,2.8430291,2.8336397,2.8547641,2.8330609,2.8578702,2.8615443,2.8697229,2.8412467,2.8646178,2.8490943,2.8545375,2.8468388
844-New Jersey-Hunterdon,1.2078196,1.2875379,1.2651036,1.2814672,1.2945397,1.3131323,1.3290285,1.3383925,1.2618376,1.3356232,1.2645839,1.2841308,1.266136
854-New York-Kings,1.4632311,1.4726315,1.4667017,1.4839409,1.4586068,1.4806529,1.4883913,1.4945543,1.4625308,1.4946111,1.4736518,1.4808144,1.4715225
886-West Virginia-Hancock,1.3835981,1.4206872,1.3796416,1.3506813,1.4046855,1.413863,1.4186052,1.4144635,1.3952862,1.4151846,1.3857874,1.4061842,1.3776435
890-Missouri-Schuyler,1.052065,1.1666863,1.1300709,1.1332669,1.0443036,1.1002694,1.128164,1.1164381,0.9894074,1.1076217,1.0813225,1.1979199,0.9107594
891-New Jersey-Middlesex,2.9047729,2.9388224,2.9252047,2.9390084,2.92806,2.9478093,2.9570157,2.9462194,2.9170613,2.9629205,2.914885,2.9374442,2.9277395
904-Ohio-Knox,1.0848394,1.1219455,1.0536633,0.9984145,1.0870318,1.0968487,1.1432839,1.0537043,1.0088342,1.0663733,1.0342493,1.0704664,0.9697578
914-Ohio-Shelby,1.0542876,1.0843212,1.01673,1.0898674,1.1275946,1.165007,1.1672515,1.0313934,0.941969,1.1402868,1.0355685,1.157622,0.8977827
956-Illinois-Piatt,1.2338096,1.3662432,1.1730771,1.2435996,1.1948137,1.2726403,1.3165856,1.1807989,1.1302625,1.3382148,1.2084055,1.4513687,0.9869864
969-Indiana-Hamilton,3.2385873,3.2572453,3.2581737,3.2453479,3.3077527,3.3176365,3.3160203,3.2895011,3.2457882,3.2958067,3.2999769,3.3581331,3.0867666
981-Ohio-Belmont,1.2678949,1.2988578,1.2540781,1.2061162,1.2886038,1.2795507,1.2825018,1.2953928,1.2505113,1.2708558,1.2547068,1.2619921,1.2184972
1063-Missouri-Caldwell,3.4618222,3.6147028,3.5305174,3.6439256,3.4356157,3.5078093,3.5805456,3.6013777,3.3658032,3.5898609,3.4855565,3.6442572,3.2164142
1096-West Virginia-Mineral,1.571485,1.6163047,1.5702151,1.5554598,1.5892182,1.5940121,1.5965633,1.6299553,1.5853874,1.5997415,1.5973112,1.58674,1.5872069
1152-California-Colusa,0.9919247,0.9318248,1.0041394,0.9886165,1.0618712,1.0455781,0.8930709,1.0831673,0.9431808,0.9812414,1.0965241,0.9933936,0.7733444
1174-Indiana-Monroe,1.2649157,1.2875908,1.2415883,1.2662362,1.2833297,1.2803635,1.2987288,1.2706205,1.2464636,1.3016122,1.2681147,1.2933785,1.1956288
1183-California-Sutter,1.7945024,1.6742064,1.8211957,1.7935676,1.9276313,1.9111097,1.6236656,1.9629592,1.7629659,1.8187596,1.915989,1.7973576,1.5161874
1188-Virginia-Clarke,1.9786329,2.0763655,2.0285152,2.0224288,2.0369028,2.0489235,2.0420509,2.1046963,2.0178841,2.0322552,2.0505474,2.0571498,2.0548747
1190-Nevada-Carson City,3.7169759,3.7408609,3.6685858,3.7507599,3.7811619,3.7126872,3.7187068,3.7340753,3.7139314,3.763627,3.7736886,3.7688057,3.6701818
1253-Colorado-Cheyenne,1.0667438,1.0091124,1.1587776,1.2003179,1.0255295,0.9988692,1.0991786,1.0842372,0.9743348,1.0616239,0.9422201,1.0269178,0.9100823
1256-Illinois-Bond,1.5648442,1.6967505,1.5154738,1.511405,1.5106194,1.5630055,1.5830837,1.493785,1.3140954,1.6098233,1.4554827,1.5945765,1.1976387
1263-District of Columbia-Washington,4.9139291,4.9356448,4.9322472,4.948627,4.9399578,4.9608685,4.9362777,4.9542,4.9413612,4.9473524,4.9488643,4.9551867,4.9519957
1284-Virginia-Falls Chruch,82.387344,82.4056323,82.4011601,82.4056533,82.409551,82.4264146,82.4033142,82.4180376,82.406789,82.4157848,82.4182644,82.4243269,82.4164641
1309-Virginia-Manassas City,162.7510571,162.77518,162.7619345,162.7563763,162.7748524,162.7817213,162.7725947,162.7838018,162.7768565,162.7956017,162.7721499,162.7779397,162.7767828
1363-Illinois-Wabash,0.9789033,1.0721605,0.8192893,0.9210323,0.9296457,0.9840029,1.0109242,0.9729879,0.8469864,0.9864614,0.9240848,0.9616095,0.6741002
1384-Kentucky-Boyd,2.41119,2.4306731,2.3945895,2.381033,2.4176037,2.3986128,2.4200927,2.4084269,2.4009814,2.4137655,2.4192188,2.3970605,2.3968293
1420-California-San Joaquin,1.6060229,1.5199671,1.5349674,1.5588262,1.71351,1.690397,1.4178143,1.7075691,1.5698297,1.6113122,1.6883922,1.6217099,1.3117066
1466-Colorado-San Miguel,1.660905,1.6541212,1.6585643,1.6631295,1.6530066,1.6518784,1.6499767,1.6542542,1.6401859,1.667543,1.6361363,1.6312465,1.6334014
1477-Virginia-Richmond,3.5273781,3.5780478,3.4926784,3.4981985,3.4816956,3.5185956,3.5515477,3.5448949,3.5524677,3.5397865,3.5462372,3.5765053,3.554015
1483-California-Stanislaus,0.9759712,0.9137882,0.9646827,0.9804407,1.0535655,1.0430117,0.8711976,1.0611376,0.938979,0.9730038,1.0272616,0.9798737,0.7870171
1504-Kansas-Gray,0.8719125,0.8285006,0.5741595,1.0098477,0.6888445,0.4466565,0.6447326,0.8300628,0.5793572,0.7246149,0.4204991,0.6916175,0.6712849
1539-Virginia-Clifton Forge,11.7049956,11.7296831,11.7264154,11.7212366,11.7219674,11.7234549,11.7342868,11.7324951,11.72515,11.7234746,11.7223473,11.7325709,11.7224148
1546-Virginia-Amherst,1.501492,1.5399152,1.5322697,1.5286287,1.5329484,1.5340446,1.5490378,1.5481808,1.5259858,1.5310926,1.5191621,1.556946,1.5378537
1547-California-San Francisco,1.8236889,1.8570757,1.7910752,1.8711955,1.8612226,1.8322505,1.8405696,1.8253061,1.8178361,1.8754587,1.847788,1.8571181,1.8054968
1548-Virginia-Covington,1.2907215,1.3044904,1.2995244,1.2905376,1.2982274,1.3024897,1.3051576,1.3179451,1.3068694,1.2971474,1.2890474,1.3021368,1.2926582
1565-Kansas-Haskell,0.9403796,0.8912702,0.5933259,1.0192732,0.7358223,0.565329,0.7471942,0.8205425,0.4428958,0.7211887,0.6236542,0.7711262,0.7112507
1592-California-Merced,1.2593395,1.2081412,1.2537923,1.2540859,1.337581,1.3431994,1.1212692,1.3470033,1.1725753,1.2108725,1.266165,1.2229508,1.0126855
1659-Kentucky-Caldwell,1.1120454,1.1025603,1.0475817,1.074894,1.0773401,1.0530938,1.1428381,1.0626359,1.0231385,1.0780967,1.0404348,0.9853361,0.9677177
1665-Virginia-Bedford City,55.5720252,55.5987694,55.6003652,55.5866971,55.5989912,55.5863296,55.6075145,55.5940944,55.5907525,55.5933815,55.5816539,55.6090493,55.5920994
1675-Virginia-Hopewell,7.4876966,7.5138606,7.4786233,7.4752062,7.4853974,7.497795,7.4962026,7.5067464,7.5108721,7.5072474,7.509309,7.515445,7.4998353
1691-Virginia-Charlotte,2.0089667,2.0414508,2.0009368,2.0335712,2.0222259,2.0185729,2.0731918,2.037191,2.0555058,2.0462737,2.0444197,2.0458735,2.0200922
1697-Kentucky-Ballard,2.1352652,2.1796781,2.0755167,2.1368544,2.1007595,2.1190671,2.1989094,2.0737781,2.040997,2.1362873,2.1359532,2.0155902,1.9390114
1707-Virginia-Radford,4.7027001,4.7097372,4.7150654,4.6876812,4.7144689,4.7074769,4.7236165,4.7098853,4.7131153,4.7024207,4.6954483,4.7240414,4.7017207
1801-Virginia-Franklin City,286.4109408,286.3995924,286.3831658,286.3871354,286.3933564,286.3938344,286.4081581,286.4079763,286.4146611,286.4104136,286.4068294,286.405901,286.3935649
1835-North Carolina-Warren,1.1792719,1.2115496,1.176837,1.1770004,1.199128,1.1862113,1.2154122,1.2270025,1.2073308,1.1995622,1.1929169,1.2099677,1.1891563
1868-California-Kings,2.3751233,2.2664027,2.317938,2.3037173,2.569117,2.4871989,2.1088735,2.5076018,2.3335679,2.277274,2.3989275,2.3150668,1.9556465
1900-Oklahoma-Payne,1.0383723,0.9835733,1.0212886,1.0834558,0.9573786,0.9733509,1.0084042,1.0375381,0.9717192,1.0372629,0.9609098,0.9648438,0.9044983
1939-Texas-Hemphill,1.2468335,1.231425,1.2081998,1.2594917,1.1328851,1.1940865,1.2114645,1.2521422,1.1580318,1.2085473,1.1674631,1.1893932,1.1769169
2039-North Carolina-Moore,1.4724747,1.5036576,1.5009737,1.4913708,1.5177303,1.5047403,1.5027673,1.5281251,1.5164046,1.5013573,1.5249772,1.5097308,1.4918921
2050-Oklahoma-Haskell,1.1029465,1.0446011,1.1023398,1.1274076,1.0371124,1.0934768,1.1598976,1.1191371,1.0371781,1.0567541,1.0267731,1.0693634,1.0456532
2065-Tennessee-Moore,1.3682523,1.3525781,1.3153693,1.3185279,1.3582315,1.3656173,1.3544385,1.3812256,1.3089069,1.3641012,1.4144489,1.3410029,1.2736557
2119-South Carolina-Lancaster,2.2050153,2.2402877,2.2332966,2.2554839,2.2321161,2.2332385,2.2268319,2.254169,2.2205889,2.2201235,2.247581,2.2430402,2.2175119
2151-South Carolina-Union,1.0712654,1.0731791,1.0861977,1.0906891,1.0703373,1.0730787,1.068061,1.0817436,1.0580197,1.050222,1.0929029,1.0929775,1.0632757
2239-South Carolina-Lee,1.6247122,1.7182014,1.7154517,1.717925,1.6780878,1.6515274,1.6473196,1.6833411,1.6916596,1.6363089,1.6819439,1.7238054,1.6590892
2372-Georgia-Fayette,1.6712108,1.663542,1.6833142,1.6731541,1.6802491,1.6718295,1.6518683,1.672742,1.6706139,1.6559658,1.697488,1.6894793,1.6707071
2380-Georgia-Coweta,3.0499552,3.0452068,3.076866,3.0467822,3.0564959,3.0498992,3.0322983,3.0530748,3.0423533,3.0370326,3.0722167,3.0688151,3.0494525
2396-California-Imperial,1.7344978,1.722093,1.610057,1.7602393,1.7767177,1.7737045,1.6251815,1.6820327,1.6394548,1.5499127,1.7413373,1.6759003,1.6044258
2556-Louisiana-Franklin,1.1913247,1.0825788,1.0415642,1.1448679,1.1591023,1.1949344,1.2023738,1.1110628,1.0771702,1.1246662,1.1115483,1.0466928,1.024098
2829-Texas-Austin,1.5191312,1.5105829,1.5770375,1.6399069,1.4167828,1.5524945,1.6073398,1.5672155,1.5498207,1.4638711,1.4983708,1.5768575,1.4737559
2876-Texas-Maverick,1.2650399,1.2401085,1.2137984,1.2743354,1.182666,1.2531561,1.2285237,1.2163891,1.1869239,1.1051174,1.1787917,1.236222,1.2180134
2889-Texas-Refugio,1.4498551,1.479775,1.4969701,1.5274393,1.2972895,1.4819249,1.5116216,1.445173,1.3507262,1.3333676,1.4587857,1.5141772,1.3992305
2895-Florida-Pinellas,2.2686837,2.2407251,2.2696996,2.2994395,2.2411799,2.2470458,2.2616276,2.2876166,2.2940347,2.2732356,2.2585498,2.2516462,2.2834322
2907-Texas-Kleberg,1.003052,0.9646102,0.9644433,0.9886509,0.8412946,0.9867755,0.9877175,0.9177141,0.8252099,0.7880543,0.9355596,0.9835087,0.932564
2925-Texas-Cameron,1.4320352,1.4651757,1.3838495,1.4879553,1.3191429,1.4801175,1.3373247,1.3366947,1.1498741,1.0897489,1.2535452,1.4310715,1.3598116
2972-Michigan-Benzie,1.3877598,1.4088672,1.4269905,1.3996381,1.3875283,1.4228143,1.4115864,1.4071348,1.3863311,1.4110951,1.3854614,1.3892893,1.3780674
3008-Michigan-Tuscola,1.0320491,0.9715795,1.0915233,1.0056238,1.0877503,1.0765909,1.1200241,1.0801861,0.9165534,1.0351234,1.0104273,1.0410881,1.025783
3033-Wisconsin-Waukesha,1.081238,1.1522438,1.1444534,1.1285444,1.0810806,1.1842695,1.1834415,1.1575289,1.1395807,1.1629121,1.0701744,1.1663262,1.0688199
3035-New York-Madison,1.0039882,1.0073932,0.9950245,0.9871244,1.0178471,1.0267212,1.0143764,1.0129198,0.9844195,0.9223345,1.019248,1.030554,0.9850518
3070-Illinois-Boone,1.5742119,1.7833843,1.8202855,1.7806129,1.6698407,1.8444164,1.7884961,1.7821923,1.6718546,1.8682773,1.580058,1.8996478,1.525609
3071-Illinois-Lake,1.4945641,1.5194832,1.5142029,1.5102636,1.5021425,1.5433257,1.5254464,1.4928253,1.4859525,1.5199337,1.449374,1.5295008,1.4667971
3081-Pennsylvania-Erie,1.2649516,1.2720723,1.262119,1.2022706,1.2954106,1.2851345,1.2940685,1.2556573,1.217478,1.2538945,1.2177678,1.256165,1.2765027
3084-Illinois-Carroll,0.8992283,1.0128744,0.9737442,0.947916,0.8910101,1.0029775,1.0489182,1.0189487,0.8725375,1.0982675,0.9038385,1.1917211,0.7150788
3087-Illinois-De Kalb,1.7307434,1.852705,1.8143018,1.8433407,1.699737,1.9387054,1.8093468,1.7867542,1.7521511,1.91749,1.5490022,1.9420174,1.5619033
